# 3ds Max Wavefront OBJ Exporter v0.97b - (c)2007 guruware
# File Created: 18.04.2018 13:43:22

mtllib enemy-low.mtl

#
# object Box001
#

v  -12.9679 12.3007 23.2144
v  -13.5097 22.3068 23.6065
v  -13.5097 22.3068 19.4372
v  -12.9679 12.3007 19.2412
v  -16.3402 49.5973 24.3022
v  -9.5098 52.1316 24.3022
v  -9.5098 53.0339 19.7851
v  -16.3402 50.4946 19.7851
v  0.0404 53.0342 24.3022
v  -9.5098 42.3633 24.6997
v  0.0404 42.3833 24.6998
v  0.0404 12.3007 7.3216
v  -9.5098 12.3007 7.3216
v  -9.5098 22.3207 7.2371
v  0.0404 22.3262 7.2371
v  0.0404 12.3007 23.2144
v  -9.5098 12.3007 23.2144
v  -9.5098 12.3007 19.2412
v  0.0404 12.3007 19.2412
v  0.0404 53.9385 19.7851
v  -15.1946 42.3132 24.6997
v  -12.9679 12.3007 7.3216
v  -13.5097 22.3068 7.2371
v  -14.2654 32.3066 24.1034
v  -15.1946 42.3132 19.9839
v  -14.2654 32.3066 19.6857
v  -9.5098 32.3436 24.1034
v  -9.5098 22.3207 23.6065
v  0.0404 22.3262 23.6065
v  0.0404 32.3584 24.1034
v  -9.5098 32.3436 6.7319
v  -9.5098 42.3633 5.4246
v  0.0404 42.3833 5.4246
v  0.0404 32.3584 6.7319
v  -14.2653 32.3066 6.7319
v  -15.1946 42.3132 5.4246
v  -9.5098 49.2913 4.3559
v  0.0404 50.2020 4.3559
v  -15.8326 46.7369 4.3559
v  -13.5097 22.3068 15.2680
v  -13.5097 22.3068 11.2948
v  -12.9679 12.3007 11.2948
v  -12.9679 12.3007 15.2680
v  -9.5098 53.0911 15.2680
v  -9.5098 51.9777 9.8119
v  -16.3402 49.4283 9.8119
v  -16.3402 50.5467 15.2680
v  0.0404 53.9977 15.2680
v  0.0404 52.8863 9.8119
v  -9.5098 12.3007 11.2948
v  -9.5098 12.3007 15.2680
v  -15.1946 42.3132 15.2680
v  -15.1946 42.3132 10.2545
v  -14.2654 32.3066 10.9999
v  -14.2654 32.3066 15.2680
v  0.0404 12.3007 11.2948
v  0.0404 12.3007 15.2680
v  -4.4370 12.3007 18.2053
v  -4.4370 12.3007 15.2680
v  -8.8348 12.3007 18.2053
v  -8.8348 12.3007 15.2680
v  -8.8348 12.3007 12.3307
v  -4.4370 12.3007 12.3307
v  -4.4370 10.6520 18.2055
v  -4.4370 10.6520 15.2682
v  -8.8348 10.6520 18.2055
v  -8.8348 10.6520 15.2682
v  -8.8348 10.6520 12.3309
v  -4.4370 10.6520 12.3309
v  -3.9284 10.6520 18.8850
v  -3.9284 10.6520 15.2682
v  -9.3435 10.6520 18.8850
v  -9.3435 10.6520 15.2682
v  -9.3435 10.6520 11.6514
v  -3.9284 10.6520 11.6514
v  -3.9284 4.7992 18.8850
v  -3.9284 4.7992 15.2682
v  -9.3435 4.7992 18.8850
v  -9.3435 4.7992 15.2682
v  -9.3435 4.7992 11.6514
v  -3.9284 4.7992 11.6514
v  -3.9284 1.8319 24.7288
v  -3.9284 1.8319 15.2682
v  -9.3435 1.8319 24.7288
v  -9.3435 1.8319 15.2682
v  -9.3435 1.8319 11.6514
v  -3.9284 1.8319 11.6514
v  -3.9284 0.7929 25.2533
v  -3.9284 0.7928 15.2682
v  -9.3435 0.7929 25.2533
v  -9.3435 0.7928 15.2682
v  -9.3435 0.7928 10.9935
v  -3.9284 0.7928 10.9935
v  -3.9284 -0.1469 24.7288
v  -3.9284 -0.1469 15.2682
v  -9.3435 -0.1469 24.7288
v  -9.3435 -0.1469 15.2682
v  -9.3435 -0.1469 11.6514
v  -3.9284 -0.1469 11.6514
v  13.0488 12.3007 23.2144
v  13.0488 12.3007 19.2412
v  13.5906 22.3068 19.4372
v  13.5906 22.3068 23.6065
v  16.4211 49.5973 24.3022
v  16.4211 50.4946 19.7851
v  9.5907 53.0339 19.7851
v  9.5907 52.1316 24.3022
v  9.5907 42.3633 24.6998
v  9.5907 22.3207 7.2371
v  9.5907 12.3007 7.3216
v  9.5907 12.3007 19.2412
v  9.5907 12.3007 23.2144
v  15.2755 42.3132 24.6998
v  13.5906 22.3068 7.2371
v  13.0488 12.3007 7.3216
v  14.3462 32.3066 24.1034
v  14.3462 32.3066 19.6857
v  15.2755 42.3132 19.9839
v  9.5907 32.3436 24.1034
v  9.5907 22.3207 23.6065
v  9.5907 32.3436 6.7319
v  9.5907 42.3633 5.4246
v  14.3462 32.3066 6.7319
v  15.2755 42.3132 5.4246
v  9.5907 49.2913 4.3559
v  15.9134 46.7369 4.3559
v  13.5906 22.3068 15.2680
v  13.0488 12.3007 15.2680
v  13.0488 12.3007 11.2948
v  13.5906 22.3068 11.2948
v  9.5907 53.0911 15.2680
v  16.4211 50.5467 15.2680
v  16.4211 49.4283 9.8119
v  9.5907 51.9777 9.8119
v  9.5907 12.3007 15.2680
v  9.5907 12.3007 11.2948
v  15.2755 42.3132 15.2680
v  14.3462 32.3066 15.2680
v  14.3462 32.3066 10.9999
v  15.2755 42.3132 10.2545
v  4.5179 12.3007 15.2680
v  4.5179 12.3007 18.2053
v  8.9157 12.3007 18.2053
v  8.9157 12.3007 15.2680
v  8.9157 12.3007 12.3307
v  4.5179 12.3007 12.3307
v  4.5179 10.6520 15.2682
v  4.5179 10.6520 18.2055
v  8.9157 10.6520 18.2055
v  8.9157 10.6520 15.2682
v  8.9157 10.6520 12.3309
v  4.5179 10.6520 12.3309
v  4.0092 10.6520 15.2682
v  4.0092 10.6520 18.8850
v  9.4243 10.6520 18.8850
v  9.4243 10.6520 15.2682
v  9.4243 10.6520 11.6514
v  4.0092 10.6520 11.6514
v  4.0092 4.7992 15.2682
v  4.0092 4.7992 18.8850
v  9.4243 4.7992 18.8850
v  9.4243 4.7992 15.2682
v  9.4243 4.7992 11.6514
v  4.0092 4.7992 11.6514
v  4.0092 1.8319 15.2682
v  4.0092 1.8319 24.7288
v  9.4243 1.8319 24.7288
v  9.4243 1.8319 15.2682
v  9.4243 1.8319 11.6514
v  4.0092 1.8319 11.6514
v  4.0092 0.7928 15.2682
v  4.0092 0.7929 25.2533
v  9.4243 0.7929 25.2533
v  9.4243 0.7928 15.2682
v  9.4243 0.7928 10.9935
v  4.0092 0.7928 10.9935
v  4.0092 -0.1469 15.2682
v  4.0092 -0.1469 24.7288
v  9.4243 -0.1469 24.7288
v  9.4243 -0.1469 15.2682
v  9.4243 -0.1469 11.6514
v  4.0092 -0.1469 11.6514
v  13.6226 36.1756 10.3250
v  13.6226 38.8854 11.2055
v  18.3121 38.3177 11.9869
v  18.3121 36.1756 11.2909
v  13.6226 40.5602 13.5106
v  18.3121 39.6416 13.8091
v  13.6226 40.5602 16.3599
v  18.3121 39.6416 16.0614
v  13.6226 38.8854 18.6650
v  18.3121 38.3177 17.8836
v  13.6226 36.1756 19.5455
v  18.3121 36.1756 18.5796
v  13.6226 33.4658 18.6650
v  18.3121 34.0335 17.8836
v  13.6226 31.7910 16.3599
v  18.3121 32.7096 16.0614
v  13.6226 31.7910 13.5106
v  18.3121 32.7096 13.8091
v  13.6226 33.4658 11.2055
v  18.3121 34.0335 11.9869
v  18.3121 37.8740 12.5976
v  18.3121 36.1756 12.0457
v  18.3121 38.9237 14.0423
v  18.3121 38.9237 15.8282
v  18.3121 37.8740 17.2729
v  18.3121 36.1756 17.8248
v  18.3121 34.4772 17.2729
v  18.3121 33.4275 15.8282
v  18.3121 33.4275 14.0423
v  18.3121 34.4772 12.5976
v  19.0419 37.8740 12.5976
v  19.0419 36.1756 12.0457
v  19.0419 38.9237 14.0423
v  19.0419 38.9237 15.8282
v  19.0419 37.8740 17.2729
v  19.0419 36.1756 17.8248
v  19.0419 34.4772 17.2729
v  19.0419 33.4275 15.8282
v  19.0419 33.4275 14.0423
v  19.0419 34.4772 12.5976
v  19.0419 37.5120 13.0958
v  19.0419 36.1756 12.6616
v  19.0419 38.3380 14.2327
v  19.0419 38.3380 15.6378
v  19.0419 37.5120 16.7746
v  19.0419 36.1756 17.2089
v  19.0419 34.8392 16.7746
v  19.0419 34.0133 15.6378
v  19.0419 34.0133 14.2327
v  19.0419 34.8392 13.0959
v  22.8182 33.3483 12.7399
v  22.8182 31.7533 12.2217
v  22.8182 34.3340 14.0967
v  22.8182 34.3340 15.7738
v  22.8182 33.3483 17.1306
v  22.8182 31.7533 17.6488
v  22.8182 30.1583 17.1306
v  22.8182 29.1725 15.7738
v  22.8182 29.1725 14.0967
v  22.8182 30.1583 12.7399
v  28.3281 26.2345 13.1139
v  27.9317 25.4370 12.6840
v  28.5731 26.7274 14.2396
v  28.5731 26.7274 15.6309
v  28.3281 26.2345 16.7566
v  27.9317 25.4370 17.1865
v  27.5352 24.6395 16.7566
v  27.2902 24.1467 15.6309
v  27.2902 24.1467 14.2396
v  27.5352 24.6395 13.1139
v  32.9759 19.7149 13.4879
v  32.1830 19.7149 13.1463
v  33.4659 19.7149 14.3824
v  33.4659 19.7149 15.4881
v  32.9759 19.7149 16.3826
v  32.1830 19.7149 16.7242
v  31.3901 19.7149 16.3826
v  30.9001 19.7149 15.4881
v  30.9001 19.7149 14.3824
v  31.3901 19.7149 13.4879
v  32.1830 19.7149 14.9353
v  -13.6226 36.1756 10.3250
v  -18.3121 36.1756 11.2909
v  -18.3121 38.3177 11.9869
v  -13.6226 38.8854 11.2055
v  -18.3121 39.6416 13.8091
v  -13.6226 40.5602 13.5106
v  -18.3121 39.6416 16.0614
v  -13.6226 40.5602 16.3599
v  -18.3121 38.3177 17.8836
v  -13.6226 38.8854 18.6650
v  -18.3121 36.1756 18.5796
v  -13.6226 36.1756 19.5455
v  -18.3121 34.0335 17.8836
v  -13.6226 33.4658 18.6650
v  -18.3121 32.7096 16.0614
v  -13.6226 31.7910 16.3599
v  -18.3121 32.7096 13.8091
v  -13.6226 31.7910 13.5106
v  -13.6226 33.4658 11.2055
v  -18.3121 34.0335 11.9869
v  -18.3121 36.1756 12.0457
v  -18.3121 37.8740 12.5976
v  -18.3121 38.9237 14.0423
v  -18.3121 38.9237 15.8282
v  -18.3121 37.8740 17.2729
v  -18.3121 36.1756 17.8248
v  -18.3121 34.4772 17.2729
v  -18.3121 33.4275 15.8282
v  -18.3121 33.4275 14.0423
v  -18.3121 34.4772 12.5976
v  -19.0419 36.1756 12.0457
v  -19.0419 37.8740 12.5976
v  -19.0419 38.9237 14.0423
v  -19.0419 38.9237 15.8282
v  -19.0419 37.8740 17.2729
v  -19.0419 36.1756 17.8248
v  -19.0419 34.4772 17.2729
v  -19.0419 33.4275 15.8282
v  -19.0419 33.4275 14.0423
v  -19.0419 34.4772 12.5976
v  -19.0419 36.1756 12.6616
v  -19.0419 37.5120 13.0958
v  -19.0419 38.3380 14.2327
v  -19.0419 38.3380 15.6378
v  -19.0419 37.5120 16.7746
v  -19.0419 36.1756 17.2089
v  -19.0419 34.8392 16.7746
v  -19.0419 34.0133 15.6378
v  -19.0419 34.0133 14.2327
v  -19.0419 34.8392 13.0958
v  -22.8182 31.7533 12.2217
v  -22.8182 33.3483 12.7399
v  -22.8182 34.3340 14.0967
v  -22.8182 34.3340 15.7738
v  -22.8182 33.3483 17.1306
v  -22.8182 31.7533 17.6488
v  -22.8182 30.1583 17.1306
v  -22.8182 29.1725 15.7738
v  -22.8182 29.1725 14.0967
v  -22.8182 30.1583 12.7399
v  -27.9317 25.4370 12.6840
v  -28.3281 26.2345 13.1139
v  -28.5731 26.7274 14.2396
v  -28.5731 26.7274 15.6309
v  -28.3281 26.2345 16.7566
v  -27.9317 25.4370 17.1865
v  -27.5352 24.6395 16.7566
v  -27.2902 24.1467 15.6309
v  -27.2902 24.1467 14.2396
v  -27.5352 24.6395 13.1139
v  -32.1830 19.7149 13.1463
v  -32.9759 19.7149 13.4879
v  -33.4659 19.7149 14.3824
v  -33.4659 19.7149 15.4881
v  -32.9759 19.7149 16.3826
v  -32.1830 19.7149 16.7242
v  -31.3901 19.7149 16.3826
v  -30.9001 19.7149 15.4881
v  -30.9001 19.7149 14.3824
v  -31.3901 19.7149 13.4879
v  -32.1830 19.7149 14.9352
v  -34.9106 17.9317 14.8004
v  -34.0424 16.8612 16.2509
v  -34.0424 18.3983 16.5418
v  -34.4576 16.1302 14.8678
v  -34.0424 16.7558 13.4339
v  -34.0424 18.2669 13.0290
v  -34.0424 19.5256 13.9580
v  -34.0424 19.5841 15.5213
v  -33.0670 16.7290 16.4301
v  -33.0670 18.4559 16.7568
v  -33.0670 18.3083 12.8103
v  -33.0670 16.6106 13.2652
v  -33.0670 19.7224 13.8540
v  -33.0670 19.7881 15.6104
v  -30.2988 17.9317 14.8004
v  -32.0916 18.5136 16.9719
v  -32.0916 16.5968 16.6092
v  -31.9392 15.6852 14.8845
v  -32.0916 16.4653 13.0964
v  -32.0916 18.3497 12.5915
v  -32.0916 19.9193 13.7500
v  -32.0916 19.9922 15.6994
v  -36.7093 11.6407 15.3484
v  -35.9700 11.6833 17.8110
v  -34.2334 11.6756 18.1299
v  -32.4967 11.6679 18.4488
v  -32.2254 11.6149 15.3781
v  -32.4967 11.6602 12.1946
v  -34.2334 11.6687 12.4951
v  -35.9700 11.6771 12.7955
v  -37.0700 5.3953 15.5861
v  -36.2708 5.4335 18.2483
v  -34.3933 5.4266 18.5931
v  -32.5159 5.4197 18.9379
v  -32.2226 5.3721 15.6181
v  -32.5159 5.4129 12.1766
v  -34.3934 5.4204 12.5014
v  -36.2708 5.4280 12.8262
v  -34.0810 -10.3684 15.8124
v  -33.6658 -10.3559 17.1955
v  -32.6904 -10.3582 17.3746
v  -31.7150 -10.3605 17.5537
v  -31.5626 -10.3761 15.8290
v  -31.7150 -10.3627 14.0410
v  -32.6904 -10.3602 14.2097
v  -33.6658 -10.3577 14.3785
v  -35.7228 -11.0750 15.8254
v  -34.7789 -11.0472 17.6213
v  -32.7242 -11.0522 18.5593
v  -30.4725 -11.0573 18.0213
v  -30.0193 -11.0919 15.8623
v  -30.4725 -11.0623 13.4672
v  -32.6370 -11.0567 12.2691
v  -34.8014 -11.0512 12.6435
v  -35.7228 -13.3323 15.8254
v  -34.7789 -13.3045 17.6213
v  -32.7242 -13.3095 18.5593
v  -30.4725 -13.3146 18.0213
v  -30.0193 -13.3492 15.8623
v  -30.4725 -13.3196 13.4672
v  -32.6370 -13.3141 12.2691
v  -34.8014 -13.3085 12.6435
v  -30.4725 -15.5719 18.0213
v  -30.1884 -15.5905 15.8272
v  -30.4725 -15.5769 13.4672
v  -32.6370 -15.5714 12.2691
v  -34.8014 -15.5658 12.6435
v  -35.7294 -15.5767 15.7972
v  -32.7242 -15.5669 18.5593
v  -32.6370 -15.5691 15.7806
v  -34.7789 -15.5618 17.6213
v  -35.0020 -13.7940 17.1932
v  -35.0034 -15.0826 17.1939
v  -35.5034 -15.0904 16.2307
v  -35.5010 -13.8086 16.2475
v  -30.9421 -13.7963 18.1335
v  -30.9421 -15.0881 18.1335
v  -32.2547 -15.0851 18.4471
v  -32.2547 -13.7934 18.4471
v  -33.1634 -15.0830 18.3588
v  -34.3397 -15.0801 17.8218
v  -34.3397 -13.7884 17.8218
v  -33.1634 -13.7912 18.3588
v  -48.4052 -13.8182 24.2080
v  -48.4066 -15.1068 24.2087
v  -48.9066 -15.1147 23.2455
v  -48.9042 -13.8329 23.2623
v  -27.4265 -13.7963 32.8473
v  -27.4265 -15.0881 32.8473
v  -28.7391 -15.0851 33.1609
v  -28.7391 -13.7934 33.1609
v  -39.4460 -15.0830 32.1204
v  -40.6223 -15.0801 31.5834
v  -40.6223 -13.7884 31.5834
v  -39.4460 -13.7913 32.1204
v  -48.1774 -13.3169 24.6469
v  -48.1774 -15.5978 24.6469
v  -49.1389 -15.6128 22.8019
v  -49.1322 -13.3450 22.8303
v  -26.9454 -13.3029 32.7332
v  -26.9454 -15.5837 32.7332
v  -29.2199 -15.5786 33.2767
v  -29.2199 -13.2978 33.2767
v  -38.9966 -15.5786 32.3266
v  -41.0726 -15.5736 31.3788
v  -41.0726 -13.2928 31.3788
v  -38.9966 -13.2978 32.3266
v  -50.5186 -13.3211 25.8722
v  -50.5186 -15.6020 25.8722
v  -51.4801 -15.6171 24.0272
v  -51.4734 -13.3493 24.0556
v  -26.3313 -13.3029 35.3033
v  -26.3313 -15.5837 35.3033
v  -28.6058 -15.5786 35.8467
v  -28.6058 -13.2978 35.8467
v  -40.0940 -15.5786 34.7304
v  -42.1700 -15.5736 33.7826
v  -42.1700 -13.2928 33.7826
v  -40.0940 -13.2978 34.7304
v  -50.6847 -13.6855 25.5535
v  -50.6857 -15.2452 25.5540
v  -51.3118 -15.2550 24.3499
v  -51.3082 -13.7038 24.3699
v  -26.6809 -13.6615 35.3868
v  -26.6809 -15.2235 35.3868
v  -28.2563 -15.2199 35.7632
v  -28.2563 -13.6580 35.7632
v  -40.4209 -15.2184 34.5811
v  -41.8430 -15.2149 33.9319
v  -41.8430 -13.6530 33.9319
v  -40.4209 -13.6565 34.5811
v  -65.2781 -14.4983 32.4307
v  -23.7229 -14.4407 51.2518
v  -48.8398 -14.5456 50.8701
v  34.9106 17.9317 14.8004
v  34.0424 18.3983 16.5418
v  34.0424 16.8612 16.2509
v  34.4576 16.1302 14.8678
v  34.0424 16.7558 13.4339
v  34.0424 18.2669 13.0290
v  34.0424 19.5256 13.9580
v  34.0424 19.5841 15.5213
v  33.0670 18.4559 16.7568
v  33.0670 16.7290 16.4301
v  33.0670 16.6106 13.2652
v  33.0670 18.3083 12.8103
v  33.0670 19.7224 13.8540
v  33.0670 19.7881 15.6104
v  30.2988 17.9317 14.8004
v  32.0916 16.5968 16.6092
v  32.0916 18.5136 16.9719
v  31.9392 15.6852 14.8845
v  32.0916 16.4653 13.0964
v  32.0916 18.3497 12.5915
v  32.0916 19.9193 13.7500
v  32.0916 19.9922 15.6994
v  35.9700 11.6833 17.8110
v  36.7093 11.6407 15.3484
v  34.2334 11.6756 18.1299
v  32.2254 11.6149 15.3781
v  32.4968 11.6679 18.4488
v  32.4968 11.6602 12.1946
v  34.2334 11.6687 12.4951
v  35.9700 11.6771 12.7955
v  36.2708 5.4335 18.2483
v  37.0700 5.3953 15.5861
v  32.5159 5.4197 18.9379
v  34.3934 5.4266 18.5931
v  32.2226 5.3721 15.6181
v  32.5159 5.4129 12.1766
v  36.2708 5.4280 12.8262
v  34.3934 5.4205 12.5014
v  33.6658 -10.3559 17.1955
v  34.0810 -10.3684 15.8124
v  31.7150 -10.3605 17.5537
v  32.6904 -10.3582 17.3746
v  31.5626 -10.3761 15.8290
v  31.7150 -10.3627 14.0410
v  33.6658 -10.3577 14.3785
v  32.6904 -10.3602 14.2097
v  34.7789 -11.0472 17.6213
v  35.7228 -11.0750 15.8254
v  32.7242 -11.0522 18.5593
v  30.0193 -11.0919 15.8623
v  30.4725 -11.0573 18.0213
v  30.4725 -11.0623 13.4672
v  32.6370 -11.0567 12.2691
v  34.8014 -11.0512 12.6435
v  34.7789 -13.3045 17.6213
v  35.7228 -13.3323 15.8254
v  32.7242 -13.3095 18.5593
v  30.0193 -13.3492 15.8623
v  30.4725 -13.3146 18.0213
v  30.4725 -13.3196 13.4672
v  32.6370 -13.3140 12.2691
v  34.8014 -13.3085 12.6435
v  30.1884 -15.5905 15.8272
v  30.4725 -15.5719 18.0213
v  30.4725 -15.5769 13.4672
v  34.8014 -15.5658 12.6435
v  32.6370 -15.5714 12.2691
v  35.7294 -15.5767 15.7972
v  32.7242 -15.5668 18.5593
v  32.6370 -15.5691 15.7806
v  34.7789 -15.5618 17.6213
v  35.0034 -15.0826 17.1939
v  35.0020 -13.7940 17.1932
v  35.5034 -15.0904 16.2307
v  35.5010 -13.8086 16.2475
v  30.9421 -15.0881 18.1335
v  30.9421 -13.7963 18.1335
v  32.2547 -15.0851 18.4471
v  32.2547 -13.7934 18.4471
v  34.3397 -15.0801 17.8218
v  33.1634 -15.0830 18.3588
v  34.3397 -13.7884 17.8218
v  33.1634 -13.7912 18.3588
v  48.4066 -15.1068 24.2087
v  48.4053 -13.8182 24.2080
v  48.9066 -15.1147 23.2455
v  48.9042 -13.8329 23.2623
v  27.4265 -15.0881 32.8473
v  27.4265 -13.7963 32.8473
v  28.7391 -15.0851 33.1609
v  28.7391 -13.7934 33.1609
v  40.6224 -15.0801 31.5834
v  39.4461 -15.0830 32.1204
v  40.6224 -13.7884 31.5834
v  39.4461 -13.7912 32.1204
v  48.1774 -15.5978 24.6469
v  48.1775 -13.3169 24.6469
v  49.1389 -15.6128 22.8019
v  49.1322 -13.3450 22.8303
v  26.9454 -15.5837 32.7332
v  26.9454 -13.3029 32.7332
v  29.2199 -15.5786 33.2767
v  29.2199 -13.2978 33.2767
v  41.0726 -15.5735 31.3788
v  38.9966 -15.5786 32.3266
v  41.0726 -13.2928 31.3788
v  38.9966 -13.2978 32.3266
v  50.5186 -15.6020 25.8722
v  50.5186 -13.3211 25.8722
v  51.4801 -15.6171 24.0272
v  51.4734 -13.3492 24.0556
v  26.3313 -15.5836 35.3033
v  26.3313 -13.3029 35.3033
v  28.6058 -15.5786 35.8467
v  28.6058 -13.2978 35.8467
v  42.1700 -15.5736 33.7826
v  40.0940 -15.5786 34.7304
v  42.1700 -13.2928 33.7826
v  40.0940 -13.2978 34.7304
v  50.6857 -15.2452 25.5540
v  50.6848 -13.6855 25.5535
v  51.3118 -15.2550 24.3499
v  51.3083 -13.7038 24.3699
v  26.6809 -15.2235 35.3868
v  26.6809 -13.6615 35.3868
v  28.2563 -15.2199 35.7632
v  28.2563 -13.6580 35.7632
v  41.8430 -15.2149 33.9318
v  40.4209 -15.2184 34.5811
v  41.8430 -13.6530 33.9319
v  40.4209 -13.6564 34.5811
v  65.2781 -14.4982 32.4307
v  23.7230 -14.4407 51.2518
v  48.8399 -14.5455 50.8701
v  6.8334 14.4307 7.2626
v  8.3377 14.4307 6.2575
v  8.3377 19.5339 6.2575
v  6.8334 19.5339 7.2627
v  9.3429 14.4307 4.7531
v  9.3429 19.5339 4.7531
v  9.6959 14.4307 2.9786
v  9.6959 19.5339 2.9786
v  9.3429 14.4307 1.2041
v  9.3429 19.5339 1.2041
v  8.3377 14.4307 -0.3003
v  8.3377 19.5339 -0.3003
v  6.8334 14.4307 -1.3055
v  6.8334 19.5339 -1.3055
v  0.0404 14.4307 -1.6585
v  0.0404 19.5339 -1.6585
v  7.1634 19.5339 8.2570
v  9.0786 19.5339 6.9983
v  9.0786 21.9053 6.9983
v  7.1634 21.9053 8.2570
v  10.3108 19.5339 5.1540
v  10.3108 21.9053 5.1540
v  10.7436 19.5339 2.9786
v  10.7436 21.9053 2.9786
v  10.3108 19.5339 0.8031
v  10.3108 21.9053 0.8031
v  9.0786 19.5339 -1.0411
v  9.0786 21.9053 -1.0411
v  7.1634 19.5339 -2.2998
v  7.1634 21.9053 -2.2998
v  0.0404 19.5339 -2.7047
v  0.0404 21.9053 -2.7047
v  6.8334 21.9053 7.2627
v  8.3377 21.9053 6.2575
v  8.3377 39.0536 6.2575
v  6.8334 39.0536 7.2626
v  9.3429 21.9053 4.7531
v  9.3429 39.0536 4.7531
v  9.6959 21.9053 2.9786
v  9.6959 39.0536 2.9786
v  9.3429 21.9053 1.2041
v  9.3429 39.0536 1.2041
v  8.3377 21.9053 -0.3003
v  8.3377 39.0536 -0.3003
v  6.8334 21.9053 -1.3055
v  6.8334 39.0536 -1.3055
v  0.0404 21.9053 -1.6585
v  0.0404 39.0536 -1.6585
v  0.0404 19.5339 7.2626
v  0.0404 14.4307 7.2626
v  0.0404 21.9053 8.2570
v  0.0404 19.5339 8.2570
v  0.0404 39.0536 7.2626
v  0.0404 21.9053 7.2626
v  8.3098 40.9088 6.1644
v  6.8479 40.9088 7.1412
v  9.2866 40.9088 4.7024
v  9.6296 40.9088 2.9780
v  9.2866 40.9088 1.2535
v  8.3098 40.9088 -0.2084
v  6.8479 40.9088 -1.1853
v  0.0404 40.9088 -1.5283
v  0.0404 40.9088 7.1412
v  7.9833 42.9315 5.2498
v  7.0169 42.9315 5.9482
v  8.6290 42.9315 4.2047
v  8.8558 42.9315 2.9719
v  8.6290 42.9315 1.7390
v  7.9833 42.9315 0.6939
v  7.0169 42.9315 -0.0045
v  0.0404 42.9315 -0.2497
v  0.0404 42.9315 5.9482
v  7.5856 43.6373 3.7525
v  7.2229 43.5609 3.9949
v  7.8280 43.7326 3.3897
v  7.9131 43.7709 2.9618
v  7.8280 43.7326 2.5340
v  7.5856 43.6373 2.1712
v  7.2229 43.5609 1.9288
v  0.0404 44.0437 1.8437
v  0.0404 44.0437 3.9949
v  -6.7525 14.4307 7.2626
v  -6.7525 19.5339 7.2626
v  -8.2569 19.5339 6.2575
v  -8.2569 14.4307 6.2575
v  -9.2621 19.5339 4.7531
v  -9.2621 14.4307 4.7531
v  -9.6150 19.5339 2.9786
v  -9.6150 14.4307 2.9786
v  -9.2621 19.5339 1.2041
v  -9.2621 14.4307 1.2041
v  -8.2569 19.5339 -0.3003
v  -8.2569 14.4307 -0.3003
v  -6.7525 19.5339 -1.3055
v  -6.7525 14.4307 -1.3055
v  -7.0826 19.5339 8.2570
v  -7.0825 21.9053 8.2570
v  -8.9977 21.9053 6.9983
v  -8.9977 19.5339 6.9983
v  -10.2300 21.9053 5.1540
v  -10.2300 19.5339 5.1540
v  -10.6627 21.9053 2.9786
v  -10.6627 19.5339 2.9786
v  -10.2300 21.9053 0.8031
v  -10.2300 19.5339 0.8031
v  -8.9977 21.9053 -1.0411
v  -8.9977 19.5339 -1.0411
v  -7.0825 21.9053 -2.2998
v  -7.0826 19.5339 -2.2998
v  -6.7525 21.9053 7.2626
v  -6.7525 39.0536 7.2626
v  -8.2569 39.0536 6.2575
v  -8.2569 21.9053 6.2575
v  -9.2621 39.0536 4.7531
v  -9.2621 21.9053 4.7531
v  -9.6150 39.0536 2.9786
v  -9.6150 21.9053 2.9786
v  -9.2621 39.0536 1.2041
v  -9.2621 21.9053 1.2041
v  -8.2569 39.0536 -0.3003
v  -8.2569 21.9053 -0.3003
v  -6.7525 39.0536 -1.3055
v  -6.7525 21.9053 -1.3055
v  -6.7670 40.9088 7.1412
v  -8.2289 40.9088 6.1644
v  -9.2057 40.9088 4.7024
v  -9.5488 40.9088 2.9780
v  -9.2057 40.9088 1.2535
v  -8.2289 40.9088 -0.2084
v  -6.7670 40.9088 -1.1853
v  -6.9360 42.9315 5.9482
v  -7.9024 42.9315 5.2498
v  -8.5481 42.9315 4.2047
v  -8.7749 42.9315 2.9718
v  -8.5481 42.9315 1.7390
v  -7.9024 42.9315 0.6939
v  -6.9360 42.9315 -0.0045
v  -7.1420 43.5609 3.9949
v  -7.5047 43.6373 3.7525
v  -7.7471 43.7326 3.3897
v  -7.8322 43.7709 2.9618
v  -7.7471 43.7326 2.5340
v  -7.5047 43.6373 2.1712
v  -7.1420 43.5609 1.9288
v  0.0404 44.1201 3.7525
v  0.0404 44.2154 3.3897
v  0.0404 44.2537 2.9618
v  0.0404 44.2154 2.5340
v  0.0404 44.1201 2.1712
v  0.0404 14.4307 2.9565
v  -7.0542 38.2349 25.3173
v  -5.7263 42.3218 25.3173
v  -5.7263 42.3218 24.0704
v  -7.0542 38.2349 24.0704
v  -2.2497 44.8477 25.3173
v  -2.2497 44.8477 24.0704
v  2.0475 44.8477 25.3173
v  2.0475 44.8477 24.0704
v  5.5241 42.3218 25.3173
v  5.5241 42.3218 24.0704
v  6.8520 38.2349 25.3173
v  6.8520 38.2349 24.0704
v  5.5241 34.1479 25.3173
v  5.5241 34.1479 24.0704
v  2.0475 31.6221 25.3173
v  2.0475 31.6221 24.0704
v  -2.2497 31.6221 25.3173
v  -2.2497 31.6221 24.0704
v  -5.7263 34.1479 25.3173
v  -5.7263 34.1479 24.0704
v  -6.1261 38.2349 25.3173
v  -4.9754 41.7763 25.3173
v  -1.9629 43.9650 25.3173
v  1.7607 43.9650 25.3173
v  4.7732 41.7763 25.3173
v  5.9239 38.2349 25.3173
v  4.7732 34.6935 25.3173
v  1.7607 32.5048 25.3173
v  -1.9629 32.5048 25.3173
v  -4.9754 34.6935 25.3173
v  -5.8531 38.2349 24.9512
v  -4.7546 41.6158 24.9512
v  -1.8786 43.7054 24.9512
v  1.6764 43.7054 24.9512
v  4.5524 41.6158 24.9512
v  5.6509 38.2349 24.9512
v  4.5524 34.8539 24.9512
v  1.6764 32.7644 24.9512
v  -1.8786 32.7644 24.9512
v  -4.7546 34.8539 24.9512
v  -5.4399 38.2349 26.3282
v  -4.4203 41.3729 26.3282
v  -1.7509 43.3124 26.3282
v  1.5487 43.3124 26.3282
v  4.2181 41.3729 26.3282
v  5.2377 38.2349 26.3282
v  4.2181 35.0968 26.3282
v  1.5487 33.1574 26.3282
v  -1.7509 33.1574 26.3282
v  -4.4203 35.0968 26.3282
v  -3.7139 38.2349 27.4506
v  -3.0239 40.3584 27.4506
v  -1.2175 41.6708 27.4506
v  1.0153 41.6708 27.4506
v  2.8217 40.3584 27.4506
v  3.5117 38.2349 27.4506
v  2.8217 36.1113 27.4506
v  1.0153 34.7989 27.4506
v  -1.2175 34.7989 27.4506
v  -3.0239 36.1113 27.4506
v  -1.7076 38.2349 28.3897
v  -1.4008 39.1792 28.3897
v  -0.5975 39.7628 28.3897
v  0.3954 39.7628 28.3897
v  1.1986 39.1792 28.3897
v  1.5055 38.2349 28.3897
v  1.1986 37.2906 28.3897
v  0.3954 36.7070 28.3897
v  -0.5975 36.7070 28.3897
v  -1.4008 37.2906 28.3897
v  -0.1011 38.2349 28.3897
# 833 vertices

vn -0.5603 -0.5926 0.5786
vn -0.7032 -0.0497 0.7092
vn -0.9979 -0.0647 -0.0000
vn -0.6877 -0.7260 0.0000
vn -0.7613 0.0958 0.6413
vn -0.0753 0.3052 0.9493
vn -0.1905 0.8454 0.4991
vn -0.7668 0.5224 0.3729
vn -0.0000 0.3009 0.9536
vn -0.0002 -0.0010 1.0000
vn -0.0000 -0.0013 1.0000
vn 0.0000 -0.7075 -0.7067
vn 0.0000 -0.0038 -1.0000
vn -0.0000 -0.7089 0.7053
vn 0.0000 -0.7089 0.7053
vn -0.0000 -1.0000 -0.0000
vn 0.0000 -1.0000 0.0000
vn -0.0000 0.8600 0.5103
vn -0.6928 -0.0864 0.7159
vn -0.5602 -0.5916 -0.5799
vn -0.7037 -0.0484 -0.7088
vn -0.7026 -0.0642 0.7087
vn -0.9928 -0.1196 -0.0027
vn -0.9965 -0.0839 -0.0000
vn 0.0000 -0.0071 1.0000
vn 0.0000 -0.0057 1.0000
vn -0.0000 -0.0057 1.0000
vn -0.0000 -0.0071 1.0000
vn 0.0001 -0.0117 -0.9999
vn 0.0013 -0.0195 -0.9998
vn 0.0000 -0.0178 -0.9998
vn 0.0000 -0.0117 -0.9999
vn -0.7035 -0.0678 -0.7075
vn -0.6969 -0.1003 -0.7101
vn -0.0336 0.1297 -0.9910
vn 0.0000 0.1277 -0.9918
vn -0.6503 -0.0381 -0.7587
vn -0.1976 0.8862 -0.4189
vn -0.0971 0.4080 -0.9078
vn -0.8024 0.1773 -0.5699
vn -0.7559 0.5619 -0.3360
vn 0.0000 0.9054 -0.4246
vn 0.0000 0.4081 -0.9129
vn 0.0000 -1.0000 -0.0000
vn -0.0000 -1.0000 0.0000
vn -0.9927 -0.1204 0.0033
vn -0.9925 -0.1222 -0.0026
vn 1.0000 0.0000 0.0000
vn -0.0000 0.0000 1.0000
vn -1.0000 -0.0000 -0.0000
vn 0.0000 -0.0000 -1.0000
vn -0.0000 1.0000 -0.0000
vn -0.0000 1.0000 -0.0001
vn 0.0000 1.0000 -0.0000
vn -1.0000 0.0000 -0.0000
vn -0.0000 0.2472 0.9690
vn -0.0000 0.0653 0.9979
vn -0.0000 0.0817 -0.9967
vn 0.0000 -0.0721 0.9974
vn -0.0000 -0.0903 -0.9959
vn 0.5603 -0.5926 0.5786
vn 0.6877 -0.7260 0.0000
vn 0.9979 -0.0647 0.0000
vn 0.7032 -0.0497 0.7092
vn 0.7613 0.0958 0.6413
vn 0.7668 0.5224 0.3729
vn 0.1904 0.8454 0.4991
vn 0.0753 0.3052 0.9493
vn 0.0002 -0.0010 1.0000
vn -0.0000 -0.0038 -1.0000
vn -0.0000 -0.7075 -0.7067
vn 0.6928 -0.0864 0.7159
vn 0.7037 -0.0484 -0.7088
vn 0.5602 -0.5916 -0.5799
vn 0.7026 -0.0642 0.7087
vn 0.9965 -0.0839 0.0000
vn 0.9928 -0.1196 -0.0027
vn -0.0001 -0.0117 -0.9999
vn -0.0013 -0.0195 -0.9998
vn 0.7035 -0.0678 -0.7075
vn 0.6969 -0.1003 -0.7101
vn 0.0336 0.1297 -0.9910
vn 0.6503 -0.0381 -0.7587
vn 0.1976 0.8862 -0.4189
vn 0.7559 0.5619 -0.3360
vn 0.8024 0.1773 -0.5699
vn 0.0971 0.4080 -0.9078
vn 0.9927 -0.1204 0.0033
vn 0.9925 -0.1222 -0.0026
vn 1.0000 -0.0000 0.0000
vn 0.0000 1.0000 -0.0001
vn 0.0000 0.2472 0.9690
vn 0.0000 0.0817 -0.9967
vn -0.0000 -0.0721 0.9974
vn 0.0000 -0.0903 -0.9959
vn 0.0267 -0.0000 -0.9996
vn 0.0352 0.1139 -0.9929
vn 0.0340 0.1040 -0.9940
vn 0.1585 0.7841 -0.6001
vn 0.1473 0.7237 -0.6742
vn 0.1585 0.7841 0.6001
vn 0.1473 0.7237 0.6742
vn 0.0352 0.1139 0.9929
vn 0.0340 0.1040 0.9940
vn 0.0267 0.0000 0.9996
vn 0.0352 -0.1139 0.9929
vn 0.0340 -0.1040 0.9940
vn 0.1585 -0.7841 0.6001
vn 0.1473 -0.7237 0.6742
vn 0.1922 -0.9814 -0.0000
vn 0.0266 -0.0420 -0.9988
vn 1.0000 -0.0000 -0.0000
vn 0.0000 0.0421 -0.9991
vn 0.0000 0.1755 -0.9845
vn -0.0000 1.0000 0.0000
vn -0.0000 0.1755 0.9845
vn -0.0000 0.0421 0.9991
vn -0.0000 -0.0421 0.9991
vn -0.0000 -0.1755 0.9845
vn 0.0000 -0.1755 -0.9845
vn 0.0000 -0.0421 -0.9991
vn 1.0000 0.0000 -0.0000
vn 0.0342 0.0420 -0.9985
vn 0.1786 0.1727 -0.9686
vn 0.7275 0.6861 0.0000
vn 0.1786 0.1727 0.9686
vn 0.0341 0.0420 0.9985
vn -0.0642 -0.0420 0.9971
vn -0.2238 -0.1711 0.9595
vn -0.7885 -0.6151 -0.0000
vn -0.2238 -0.1711 -0.9595
vn -0.0642 -0.0420 -0.9971
vn 0.0619 0.0409 -0.9972
vn 0.2286 0.1706 -0.9585
vn 0.7975 0.6033 0.0000
vn 0.2286 0.1706 0.9585
vn 0.0619 0.0409 0.9972
vn -0.0423 -0.0442 0.9981
vn -0.1963 -0.1772 0.9644
vn -0.7471 -0.6647 -0.0000
vn -0.1963 -0.1772 -0.9644
vn -0.0423 -0.0442 -0.9981
vn 0.0603 0.0350 -0.9976
vn 0.2340 0.1602 -0.9589
vn 0.8201 0.5722 0.0000
vn 0.2340 0.1602 0.9589
vn 0.0603 0.0350 0.9976
vn -0.0510 -0.0490 0.9975
vn -0.2193 -0.1819 0.9586
vn -0.7753 -0.6316 -0.0000
vn -0.2193 -0.1819 -0.9586
vn -0.0510 -0.0490 -0.9975
vn 0.0425 -0.1754 -0.9836
vn -0.0267 -0.0000 -0.9996
vn -0.0340 0.1040 -0.9940
vn -0.0352 0.1139 -0.9929
vn -0.1473 0.7237 -0.6742
vn -0.1585 0.7841 -0.6001
vn -0.1473 0.7237 0.6742
vn -0.1585 0.7841 0.6001
vn -0.0340 0.1040 0.9940
vn -0.0352 0.1139 0.9929
vn -0.0267 0.0000 0.9996
vn -0.0340 -0.1040 0.9940
vn -0.0352 -0.1139 0.9929
vn -0.1473 -0.7237 0.6742
vn -0.1585 -0.7841 0.6001
vn -0.1922 -0.9814 -0.0000
vn -0.1922 -0.9814 0.0000
vn -0.0266 -0.0420 -0.9988
vn -1.0000 -0.0000 0.0000
vn -1.0000 0.0000 0.0000
vn -0.0341 0.0420 -0.9985
vn -0.1786 0.1727 -0.9686
vn -0.7275 0.6861 0.0000
vn -0.1786 0.1727 0.9686
vn -0.0342 0.0420 0.9985
vn 0.0642 -0.0420 0.9971
vn 0.2238 -0.1711 0.9595
vn 0.7885 -0.6151 -0.0000
vn 0.2238 -0.1711 -0.9595
vn 0.0642 -0.0420 -0.9971
vn -0.0619 0.0409 -0.9972
vn -0.2286 0.1706 -0.9585
vn -0.7975 0.6033 0.0000
vn -0.2286 0.1706 0.9585
vn -0.0619 0.0409 0.9972
vn 0.0423 -0.0442 0.9981
vn 0.1963 -0.1772 0.9644
vn 0.7471 -0.6647 -0.0000
vn 0.1963 -0.1772 -0.9644
vn 0.0423 -0.0442 -0.9981
vn -0.0603 0.0350 -0.9976
vn -0.2340 0.1602 -0.9589
vn -0.8201 0.5722 -0.0000
vn -0.2340 0.1602 0.9589
vn -0.0603 0.0350 0.9976
vn 0.0510 -0.0490 0.9975
vn 0.2193 -0.1819 0.9586
vn 0.7753 -0.6316 -0.0000
vn 0.2193 -0.1819 -0.9586
vn 0.0510 -0.0490 -0.9975
vn -0.0425 -0.1754 -0.9836
vn -0.9995 0.0307 0.0001
vn -0.1796 -0.0442 0.9827
vn -0.1566 0.0510 0.9863
vn -0.9622 -0.2425 -0.1238
vn -0.1841 -0.0554 -0.9814
vn -0.1509 0.0359 -0.9879
vn -0.4711 0.5718 -0.6716
vn -0.4950 0.7182 0.4891
vn -0.0271 -0.0245 0.9993
vn -0.0311 0.0432 0.9986
vn -0.0303 0.0303 -0.9991
vn -0.0276 -0.0347 -0.9990
vn -0.1372 0.6276 -0.7664
vn -0.1765 0.8122 0.5560
vn 1.0000 0.0081 -0.0000
vn 0.0706 0.0508 0.9962
vn 0.1449 -0.1003 0.9843
vn 0.8071 -0.5895 -0.0321
vn 0.1606 -0.1220 -0.9794
vn 0.0680 0.0356 -0.9970
vn 0.2510 0.6823 -0.6866
vn 0.2580 0.8412 0.4751
vn -0.5185 0.2465 0.8188
vn -0.0213 0.0477 0.9986
vn 0.7949 -0.0407 0.6054
vn 0.7978 -0.0586 -0.6000
vn -0.0209 0.0256 -0.9995
vn -0.5009 0.2206 -0.8369
vn -0.3973 0.0275 0.9173
vn -0.0237 0.0102 0.9997
vn 0.8263 0.0032 0.5632
vn 0.8353 -0.0024 -0.5498
vn -0.0224 0.0004 -0.9997
vn -0.4090 0.0191 -0.9123
vn -0.3926 -0.0727 0.9168
vn -0.0238 -0.0126 0.9996
vn 0.8272 0.0356 0.5608
vn 0.8362 0.0341 -0.5474
vn -0.0225 -0.0164 -0.9996
vn -0.4048 -0.0784 -0.9111
vn -0.2584 0.5418 0.7998
vn -0.0464 0.1862 0.9814
vn 0.4057 0.8186 0.4065
vn 0.4090 0.8243 -0.3916
vn 0.0416 0.2635 -0.9638
vn -0.3044 0.7058 -0.6397
vn -0.2393 0.0000 0.9709
vn -0.0590 0.0000 0.9983
vn 0.5252 0.0000 0.8510
vn 0.5649 -0.0000 -0.8251
vn 0.0715 -0.0000 -0.9974
vn -0.4084 -0.0000 -0.9128
vn 0.6063 -0.0236 0.7949
vn 0.6402 -0.0233 -0.7679
vn -0.0224 -0.0000 -0.9997
vn -0.4057 0.0013 -0.9140
vn -0.0212 0.0492 0.9986
vn -0.0210 0.0247 -0.9995
vn 0.0146 0.1644 0.9863
vn -0.0202 0.3381 -0.9409
vn 0.0309 0.0000 0.9995
vn -0.0052 -0.9996 0.0293
vn 0.0003 -1.0000 -0.0097
vn -0.0054 -0.9999 -0.0129
vn -0.0002 -0.9996 0.0290
vn -0.2403 0.0001 0.9707
vn -0.2415 -0.0004 0.9704
vn -0.2403 -0.0010 0.9707
vn -0.2390 -0.0004 0.9710
vn 0.0309 -0.0000 0.9995
vn -0.0590 -0.0000 0.9983
vn 0.0676 0.0000 0.9977
vn 0.0048 -0.9990 0.0438
vn -0.0676 0.0018 -0.9977
vn -0.0077 0.9961 -0.0876
vn 0.4766 -0.0000 -0.8791
vn -0.0021 -1.0000 0.0039
vn -0.4766 -0.0000 0.8791
vn 0.0021 1.0000 -0.0039
vn -0.0020 -1.0000 -0.0071
vn -0.2730 -0.0000 -0.9620
vn 0.0020 1.0000 0.0071
vn 0.2730 0.0000 0.9620
vn 0.2413 -0.0001 -0.9705
vn 0.2415 -0.0001 -0.9704
vn 0.2393 0.0010 -0.9710
vn 0.2390 0.0009 -0.9710
vn -0.0307 -0.0000 -0.9995
vn -0.0309 -0.0002 -0.9995
vn -0.0312 -0.0000 -0.9995
vn -0.0309 0.0002 -0.9995
vn 0.0590 -0.0003 -0.9983
vn 0.0588 -0.0000 -0.9983
vn 0.0590 0.0003 -0.9983
vn 0.0593 -0.0000 -0.9982
vn -0.4766 0.0000 0.8791
vn 0.0020 1.0000 0.0072
vn -0.2414 -0.0004 0.9704
vn -0.2403 -0.0009 0.9707
vn -0.2391 -0.0004 0.9710
vn 0.0609 0.0000 0.9981
vn -0.0371 -0.9769 0.2107
vn -0.0746 0.0018 -0.9972
vn -0.0502 0.9951 0.0852
vn 0.5706 -0.0000 -0.8212
vn 0.0086 -0.9385 0.3451
vn -0.4047 0.0000 0.9144
vn 0.0126 0.9408 0.3386
vn -0.0167 -0.9700 0.2426
vn -0.2992 -0.0000 -0.9542
vn -0.0172 0.9441 0.3293
vn 0.2431 0.0000 0.9700
vn 0.9995 0.0307 0.0001
vn 0.1566 0.0510 0.9863
vn 0.1796 -0.0442 0.9827
vn 0.9622 -0.2425 -0.1238
vn 0.1841 -0.0554 -0.9814
vn 0.1509 0.0359 -0.9879
vn 0.4711 0.5718 -0.6716
vn 0.4950 0.7182 0.4891
vn 0.0311 0.0432 0.9986
vn 0.0271 -0.0245 0.9993
vn 0.0276 -0.0347 -0.9990
vn 0.0303 0.0303 -0.9991
vn 0.1372 0.6276 -0.7664
vn 0.1765 0.8122 0.5560
vn -1.0000 0.0081 -0.0000
vn -0.1449 -0.1003 0.9843
vn -0.0706 0.0508 0.9962
vn -0.8071 -0.5895 -0.0320
vn -0.1606 -0.1220 -0.9794
vn -0.0680 0.0356 -0.9970
vn -0.2510 0.6823 -0.6866
vn -0.2580 0.8412 0.4751
vn 0.5185 0.2465 0.8188
vn 0.0213 0.0477 0.9986
vn -0.7949 -0.0407 0.6054
vn -0.7978 -0.0586 -0.6000
vn 0.0209 0.0256 -0.9995
vn 0.5009 0.2206 -0.8369
vn 0.3973 0.0275 0.9173
vn 0.0237 0.0102 0.9997
vn -0.8263 0.0032 0.5632
vn -0.8353 -0.0024 -0.5498
vn 0.0224 0.0004 -0.9997
vn 0.4090 0.0191 -0.9123
vn 0.3926 -0.0727 0.9168
vn 0.0238 -0.0126 0.9996
vn -0.8272 0.0356 0.5608
vn -0.8362 0.0341 -0.5474
vn 0.0225 -0.0164 -0.9996
vn 0.4048 -0.0784 -0.9111
vn 0.2584 0.5418 0.7998
vn 0.0464 0.1862 0.9814
vn -0.4057 0.8186 0.4065
vn -0.4090 0.8243 -0.3916
vn -0.0416 0.2635 -0.9638
vn 0.3044 0.7058 -0.6397
vn 0.2393 0.0000 0.9709
vn 0.0590 0.0000 0.9983
vn -0.5252 0.0000 0.8510
vn -0.5649 -0.0000 -0.8251
vn -0.0715 -0.0000 -0.9974
vn 0.4084 -0.0000 -0.9128
vn -0.6063 -0.0236 0.7949
vn -0.6402 -0.0233 -0.7679
vn 0.0224 -0.0000 -0.9997
vn 0.4057 0.0013 -0.9140
vn 0.0212 0.0492 0.9986
vn 0.0210 0.0247 -0.9995
vn -0.0146 0.1645 0.9863
vn 0.0202 0.3381 -0.9409
vn -0.0309 0.0000 0.9995
vn 0.0052 -0.9996 0.0293
vn -0.0003 -1.0000 -0.0097
vn 0.0054 -0.9999 -0.0129
vn 0.0002 -0.9996 0.0290
vn 0.2403 0.0001 0.9707
vn 0.2415 -0.0004 0.9704
vn 0.2403 -0.0010 0.9707
vn 0.2390 -0.0004 0.9710
vn -0.0309 -0.0000 0.9995
vn 0.0590 -0.0000 0.9983
vn -0.0676 0.0000 0.9977
vn -0.0048 -0.9990 0.0438
vn 0.0676 0.0018 -0.9977
vn 0.0077 0.9961 -0.0876
vn -0.4766 -0.0000 -0.8791
vn 0.0021 -1.0000 0.0039
vn 0.4766 0.0000 0.8791
vn -0.0021 1.0000 -0.0039
vn 0.0020 -1.0000 -0.0071
vn 0.2730 -0.0000 -0.9620
vn -0.0020 1.0000 0.0071
vn -0.2730 0.0000 0.9620
vn -0.2413 -0.0001 -0.9705
vn -0.2415 -0.0001 -0.9704
vn -0.2393 0.0010 -0.9710
vn -0.2390 0.0009 -0.9710
vn 0.0307 -0.0000 -0.9995
vn 0.0309 -0.0002 -0.9995
vn 0.0312 -0.0000 -0.9995
vn 0.0309 0.0002 -0.9995
vn -0.0590 -0.0003 -0.9983
vn -0.0588 -0.0000 -0.9983
vn -0.0590 0.0003 -0.9983
vn -0.0593 -0.0000 -0.9982
vn 0.2414 -0.0004 0.9704
vn 0.2403 -0.0009 0.9707
vn 0.2391 -0.0004 0.9710
vn -0.0609 0.0000 0.9981
vn 0.0371 -0.9769 0.2107
vn 0.0746 0.0018 -0.9972
vn 0.0502 0.9951 0.0852
vn -0.5706 -0.0000 -0.8212
vn -0.0086 -0.9385 0.3451
vn 0.4047 -0.0000 0.9144
vn -0.0126 0.9408 0.3386
vn 0.0167 -0.9700 0.2426
vn 0.2992 -0.0000 -0.9542
vn 0.0172 0.9441 0.3293
vn -0.2431 0.0000 0.9700
vn 0.0432 0.0000 0.9991
vn 0.1385 0.0000 0.9904
vn 0.0962 -0.7191 0.6882
vn 0.0301 -0.7170 0.6965
vn 0.3750 0.0000 0.9270
vn 0.2468 -0.7529 0.6101
vn 0.3170 -0.9484 0.0000
vn 0.3750 -0.0000 -0.9270
vn 0.2468 -0.7529 -0.6101
vn 0.1385 -0.0000 -0.9904
vn 0.0962 -0.7191 -0.6882
vn 0.0465 -0.0000 -0.9989
vn 0.0325 -0.7162 -0.6972
vn 0.0000 -0.7086 -0.7056
vn 0.0304 -0.6977 0.7158
vn 0.0990 -0.6953 0.7119
vn 0.0990 0.6953 0.7119
vn 0.0304 0.6977 0.7158
vn 0.2796 -0.6664 0.6912
vn 0.2796 0.6664 0.6912
vn 0.8295 -0.5586 0.0000
vn 0.8295 0.5586 0.0000
vn 0.2796 -0.6664 -0.6912
vn 0.2796 0.6664 -0.6912
vn 0.0990 -0.6953 -0.7119
vn 0.0990 0.6953 -0.7119
vn 0.0330 -0.6985 -0.7149
vn 0.0330 0.6985 -0.7149
vn 0.0000 -0.7055 -0.7088
vn 0.0000 0.7055 -0.7088
vn 0.0301 0.7169 0.6965
vn 0.0962 0.7191 0.6882
vn 0.1387 0.0043 0.9903
vn 0.0430 0.0041 0.9991
vn 0.2468 0.7529 0.6101
vn 0.3765 0.0074 0.9264
vn 0.3170 0.9484 0.0000
vn 0.9998 0.0177 0.0000
vn 0.2468 0.7529 -0.6101
vn 0.3765 0.0073 -0.9264
vn 0.0962 0.7191 -0.6882
vn 0.1387 0.0042 -0.9903
vn 0.0325 0.7162 -0.6972
vn 0.0464 0.0040 -0.9989
vn 0.0000 0.7086 -0.7056
vn 0.0000 0.0045 -1.0000
vn -0.0000 -0.7071 0.7071
vn -0.0000 0.7071 0.7071
vn -0.0000 0.0042 1.0000
vn 0.1413 0.0459 0.9889
vn 0.0425 0.0409 0.9983
vn 0.3876 0.0877 0.9176
vn 0.9832 0.1825 0.0005
vn 0.3877 0.0852 -0.9178
vn 0.1410 0.0438 -0.9890
vn 0.0450 0.0402 -0.9982
vn 0.0000 0.0453 -0.9990
vn -0.0000 0.0424 0.9991
vn 0.1443 0.1967 0.9698
vn 0.0379 0.2150 0.9759
vn 0.3882 0.3135 0.8666
vn 0.8561 0.5169 0.0006
vn 0.3855 0.3266 -0.8629
vn 0.1460 0.2142 -0.9658
vn 0.0501 0.2120 -0.9760
vn 0.0000 0.1591 -0.9873
vn -0.0000 0.1541 0.9881
vn 0.0434 0.3495 0.9359
vn 0.0097 0.3366 0.9416
vn 0.1319 0.5538 0.8221
vn 0.4630 0.8862 -0.0142
vn 0.1403 0.5290 -0.8369
vn 0.0496 0.3255 -0.9443
vn 0.0342 0.3185 -0.9473
vn 0.0000 0.3730 -0.9278
vn -0.0000 0.3052 0.9523
vn -0.0432 0.0000 0.9991
vn -0.0301 -0.7170 0.6965
vn -0.0962 -0.7191 0.6882
vn -0.1385 0.0000 0.9904
vn -0.2468 -0.7529 0.6101
vn -0.3750 0.0000 0.9270
vn -0.3170 -0.9484 0.0000
vn -0.2468 -0.7529 -0.6101
vn -0.3750 -0.0000 -0.9270
vn -0.0962 -0.7191 -0.6882
vn -0.1385 -0.0000 -0.9904
vn -0.0325 -0.7162 -0.6972
vn -0.0465 -0.0000 -0.9989
vn -0.0304 -0.6977 0.7158
vn -0.0304 0.6977 0.7158
vn -0.0990 0.6953 0.7119
vn -0.0990 -0.6953 0.7119
vn -0.2796 0.6664 0.6912
vn -0.2796 -0.6664 0.6912
vn -0.8295 0.5586 0.0000
vn -0.8295 -0.5586 -0.0000
vn -0.2796 0.6664 -0.6912
vn -0.2796 -0.6664 -0.6912
vn -0.0990 0.6953 -0.7119
vn -0.0990 -0.6953 -0.7119
vn -0.0330 0.6985 -0.7149
vn -0.0330 -0.6985 -0.7149
vn -0.0301 0.7169 0.6965
vn -0.0430 0.0041 0.9991
vn -0.1387 0.0043 0.9903
vn -0.0962 0.7191 0.6882
vn -0.3765 0.0074 0.9264
vn -0.2468 0.7529 0.6101
vn -0.9998 0.0177 0.0000
vn -0.3170 0.9484 0.0000
vn -0.3765 0.0073 -0.9264
vn -0.2468 0.7529 -0.6101
vn -0.1387 0.0042 -0.9903
vn -0.0962 0.7191 -0.6882
vn -0.0464 0.0040 -0.9989
vn -0.0325 0.7162 -0.6972
vn -0.0425 0.0409 0.9983
vn -0.1413 0.0459 0.9889
vn -0.3876 0.0877 0.9176
vn -0.9832 0.1825 0.0005
vn -0.3877 0.0852 -0.9178
vn -0.1410 0.0438 -0.9890
vn -0.0450 0.0402 -0.9982
vn -0.0379 0.2150 0.9759
vn -0.1443 0.1967 0.9698
vn -0.3882 0.3135 0.8666
vn -0.8561 0.5169 0.0006
vn -0.3855 0.3266 -0.8629
vn -0.1460 0.2142 -0.9658
vn -0.0501 0.2120 -0.9760
vn -0.0097 0.3366 0.9416
vn -0.0434 0.3495 0.9359
vn -0.1319 0.5538 0.8221
vn -0.4630 0.8862 -0.0142
vn -0.1403 0.5290 -0.8369
vn -0.0496 0.3255 -0.9443
vn -0.0342 0.3185 -0.9473
vn -0.0000 0.4122 0.9111
vn -0.0000 0.6588 0.7523
vn 0.0000 0.6588 -0.7523
vn 0.0000 0.4624 -0.8867
vn -0.8090 0.5878 -0.0000
vn -0.3090 0.9511 -0.0000
vn 0.3090 0.9511 -0.0000
vn 0.8090 0.5878 0.0000
vn 0.8090 -0.5878 0.0000
vn 0.3090 -0.9511 0.0000
vn -0.3090 -0.9511 0.0000
vn -0.8090 -0.5878 -0.0000
vn 0.1709 -0.0555 0.9837
vn 0.1056 -0.1454 0.9837
vn -0.0000 -0.1797 0.9837
vn -0.1056 -0.1454 0.9837
vn -0.1709 -0.0555 0.9837
vn -0.1709 0.0555 0.9837
vn -0.1056 0.1454 0.9837
vn -0.0000 0.1797 0.9837
vn 0.1056 0.1454 0.9837
vn 0.1709 0.0555 0.9837
vn -0.3206 0.2330 0.9181
vn -0.3963 0.0000 0.9181
vn -0.2731 0.0000 0.9620
vn -0.2209 0.1605 0.9620
vn -0.1225 0.3769 0.9181
vn -0.0844 0.2597 0.9620
vn 0.1225 0.3769 0.9181
vn 0.0844 0.2597 0.9620
vn 0.3206 0.2330 0.9181
vn 0.2209 0.1605 0.9620
vn 0.3963 0.0000 0.9181
vn 0.2731 0.0000 0.9620
vn 0.3206 -0.2330 0.9181
vn 0.2209 -0.1605 0.9620
vn 0.1225 -0.3769 0.9181
vn 0.0844 -0.2597 0.9620
vn -0.1225 -0.3769 0.9181
vn -0.0844 -0.2597 0.9620
vn -0.3206 -0.2330 0.9181
vn -0.2209 -0.1605 0.9620
vn -0.0746 0.0000 0.9972
vn -0.0603 0.0438 0.9972
vn -0.0230 0.0709 0.9972
vn 0.0230 0.0709 0.9972
vn 0.0603 0.0438 0.9972
vn 0.0746 0.0000 0.9972
vn 0.0603 -0.0438 0.9972
vn 0.0230 -0.0709 0.9972
vn -0.0230 -0.0709 0.9972
vn -0.0603 -0.0438 0.9972
vn -0.0363 0.0000 0.9993
vn -0.0294 0.0214 0.9993
vn -0.0112 0.0345 0.9993
vn 0.0112 0.0345 0.9993
vn 0.0294 0.0214 0.9993
vn 0.0363 0.0000 0.9993
vn 0.0294 -0.0214 0.9993
vn 0.0112 -0.0345 0.9993
vn -0.0112 -0.0345 0.9993
vn -0.0294 -0.0214 0.9993
# 625 vertex normals

vt 0.6021 0.6141 0.0000
vt 0.6040 0.6575 0.0000
vt 0.5843 0.6575 0.0000
vt 0.5833 0.6141 0.0000
vt 0.1159 0.8219 0.0000
vt 0.1077 0.8502 0.0000
vt 0.0877 0.8505 0.0000
vt 0.0945 0.8219 0.0000
vt 0.1050 0.8875 0.0000
vt 0.1469 0.8485 0.0000
vt 0.1474 0.8875 0.0000
vt 0.3481 0.8875 0.0000
vt 0.3479 0.8462 0.0000
vt 0.3916 0.8458 0.0000
vt 0.3917 0.8875 0.0000
vt 0.2738 0.8875 0.0000
vt 0.2736 0.8465 0.0000
vt 0.2879 0.8464 0.0000
vt 0.2881 0.8875 0.0000
vt 0.0849 0.8875 0.0000
vt 0.1463 0.8251 0.0000
vt 0.3477 0.8312 0.0000
vt 0.3914 0.8283 0.0000
vt 0.2733 0.8316 0.0000
vt 0.2876 0.8315 0.0000
vt 0.6064 0.7010 0.0000
vt 0.6092 0.7444 0.0000
vt 0.5868 0.7444 0.0000
vt 0.5854 0.7010 0.0000
vt 0.1884 0.8477 0.0000
vt 0.2307 0.8470 0.0000
vt 0.2310 0.8875 0.0000
vt 0.1888 0.8875 0.0000
vt 0.4355 0.8456 0.0000
vt 0.4797 0.8455 0.0000
vt 0.4798 0.8875 0.0000
vt 0.4357 0.8875 0.0000
vt 0.1882 0.8277 0.0000
vt 0.2305 0.8300 0.0000
vt 0.4353 0.8247 0.0000
vt 0.4794 0.8204 0.0000
vt 0.6073 0.7760 0.0000
vt 0.5859 0.7799 0.0000
vt 0.5103 0.8454 0.0000
vt 0.5144 0.8875 0.0000
vt 0.4989 0.8175 0.0000
vt 0.5645 0.6575 0.0000
vt 0.5457 0.6575 0.0000
vt 0.5457 0.6141 0.0000
vt 0.5645 0.6141 0.0000
vt 0.0694 0.8504 0.0000
vt 0.0516 0.8489 0.0000
vt 0.0560 0.8188 0.0000
vt 0.0750 0.8214 0.0000
vt 0.0664 0.8875 0.0000
vt 0.0481 0.8875 0.0000
vt 0.3064 0.8314 0.0000
vt 0.3250 0.8313 0.0000
vt 0.3252 0.8462 0.0000
vt 0.3067 0.8463 0.0000
vt 0.5645 0.7444 0.0000
vt 0.5408 0.7444 0.0000
vt 0.5443 0.7010 0.0000
vt 0.5645 0.7010 0.0000
vt 0.5645 0.7802 0.0000
vt 0.5387 0.7753 0.0000
vt 0.5265 0.6575 0.0000
vt 0.5269 0.6141 0.0000
vt 0.0263 0.8452 0.0000
vt 0.0382 0.8151 0.0000
vt 0.3254 0.8875 0.0000
vt 0.0222 0.8875 0.0000
vt 0.5179 0.7444 0.0000
vt 0.5241 0.7010 0.0000
vt 0.5128 0.7636 0.0000
vt 0.3069 0.8875 0.0000
vt 0.2886 0.8682 0.0000
vt 0.3068 0.8682 0.0000
vt 0.2885 0.8493 0.0000
vt 0.3068 0.8493 0.0000
vt 0.3247 0.8492 0.0000
vt 0.3247 0.8682 0.0000
vt 0.0357 0.5647 0.0000
vt 0.0356 0.5493 0.0000
vt 0.0625 0.5493 0.0000
vt 0.0623 0.5647 0.0000
vt 0.0355 0.4880 0.0000
vt 0.0625 0.4880 0.0000
vt 0.0356 0.4725 0.0000
vt 0.0625 0.4725 0.0000
vt 0.0356 0.4569 0.0000
vt 0.0625 0.4569 0.0000
vt 0.0354 0.4880 0.0000
vt 0.0354 0.5493 0.0000
vt 0.0626 0.5493 0.0000
vt 0.0626 0.4880 0.0000
vt 0.0357 0.5801 0.0000
vt 0.0623 0.5801 0.0000
vt 0.0626 0.5564 0.0000
vt 0.0626 0.4809 0.0000
vt 0.2075 0.6246 0.0000
vt 0.2075 0.6430 0.0000
vt 0.1753 0.6427 0.0000
vt 0.1753 0.6243 0.0000
vt 0.1591 0.4809 0.0000
vt 0.1591 0.5564 0.0000
vt 0.0587 0.6416 0.0000
vt 0.0587 0.6233 0.0000
vt 0.0910 0.6236 0.0000
vt 0.0910 0.6419 0.0000
vt 0.0587 0.6049 0.0000
vt 0.0910 0.6052 0.0000
vt 0.2075 0.6063 0.0000
vt 0.1753 0.6060 0.0000
vt 0.1589 0.6722 0.0000
vt 0.1589 0.6242 0.0000
vt 0.2080 0.4809 0.0000
vt 0.2080 0.5564 0.0000
vt 0.1073 0.6237 0.0000
vt 0.1073 0.6717 0.0000
vt 0.1073 0.6054 0.0000
vt 0.1589 0.6058 0.0000
vt 0.1532 0.6748 0.0000
vt 0.1532 0.6241 0.0000
vt 0.2252 0.4809 0.0000
vt 0.2252 0.5564 0.0000
vt 0.1130 0.6238 0.0000
vt 0.1130 0.6744 0.0000
vt 0.1130 0.6021 0.0000
vt 0.1532 0.6024 0.0000
vt 0.1480 0.6721 0.0000
vt 0.1480 0.6241 0.0000
vt 0.2407 0.4809 0.0000
vt 0.2407 0.5564 0.0000
vt 0.1182 0.6238 0.0000
vt 0.1182 0.6718 0.0000
vt 0.1182 0.6055 0.0000
vt 0.1480 0.6057 0.0000
vt 0.1159 0.9531 0.0000
vt 0.0946 0.9531 0.0000
vt 0.0878 0.9246 0.0000
vt 0.1077 0.9249 0.0000
vt 0.1469 0.9265 0.0000
vt 0.3916 0.9292 0.0000
vt 0.3479 0.9289 0.0000
vt 0.2879 0.9286 0.0000
vt 0.2736 0.9285 0.0000
vt 0.1463 0.9500 0.0000
vt 0.3914 0.9467 0.0000
vt 0.3477 0.9439 0.0000
vt 0.2876 0.9435 0.0000
vt 0.2733 0.9434 0.0000
vt 0.1885 0.9274 0.0000
vt 0.2307 0.9280 0.0000
vt 0.4355 0.9295 0.0000
vt 0.4797 0.9296 0.0000
vt 0.1882 0.9474 0.0000
vt 0.2305 0.9450 0.0000
vt 0.4353 0.9504 0.0000
vt 0.4672 0.9547 0.0000
vt 0.5103 0.9297 0.0000
vt 0.4868 0.9576 0.0000
vt 0.0694 0.9246 0.0000
vt 0.0750 0.9537 0.0000
vt 0.0560 0.9562 0.0000
vt 0.0516 0.9261 0.0000
vt 0.3064 0.9437 0.0000
vt 0.3067 0.9287 0.0000
vt 0.3252 0.9288 0.0000
vt 0.3250 0.9438 0.0000
vt 0.0297 0.9600 0.0000
vt 0.0263 0.9299 0.0000
vt 0.3068 0.9068 0.0000
vt 0.2886 0.9068 0.0000
vt 0.2885 0.9257 0.0000
vt 0.3068 0.9258 0.0000
vt 0.3247 0.9259 0.0000
vt 0.3247 0.9069 0.0000
vt 0.0368 0.3335 0.0000
vt 0.0637 0.3335 0.0000
vt 0.0638 0.3491 0.0000
vt 0.0367 0.3491 0.0000
vt 0.0637 0.4104 0.0000
vt 0.0368 0.4104 0.0000
vt 0.0636 0.4258 0.0000
vt 0.0369 0.4258 0.0000
vt 0.0636 0.4412 0.0000
vt 0.0369 0.4412 0.0000
vt 0.0367 0.4104 0.0000
vt 0.0639 0.4104 0.0000
vt 0.0639 0.3491 0.0000
vt 0.0368 0.3180 0.0000
vt 0.0637 0.3180 0.0000
vt 0.0639 0.3420 0.0000
vt 0.0639 0.4175 0.0000
vt 0.0564 0.7110 0.0000
vt 0.0898 0.7106 0.0000
vt 0.0898 0.7296 0.0000
vt 0.0564 0.7300 0.0000
vt 0.1604 0.3420 0.0000
vt 0.1604 0.4175 0.0000
vt 0.2109 0.7282 0.0000
vt 0.1774 0.7286 0.0000
vt 0.1774 0.7095 0.0000
vt 0.2109 0.7092 0.0000
vt 0.1774 0.6905 0.0000
vt 0.2109 0.6901 0.0000
vt 0.0564 0.6919 0.0000
vt 0.0898 0.6915 0.0000
vt 0.1068 0.7104 0.0000
vt 0.1068 0.7602 0.0000
vt 0.2093 0.3420 0.0000
vt 0.2093 0.4175 0.0000
vt 0.1604 0.7596 0.0000
vt 0.1604 0.7097 0.0000
vt 0.1604 0.6907 0.0000
vt 0.1068 0.6913 0.0000
vt 0.1128 0.7103 0.0000
vt 0.1128 0.7629 0.0000
vt 0.2264 0.3420 0.0000
vt 0.2264 0.4175 0.0000
vt 0.1545 0.7624 0.0000
vt 0.1545 0.7098 0.0000
vt 0.1545 0.6873 0.0000
vt 0.1128 0.6878 0.0000
vt 0.1181 0.7102 0.0000
vt 0.1181 0.7601 0.0000
vt 0.2419 0.3420 0.0000
vt 0.2419 0.4175 0.0000
vt 0.1491 0.7597 0.0000
vt 0.1491 0.7098 0.0000
vt 0.1491 0.6908 0.0000
vt 0.1181 0.6912 0.0000
vt 0.8072 0.4260 0.0000
vt 0.8031 0.4412 0.0000
vt 0.7968 0.4344 0.0000
vt 0.8000 0.4225 0.0000
vt 0.7967 0.4540 0.0000
vt 0.7918 0.4443 0.0000
vt 0.7883 0.4630 0.0000
vt 0.7853 0.4513 0.0000
vt 0.7785 0.4674 0.0000
vt 0.7776 0.4544 0.0000
vt 0.7785 0.3514 0.7511
vt 0.7883 0.3558 0.0000
vt 0.7853 0.3676 0.0000
vt 0.7776 0.3644 0.0000
vt 0.7967 0.3649 0.0000
vt 0.7918 0.3745 0.0000
vt 0.8031 0.3776 0.0000
vt 0.7968 0.3844 0.0000
vt 0.8072 0.3929 0.0000
vt 0.8000 0.3964 0.0000
vt 0.8085 0.4094 0.0000
vt 0.8011 0.4094 0.0000
vt 0.7946 0.4319 0.0000
vt 0.7974 0.4211 0.0000
vt 0.7901 0.4408 0.0000
vt 0.7843 0.4471 0.0000
vt 0.7778 0.4497 0.0000
vt 0.7843 0.3717 0.0000
vt 0.7778 0.3692 0.0000
vt 0.7900 0.3779 0.0000
vt 0.7945 0.3868 0.0000
vt 0.7974 0.3976 0.0000
vt 0.7984 0.4094 0.0000
vt 0.8860 0.5177 0.0000
vt 0.8718 0.5170 0.0000
vt 0.8721 0.5145 0.0000
vt 0.8860 0.5153 0.0000
vt 0.8569 0.5141 0.0000
vt 0.8577 0.5116 0.0000
vt 0.8417 0.5076 0.0000
vt 0.8432 0.5052 0.0000
vt 0.8279 0.4959 0.0000
vt 0.8303 0.4940 0.0000
vt 0.8191 0.4786 0.3134
vt 0.8221 0.4772 0.0000
vt 0.9529 0.4786 0.3134
vt 0.9440 0.4958 0.0000
vt 0.9417 0.4940 0.0000
vt 0.9498 0.4772 0.0000
vt 0.9303 0.5076 0.0000
vt 0.9287 0.5052 0.0000
vt 0.9150 0.5141 0.0000
vt 0.9142 0.5116 0.0000
vt 0.9002 0.5170 0.0000
vt 0.8999 0.5145 0.0000
vt 0.8729 0.5094 0.0000
vt 0.8861 0.5103 0.0000
vt 0.8595 0.5064 0.0000
vt 0.8465 0.5003 0.0000
vt 0.8353 0.4903 0.0000
vt 0.8288 0.4763 0.0000
vt 0.9366 0.4902 0.0000
vt 0.9431 0.4763 0.0000
vt 0.9256 0.5002 0.0000
vt 0.9126 0.5063 0.0000
vt 0.8993 0.5094 0.0000
vt 0.9129 0.4585 0.0000
vt 0.9108 0.4750 0.0000
vt 0.8937 0.4273 0.0000
vt 0.8943 0.4088 0.0000
vt 0.9014 0.4888 0.0000
vt 0.8834 0.4427 0.0000
vt 0.8859 0.4952 0.0000
vt 0.8657 0.4495 0.0000
vt 0.8695 0.4920 0.0000
vt 0.8471 0.4451 0.0000
vt 0.8567 0.4814 0.0000
vt 0.8333 0.4316 0.0000
vt 0.9706 0.4377 0.0000
vt 0.9586 0.4262 0.0000
vt 0.9409 0.3712 0.0000
vt 0.9555 0.3843 0.0000
vt 0.9424 0.4228 0.0000
vt 0.9220 0.3674 0.0000
vt 0.9269 0.4289 0.0000
vt 0.9046 0.3749 0.0000
vt 0.9166 0.4421 0.0000
vt 0.8947 0.3905 0.0000
vt 0.8629 0.3494 0.0000
vt 0.8669 0.3395 0.0000
vt 0.8519 0.3583 0.0000
vt 0.8366 0.3633 0.0000
vt 0.8223 0.3626 0.0000
vt 0.8134 0.3567 0.0000
vt 0.9093 0.3105 0.0000
vt 0.9194 0.3148 0.0000
vt 0.8948 0.3117 0.0000
vt 0.8800 0.3188 0.0000
vt 0.8699 0.3292 0.0000
vt 0.8358 0.2747 0.0000
vt 0.8414 0.2739 0.0000
vt 0.8252 0.2773 0.0000
vt 0.8127 0.2812 0.0000
vt 0.8026 0.2851 0.0000
vt 0.7977 0.2877 0.0000
vt 0.8783 0.2570 0.0000
vt 0.8827 0.2534 0.0000
vt 0.8688 0.2625 0.0000
vt 0.8570 0.2684 0.0000
vt 0.8469 0.2726 0.0000
vt 0.8004 0.2143 0.0000
vt 0.7976 0.2105 0.0000
vt 0.8027 0.1966 0.0000
vt 0.7968 0.2014 0.0000
vt 0.7982 0.1904 0.0000
vt 0.8013 0.1818 0.0000
vt 0.8050 0.1788 0.0000
vt 0.8078 0.1826 0.0000
vt 0.8086 0.1918 0.0000
vt 0.8072 0.2027 0.0000
vt 0.8041 0.2113 0.0000
vt 0.6795 0.2641 0.0000
vt 0.6669 0.2562 0.0000
vt 0.6659 0.2688 0.0000
vt 0.6788 0.2501 0.0000
vt 0.6915 0.2550 0.0000
vt 0.6935 0.2676 0.0000
vt 0.6853 0.2767 0.0000
vt 0.6749 0.2774 0.0000
vt 0.6675 0.2793 0.0000
vt 0.6602 0.2797 0.0000
vt 0.6600 0.2845 0.0000
vt 0.6683 0.2840 0.0000
vt 0.7003 0.2774 0.0000
vt 0.6928 0.2777 0.0000
vt 0.6926 0.2826 0.0000
vt 0.7009 0.2821 0.0000
vt 0.6843 0.2817 0.0000
vt 0.6763 0.2823 0.0000
vt 0.6809 0.2907 0.0000
vt 0.6758 0.2902 0.0000
vt 0.6773 0.2940 0.0000
vt 0.6812 0.2954 0.0000
vt 0.6848 0.2935 0.0000
vt 0.6858 0.2895 0.0000
vt 0.6834 0.2859 0.0000
vt 0.6777 0.2863 0.0000
vt 0.6750 0.2144 0.0000
vt 0.6583 0.2150 0.0000
vt 0.6468 0.2180 0.0000
vt 0.6587 0.2588 0.0000
vt 0.7400 0.2637 0.0000
vt 0.7614 0.2263 0.0000
vt 0.7374 0.2233 0.0000
vt 0.7272 0.2542 0.0000
vt 0.7144 0.2199 0.0000
vt 0.7107 0.2566 0.0000
vt 0.7027 0.2181 0.0000
vt 0.7011 0.2562 0.0000
vt 0.6918 0.2159 0.0000
vt 0.6755 0.1749 0.0000
vt 0.6572 0.1733 0.0000
vt 0.6337 0.2212 0.0000
vt 0.6443 0.1716 0.0000
vt 0.6302 0.1698 0.0000
vt 0.7682 0.1768 0.0000
vt 0.7429 0.1767 0.0000
vt 0.7183 0.1773 0.0000
vt 0.7059 0.1770 0.0000
vt 0.6939 0.1768 0.0000
vt 0.6910 0.0610 0.0000
vt 0.6799 0.0591 0.0000
vt 0.6726 0.0566 0.0000
vt 0.6655 0.0542 0.0000
vt 0.7467 0.0567 0.0000
vt 0.7333 0.0578 0.0000
vt 0.7192 0.0601 0.0000
vt 0.7109 0.0610 0.0000
vt 0.7027 0.0620 0.0000
vt 0.7942 0.1247 0.0000
vt 0.7904 0.1219 0.0000
vt 0.7889 0.1264 0.0000
vt 0.7917 0.1286 0.0000
vt 0.7878 0.1316 0.0000
vt 0.7915 0.1318 0.0000
vt 0.8183 0.1122 0.0000
vt 0.8187 0.1063 0.0000
vt 0.8109 0.1074 0.0000
vt 0.8116 0.1133 0.0000
vt 0.8037 0.1095 0.0000
vt 0.8042 0.1143 0.0000
vt 0.7981 0.1126 0.0000
vt 0.8013 0.1175 0.0000
vt 0.7975 0.1196 0.0000
vt 0.7940 0.1152 0.0000
vt 0.7851 0.1194 0.0000
vt 0.7834 0.1247 0.0000
vt 0.7820 0.1307 0.0000
vt 0.8169 0.0977 0.0000
vt 0.8088 0.0998 0.0000
vt 0.8010 0.1032 0.0000
vt 0.7945 0.1074 0.0000
vt 0.7900 0.1117 0.0000
vt 0.8143 0.0891 0.0000
vt 0.8058 0.0915 0.0000
vt 0.7971 0.0961 0.0000
vt 0.7898 0.1018 0.0000
vt 0.7848 0.1074 0.0000
vt 0.7794 0.1159 0.0000
vt 0.6598 0.2892 0.0000
vt 0.6690 0.2886 0.0000
vt 0.6924 0.2873 0.0000
vt 0.7016 0.2868 0.0000
vt 0.6508 0.2612 0.0000
vt 0.7874 0.1376 0.0000
vt 0.7906 0.1347 0.0000
vt 0.7813 0.1370 0.0000
vt 0.8151 0.0798 0.0000
vt 0.8041 0.0818 0.0000
vt 0.7901 0.0840 0.0000
vt 0.8023 0.0695 0.0000
vt 0.7903 0.0751 0.0000
vt 0.7962 0.0918 0.0000
vt 0.8101 0.0722 0.0000
vt 0.7825 0.1229 0.0000
vt 0.7788 0.1216 0.0000
vt 0.7769 0.1225 0.0000
vt 0.7801 0.1180 0.0000
vt 0.7833 0.1200 0.0000
vt 0.7801 0.1355 0.0000
vt 0.7763 0.1351 0.0000
vt 0.7747 0.1363 0.0000
vt 0.7767 0.1312 0.0000
vt 0.7755 0.1295 0.0000
vt 0.7805 0.1318 0.0000
vt 0.7772 0.1284 0.0000
vt 0.7779 0.1244 0.0000
vt 0.7817 0.1256 0.0000
vt 0.7810 0.1291 0.0000
vt 0.8405 0.1059 0.0000
vt 0.8506 0.1710 0.0000
vt 0.8556 0.1701 0.0000
vt 0.8460 0.1051 0.0000
vt 0.8258 0.1085 0.0000
vt 0.8369 0.1730 0.0000
vt 0.8412 0.1725 0.0000
vt 0.8304 0.1077 0.0000
vt 0.8463 0.1717 0.0000
vt 0.8359 0.1067 0.0000
vt 0.8621 0.0647 0.0000
vt 0.9233 0.0649 0.0000
vt 0.9232 0.0602 0.0000
vt 0.8621 0.0595 0.0000
vt 0.8623 0.0808 0.0000
vt 0.9232 0.0800 0.0000
vt 0.9233 0.0750 0.0000
vt 0.8622 0.0754 0.0000
vt 0.9233 0.0701 0.0000
vt 0.8621 0.0702 0.0000
vt 0.8489 0.1012 0.0000
vt 0.8937 0.1418 0.0000
vt 0.8970 0.1384 0.0000
vt 0.8524 0.0974 0.0000
vt 0.9004 0.1349 0.0000
vt 0.8558 0.0936 0.0000
vt 0.9037 0.1312 0.0000
vt 0.8594 0.0898 0.0000
vt 0.9068 0.1277 0.0000
vt 0.8630 0.0861 0.0000
vt 0.8510 0.1725 0.0000
vt 0.8570 0.1713 0.0000
vt 0.8358 0.1746 0.0000
vt 0.8411 0.1740 0.0000
vt 0.8464 0.1733 0.0000
vt 0.9247 0.0648 0.0000
vt 0.9246 0.0589 0.0000
vt 0.9245 0.0813 0.0000
vt 0.9247 0.0753 0.0000
vt 0.9248 0.0702 0.0000
vt 0.8937 0.1437 0.0000
vt 0.8979 0.1396 0.0000
vt 0.9014 0.1359 0.0000
vt 0.9048 0.1321 0.0000
vt 0.9086 0.1277 0.0000
vt 0.8520 0.1790 0.0000
vt 0.8581 0.1784 0.0000
vt 0.8367 0.1815 0.0000
vt 0.8420 0.1804 0.0000
vt 0.8473 0.1795 0.0000
vt 0.9311 0.0648 0.0000
vt 0.9315 0.0589 0.0000
vt 0.9314 0.0814 0.0000
vt 0.9311 0.0753 0.0000
vt 0.9309 0.0702 0.0000
vt 0.8987 0.1485 0.0000
vt 0.9025 0.1440 0.0000
vt 0.9059 0.1401 0.0000
vt 0.9095 0.1364 0.0000
vt 0.9137 0.1323 0.0000
vt 0.8520 0.1800 0.0000
vt 0.8574 0.1798 0.0000
vt 0.8377 0.1826 0.0000
vt 0.8422 0.1814 0.0000
vt 0.8474 0.1805 0.0000
vt 0.9321 0.0649 0.0000
vt 0.9327 0.0598 0.0000
vt 0.9326 0.0805 0.0000
vt 0.9320 0.0753 0.0000
vt 0.9319 0.0702 0.0000
vt 0.9001 0.1487 0.0000
vt 0.9032 0.1446 0.0000
vt 0.9066 0.1407 0.0000
vt 0.9102 0.1371 0.0000
vt 0.9140 0.1337 0.0000
vt 0.8557 0.2398 0.0000
vt 0.9881 0.0707 0.0000
vt 0.9538 0.1847 0.0000
vt 0.4630 0.4286 0.0000
vt 0.4634 0.4435 0.0000
vt 0.3960 0.4452 0.0000
vt 0.3957 0.4303 0.0000
vt 0.4638 0.4584 0.0000
vt 0.3964 0.4601 0.0000
vt 0.4642 0.4733 0.0000
vt 0.3968 0.4751 0.0000
vt 0.4646 0.4882 0.0000
vt 0.3972 0.4900 0.0000
vt 0.4650 0.5031 0.0000
vt 0.3976 0.5049 0.0000
vt 0.5341 0.4408 0.0000
vt 0.5339 0.4260 0.0000
vt 0.6007 0.4250 0.0000
vt 0.6009 0.4398 0.0000
vt 0.5338 0.3710 0.0000
vt 0.5999 0.3695 0.0000
vt 0.3719 0.4305 0.0000
vt 0.3719 0.4389 0.0000
vt 0.3579 0.4386 0.0000
vt 0.3580 0.4304 0.0000
vt 0.3718 0.4471 0.0000
vt 0.3576 0.4467 0.0000
vt 0.3716 0.4555 0.0000
vt 0.3573 0.4549 0.0000
vt 0.3712 0.4639 0.0000
vt 0.3568 0.4631 0.0000
vt 0.3708 0.4725 0.0000
vt 0.3561 0.4715 0.0000
vt 0.3704 0.4814 0.0000
vt 0.3553 0.4801 0.0000
vt 0.3678 0.5108 0.0000
vt 0.3522 0.5092 0.0000
vt 0.6004 0.1984 0.0000
vt 0.6006 0.2124 0.0000
vt 0.3875 0.2154 0.0000
vt 0.3877 0.2012 0.0000
vt 0.0266 0.2715 0.0000
vt 0.0265 0.2575 0.0000
vt 0.2395 0.2558 0.0000
vt 0.2403 0.2702 0.0000
vt 0.0264 0.2434 0.0000
vt 0.2386 0.2418 0.0000
vt 0.0264 0.2293 0.0000
vt 0.2378 0.2280 0.0000
vt 0.0263 0.2153 0.0000
vt 0.2371 0.2144 0.0000
vt 0.0263 0.2012 0.0000
vt 0.2365 0.2009 0.0000
vt 0.0263 0.1490 0.0000
vt 0.2361 0.1497 0.0000
vt 0.3759 0.4305 0.0000
vt 0.3761 0.4389 0.0000
vt 0.3760 0.4473 0.0000
vt 0.3758 0.4557 0.0000
vt 0.3756 0.4642 0.0000
vt 0.3752 0.4729 0.0000
vt 0.3746 0.4817 0.0000
vt 0.3723 0.5112 0.0000
vt 0.3478 0.5084 0.0000
vt 0.3512 0.4796 0.0000
vt 0.3519 0.4711 0.0000
vt 0.3526 0.4628 0.0000
vt 0.3531 0.4546 0.0000
vt 0.3535 0.4465 0.0000
vt 0.3538 0.4384 0.0000
vt 0.3541 0.4303 0.0000
vt 0.3942 0.3744 0.0000
vt 0.4615 0.3727 0.0000
vt 0.3579 0.4036 0.0000
vt 0.3724 0.4036 0.0000
vt 0.3871 0.1487 0.0000
vt 0.5996 0.1458 0.0000
vt 0.3755 0.4036 0.0000
vt 0.3540 0.4036 0.0000
vt 0.3635 0.2149 0.0000
vt 0.3647 0.2013 0.0000
vt 0.2631 0.2533 0.0000
vt 0.2652 0.2675 0.0000
vt 0.2615 0.2397 0.0000
vt 0.2603 0.2264 0.0000
vt 0.2593 0.2134 0.0000
vt 0.2585 0.2007 0.0000
vt 0.2582 0.1497 0.0000
vt 0.3644 0.1490 0.0000
vt 0.3366 0.2127 0.0000
vt 0.3380 0.2032 0.0000
vt 0.2898 0.2467 0.0000
vt 0.2918 0.2569 0.0000
vt 0.2882 0.2361 0.0000
vt 0.2870 0.2252 0.0000
vt 0.2860 0.2143 0.0000
vt 0.2852 0.2035 0.0000
vt 0.2841 0.1497 0.0000
vt 0.3381 0.1494 0.0000
vt 0.3320 0.2118 0.0000
vt 0.3179 0.2060 0.0000
vt 0.3205 0.2037 0.0000
vt 0.3229 0.2180 0.0000
vt 0.3145 0.2071 0.0000
vt 0.3118 0.2203 0.0000
vt 0.3114 0.2073 0.0000
vt 0.3007 0.2183 0.0000
vt 0.3084 0.2070 0.0000
vt 0.2912 0.2124 0.0000
vt 0.3053 0.2061 0.0000
vt 0.3028 0.2041 0.0000
vt 0.3044 0.1496 0.0000
vt 0.3185 0.1496 0.0000
vt 0.4603 0.3168 0.0000
vt 0.3928 0.3184 0.0000
vt 0.3925 0.3035 0.0000
vt 0.4599 0.3018 0.0000
vt 0.3921 0.2885 0.0000
vt 0.4596 0.2869 0.0000
vt 0.3917 0.2736 0.0000
vt 0.4592 0.2719 0.0000
vt 0.3913 0.2587 0.0000
vt 0.4588 0.2570 0.0000
vt 0.3909 0.2437 0.0000
vt 0.4585 0.2420 0.0000
vt 0.5309 0.3012 0.0000
vt 0.5978 0.2991 0.0000
vt 0.5982 0.3139 0.0000
vt 0.5314 0.3160 0.0000
vt 0.3719 0.3767 0.0000
vt 0.3580 0.3768 0.0000
vt 0.3579 0.3686 0.0000
vt 0.3719 0.3684 0.0000
vt 0.3576 0.3605 0.0000
vt 0.3718 0.3601 0.0000
vt 0.3573 0.3524 0.0000
vt 0.3716 0.3518 0.0000
vt 0.3568 0.3441 0.0000
vt 0.3712 0.3433 0.0000
vt 0.3561 0.3358 0.0000
vt 0.3708 0.3347 0.0000
vt 0.3553 0.3271 0.0000
vt 0.3704 0.3258 0.0000
vt 0.3522 0.2980 0.0000
vt 0.3678 0.2964 0.0000
vt 0.5989 0.0932 0.0000
vt 0.3862 0.0963 0.0000
vt 0.3856 0.0822 0.0000
vt 0.5987 0.0792 0.0000
vt 0.0275 0.0266 0.0000
vt 0.2409 0.0295 0.0000
vt 0.2399 0.0438 0.0000
vt 0.0273 0.0406 0.0000
vt 0.2390 0.0578 0.0000
vt 0.0271 0.0546 0.0000
vt 0.2381 0.0715 0.0000
vt 0.0269 0.0687 0.0000
vt 0.2373 0.0850 0.0000
vt 0.0268 0.0827 0.0000
vt 0.2366 0.0985 0.0000
vt 0.0266 0.0968 0.0000
vt 0.3759 0.3767 0.0000
vt 0.3761 0.3683 0.0000
vt 0.3760 0.3600 0.0000
vt 0.3758 0.3515 0.0000
vt 0.3756 0.3430 0.0000
vt 0.3752 0.3343 0.0000
vt 0.3746 0.3255 0.0000
vt 0.3723 0.2960 0.0000
vt 0.3478 0.2988 0.0000
vt 0.3512 0.3276 0.0000
vt 0.3519 0.3362 0.0000
vt 0.3526 0.3445 0.0000
vt 0.3531 0.3527 0.0000
vt 0.3535 0.3608 0.0000
vt 0.3538 0.3688 0.0000
vt 0.3541 0.3769 0.0000
vt 0.3633 0.0969 0.0000
vt 0.3617 0.0834 0.0000
vt 0.2656 0.0324 0.0000
vt 0.2634 0.0464 0.0000
vt 0.2618 0.0600 0.0000
vt 0.2604 0.0732 0.0000
vt 0.2594 0.0861 0.0000
vt 0.2586 0.0988 0.0000
vt 0.3366 0.0958 0.0000
vt 0.3349 0.0863 0.0000
vt 0.2920 0.0431 0.0000
vt 0.2899 0.0532 0.0000
vt 0.2883 0.0638 0.0000
vt 0.2870 0.0746 0.0000
vt 0.2859 0.0854 0.0000
vt 0.2851 0.0960 0.0000
vt 0.3194 0.0956 0.0000
vt 0.3168 0.0934 0.0000
vt 0.3306 0.0874 0.0000
vt 0.3136 0.0923 0.0000
vt 0.3216 0.0816 0.0000
vt 0.3106 0.0921 0.0000
vt 0.3108 0.0794 0.0000
vt 0.3077 0.0924 0.0000
vt 0.3001 0.0815 0.0000
vt 0.3047 0.0934 0.0000
vt 0.2909 0.0874 0.0000
vt 0.3024 0.0954 0.0000
vt 0.3170 0.1496 0.0000
vt 0.3145 0.1496 0.0000
vt 0.3118 0.1496 0.0000
vt 0.3090 0.1496 0.0000
vt 0.3066 0.1496 0.0000
vt 0.4718 0.4407 0.0000
vt 0.4967 0.3718 0.0000
vt 0.4846 0.4486 0.0000
vt 0.4993 0.4509 0.0000
vt 0.5139 0.4475 0.0000
vt 0.5260 0.4387 0.0000
vt 0.4685 0.3042 0.0000
vt 0.4809 0.2957 0.0000
vt 0.4956 0.2927 0.0000
vt 0.5103 0.2954 0.0000
vt 0.5229 0.3036 0.0000
vt 0.7220 0.8868 0.0000
vt 0.6840 0.8895 0.0000
vt 0.6804 0.8517 0.0000
vt 0.7202 0.8490 0.0000
vt 0.6461 0.8942 0.0000
vt 0.6406 0.8563 0.0000
vt 0.6082 0.9009 0.0000
vt 0.6007 0.8630 0.0000
vt 0.5692 0.9102 0.0000
vt 0.5605 0.8715 0.5090
vt 0.9508 0.9102 0.0000
vt 0.9119 0.9010 0.0000
vt 0.9194 0.8630 0.0000
vt 0.9595 0.8715 0.5090
vt 0.8740 0.8942 0.0000
vt 0.8795 0.8563 0.0000
vt 0.8360 0.8895 0.0000
vt 0.8396 0.8517 0.0000
vt 0.7980 0.8868 0.0000
vt 0.7998 0.8490 0.0000
vt 0.7600 0.8859 0.0000
vt 0.7600 0.8481 0.0000
vt 0.7223 0.8952 0.0000
vt 0.6847 0.8979 0.0000
vt 0.6472 0.9025 0.0000
vt 0.6100 0.9091 0.0000
vt 0.5740 0.9182 0.0000
vt 0.9460 0.9182 0.0000
vt 0.9099 0.9091 0.0000
vt 0.8727 0.9025 0.0000
vt 0.8352 0.8979 0.0000
vt 0.7976 0.8952 0.0000
vt 0.7599 0.8943 0.0000
vt 0.7229 0.9080 0.0000
vt 0.6860 0.9107 0.0000
vt 0.6491 0.9152 0.0000
vt 0.6127 0.9215 0.0000
vt 0.5779 0.9302 0.0000
vt 0.9421 0.9303 0.0000
vt 0.9072 0.9216 0.0000
vt 0.8708 0.9152 0.0000
vt 0.8339 0.9107 0.0000
vt 0.7969 0.9080 0.0000
vt 0.7599 0.9072 0.0000
vt 0.6526 0.7842 0.0000
vt 0.6269 0.7011 0.0000
vt 0.6365 0.7011 0.0000
vt 0.6604 0.7783 0.0000
vt 0.7198 0.8356 0.0000
vt 0.7228 0.8259 0.0000
vt 0.8028 0.8356 0.0000
vt 0.7999 0.8259 0.0000
vt 0.8701 0.7842 0.0000
vt 0.8623 0.7783 0.0000
vt 0.8957 0.7011 0.0000
vt 0.8861 0.7011 0.0000
vt 0.8701 0.6181 0.0000
vt 0.8623 0.6240 0.0000
vt 0.8028 0.5667 0.0000
vt 0.7999 0.5764 0.0000
vt 0.7198 0.5667 0.0000
vt 0.7228 0.5764 0.0000
vt 0.6526 0.6181 0.0000
vt 0.6604 0.6240 0.0000
vt 0.6769 0.7011 0.0000
vt 0.6930 0.7533 0.0000
vt 0.7352 0.7856 0.0000
vt 0.7874 0.7856 0.0000
vt 0.8296 0.7533 0.0000
vt 0.8457 0.7011 0.0000
vt 0.8296 0.6490 0.0000
vt 0.7874 0.6167 0.0000
vt 0.7352 0.6167 0.0000
vt 0.6930 0.6490 0.0000
vt 0.7238 0.7011 0.0000
vt 0.7309 0.7243 0.0000
vt 0.7497 0.7387 0.0000
vt 0.7729 0.7387 0.0000
vt 0.7917 0.7243 0.0000
vt 0.7989 0.7011 0.0000
vt 0.7917 0.6779 0.0000
vt 0.7729 0.6636 0.0000
vt 0.7497 0.6636 0.0000
vt 0.7309 0.6779 0.0000
vt 0.7613 0.7011 0.0000
# 853 texture coords

g Box001
usemtl 02___Default
s 1
f 1/1/1 2/2/2 3/3/3 4/4/4 
f 5/5/5 6/6/6 7/7/7 8/8/8 
f 9/9/9 6/6/6 10/10/10 11/11/11 
f 12/12/12 13/13/12 14/14/13 15/15/13 
f 16/16/14 17/17/15 18/18/16 19/19/17 
f 6/6/6 9/9/9 20/20/18 7/7/7 
f 6/6/6 5/5/5 21/21/19 10/10/10 
f 13/13/12 22/22/20 23/23/21 14/14/13 
f 17/17/15 1/24/1 4/25/4 18/18/16 
f 24/26/22 21/27/19 25/28/23 26/29/24 
f 27/30/25 28/31/26 29/32/27 30/33/28 
f 31/34/29 32/35/30 33/36/31 34/37/32 
f 24/38/22 2/39/2 28/31/26 27/30/25 
f 35/40/33 36/41/34 32/35/30 31/34/29 
f 10/10/10 27/30/25 30/33/28 11/11/11 
f 21/21/19 24/38/22 27/30/25 10/10/10 
f 21/27/19 5/42/5 8/43/8 25/28/23 
f 32/35/30 37/44/35 38/45/36 33/36/31 
f 36/41/34 39/46/37 37/44/35 32/35/30 
f 2/2/2 24/26/22 26/29/24 3/3/3 
f 14/14/13 31/34/29 34/37/32 15/15/13 
f 23/23/21 35/40/33 31/34/29 14/14/13 
f 28/31/26 17/17/15 16/16/14 29/32/27 
f 2/39/2 1/24/1 17/17/15 28/31/26 
f 40/47/3 41/48/3 42/49/4 43/50/4 
f 44/51/38 45/52/39 46/53/40 47/54/41 
f 48/55/42 49/56/43 45/52/39 44/51/38 
f 43/57/4 42/58/4 50/59/44 51/60/45 
f 52/61/46 53/62/47 54/63/24 55/64/24 
f 47/65/41 46/66/40 53/62/47 52/61/46 
f 55/64/24 54/63/24 41/48/3 40/47/3 
f 3/3/3 40/47/3 43/50/4 4/4/4 
f 7/7/7 44/51/38 47/54/41 8/8/8 
f 20/20/18 48/55/42 44/51/38 7/7/7 
f 4/25/4 43/57/4 51/60/45 18/18/16 
f 25/28/23 52/61/46 55/64/24 26/29/24 
f 8/43/8 47/65/41 52/61/46 25/28/23 
f 26/29/24 55/64/24 40/47/3 3/3/3 
f 41/48/3 23/67/21 22/68/20 42/49/4 
f 45/52/39 37/69/35 39/70/37 46/53/40 
f 50/59/44 13/13/12 12/12/12 56/71/17 
f 49/56/43 38/72/36 37/69/35 45/52/39 
f 42/58/4 22/22/20 13/13/12 50/59/44 
f 53/62/47 36/73/34 35/74/33 54/63/24 
f 46/66/40 39/75/37 36/73/34 53/62/47 
f 54/63/24 35/74/33 23/67/21 41/48/3 
s off
f 57/76/45 19/19/45 58/77/45 59/78/45 
f 19/19/44 18/18/44 60/79/44 58/77/44 
f 18/18/17 51/60/17 61/80/17 60/79/17 
f 51/60/45 50/59/45 62/81/45 61/80/45 
f 50/59/45 56/71/45 63/82/45 62/81/45 
f 56/71/45 57/76/45 59/78/45 63/82/45 
f 59/83/48 58/84/48 64/85/48 65/86/48 
f 58/84/49 60/87/49 66/88/49 64/85/49 
f 60/87/50 61/89/50 67/90/50 66/88/50 
f 61/89/50 62/91/50 68/92/50 67/90/50 
f 62/93/51 63/94/51 69/95/51 68/96/51 
f 63/97/48 59/83/48 65/86/48 69/98/48 
f 65/95/52 64/85/52 70/99/52 71/99/52 
f 64/85/53 66/88/53 72/100/53 70/99/53 
f 66/88/54 67/96/54 73/100/54 72/100/54 
f 67/96/52 68/96/52 74/100/52 73/100/52 
f 68/96/54 69/95/54 75/99/54 74/100/54 
f 69/95/54 65/95/54 71/99/54 75/99/54 
f 71/101/48 70/102/48 76/103/48 77/104/48 
f 70/99/49 72/100/49 78/105/49 76/106/49 
f 72/107/55 73/108/55 79/109/55 78/110/55 
f 73/108/55 74/111/55 80/112/55 79/109/55 
f 74/100/51 75/99/51 81/106/51 80/105/51 
f 75/113/48 71/101/48 77/104/48 81/114/48 
f 77/104/48 76/103/48 82/115/48 83/116/48 
f 76/106/56 78/105/56 84/117/56 82/118/56 
f 78/110/55 79/109/55 85/119/55 84/120/55 
f 79/109/55 80/112/55 86/121/55 85/119/55 
f 80/105/51 81/106/51 87/118/51 86/117/51 
f 81/114/48 77/104/48 83/116/48 87/122/48 
f 83/116/48 82/115/48 88/123/48 89/124/48 
f 82/118/57 84/117/57 90/125/57 88/126/57 
f 84/120/55 85/119/55 91/127/55 90/128/55 
f 85/119/55 86/121/55 92/129/55 91/127/55 
f 86/117/58 87/118/58 93/126/58 92/125/58 
f 87/122/48 83/116/48 89/124/48 93/130/48 
f 89/124/48 88/123/48 94/131/48 95/132/48 
f 88/126/59 90/125/59 96/133/59 94/134/59 
f 90/128/55 91/127/55 97/135/55 96/136/55 
f 91/127/55 92/129/55 98/137/55 97/135/55 
f 92/125/60 93/126/60 99/134/60 98/133/60 
f 93/130/48 89/124/48 95/132/48 99/138/48 
s 1
f 99/138/45 95/132/45 97/135/45 98/137/45 
s 2
f 96/136/17 97/135/17 95/132/45 94/131/17 
s 1
f 100/1/61 101/4/62 102/3/63 103/2/64 
f 104/139/65 105/140/66 106/141/67 107/142/68 
f 9/9/9 11/11/11 108/143/69 107/142/68 
f 12/12/12 15/15/13 109/144/70 110/145/71 
f 16/16/14 19/19/17 111/146/44 112/147/14 
f 107/142/68 106/141/67 20/20/18 9/9/9 
f 107/142/68 108/143/69 113/148/72 104/139/65 
f 110/145/71 109/144/70 114/149/73 115/150/74 
f 112/147/14 111/146/44 101/151/62 100/152/61 
f 116/26/75 117/29/76 118/28/77 113/27/72 
f 119/153/28 30/33/28 29/32/27 120/154/27 
f 121/155/78 34/37/32 33/36/31 122/156/79 
f 116/157/75 119/153/28 120/154/27 103/158/64 
f 123/159/80 121/155/78 122/156/79 124/160/81 
f 108/143/69 11/11/11 30/33/28 119/153/28 
f 113/148/72 108/143/69 119/153/28 116/157/75 
f 113/27/72 118/28/77 105/43/66 104/42/65 
f 122/156/79 33/36/31 38/45/36 125/161/82 
f 124/160/81 122/156/79 125/161/82 126/162/83 
f 103/2/64 102/3/63 117/29/76 116/26/75 
f 109/144/70 15/15/13 34/37/32 121/155/78 
f 114/149/73 109/144/70 121/155/78 123/159/80 
f 120/154/27 29/32/27 16/16/14 112/147/14 
f 103/158/64 120/154/27 112/147/14 100/152/61 
f 127/47/63 128/50/62 129/49/62 130/48/63 
f 131/163/84 132/164/85 133/165/86 134/166/87 
f 48/55/42 131/163/84 134/166/87 49/56/43 
f 128/167/62 135/168/45 136/169/16 129/170/62 
f 137/61/88 138/64/76 139/63/76 140/62/89 
f 132/65/85 137/61/88 140/62/89 133/66/86 
f 138/64/76 127/47/63 130/48/63 139/63/76 
f 102/3/63 101/4/62 128/50/62 127/47/63 
f 106/141/67 105/140/66 132/164/85 131/163/84 
f 20/20/18 106/141/67 131/163/84 48/55/42 
f 101/151/62 111/146/44 135/168/45 128/167/62 
f 118/28/77 117/29/76 138/64/76 137/61/88 
f 105/43/66 118/28/77 137/61/88 132/65/85 
f 117/29/76 102/3/63 127/47/63 138/64/76 
f 130/48/63 129/49/62 115/68/74 114/67/73 
f 134/166/87 133/165/86 126/171/83 125/172/82 
f 136/169/16 56/71/17 12/12/12 110/145/71 
f 49/56/43 134/166/87 125/172/82 38/72/36 
f 129/170/62 136/169/16 110/145/71 115/150/74 
f 140/62/89 139/63/76 123/74/80 124/73/81 
f 133/66/86 140/62/89 124/73/81 126/75/83 
f 139/63/76 130/48/63 114/67/73 123/74/80 
s off
f 57/76/17 141/173/17 142/174/17 19/19/17 
f 19/19/16 142/174/16 143/175/16 111/146/16 
f 111/146/45 143/175/45 144/176/45 135/168/45 
f 135/168/45 144/176/45 145/177/45 136/169/45 
f 136/169/45 145/177/45 146/178/45 56/71/45 
f 56/71/45 146/178/45 141/173/45 57/76/45 
f 141/179/55 147/180/55 148/181/55 142/182/55 
f 142/182/49 148/181/49 149/183/49 143/184/49 
f 143/184/90 149/183/90 150/185/90 144/186/90 
f 144/186/90 150/185/90 151/187/90 145/188/90 
f 145/189/51 151/190/51 152/191/51 146/182/51 
f 146/192/55 152/193/55 147/180/55 141/179/55 
f 147/191/54 153/194/54 154/194/54 148/181/54 
f 148/181/91 154/194/91 155/195/91 149/183/91 
f 149/183/52 155/195/52 156/195/52 150/190/52 
f 150/190/54 156/195/54 157/195/54 151/190/54 
f 151/190/54 157/195/54 158/194/54 152/191/54 
f 152/191/52 158/194/52 153/194/52 147/191/52 
f 153/196/55 159/197/55 160/198/55 154/199/55 
f 154/194/49 160/200/49 161/201/49 155/195/49 
f 155/202/48 161/203/48 162/204/48 156/205/48 
f 156/205/48 162/204/48 163/206/48 157/207/48 
f 157/195/51 163/201/51 164/200/51 158/194/51 
f 158/208/55 164/209/55 159/197/55 153/196/55 
f 159/197/55 165/210/55 166/211/55 160/198/55 
f 160/200/92 166/212/92 167/213/92 161/201/92 
f 161/203/48 167/214/48 168/215/48 162/204/48 
f 162/204/48 168/215/48 169/216/48 163/206/48 
f 163/201/51 169/213/51 170/212/51 164/200/51 
f 164/209/55 170/217/55 165/210/55 159/197/55 
f 165/210/55 171/218/55 172/219/55 166/211/55 
f 166/212/57 172/220/57 173/221/57 167/213/57 
f 167/214/48 173/222/48 174/223/48 168/215/48 
f 168/215/48 174/223/48 175/224/48 169/216/48 
f 169/213/93 175/221/93 176/220/93 170/212/93 
f 170/217/55 176/225/55 171/218/55 165/210/55 
f 171/218/55 177/226/55 178/227/55 172/219/55 
f 172/220/94 178/228/94 179/229/94 173/221/94 
f 173/222/48 179/230/48 180/231/48 174/223/48 
f 174/223/48 180/231/48 181/232/48 175/224/48 
f 175/221/95 181/229/95 182/228/95 176/220/95 
f 176/225/55 182/233/55 177/226/55 171/218/55 
s 1
f 182/233/45 181/232/45 180/231/45 177/226/45 
s 2
f 179/230/45 178/227/45 177/226/45 180/231/45 
s 8
f 183/234/96 184/235/97 185/236/98 186/237/96 
f 184/235/97 187/238/99 188/239/100 185/236/98 
f 187/238/99 189/240/101 190/241/102 188/239/100 
f 189/240/101 191/242/103 192/243/104 190/241/102 
f 191/244/103 193/245/105 194/246/105 192/247/104 
f 193/245/105 195/248/106 196/249/107 194/246/105 
f 195/248/106 197/250/108 198/251/109 196/249/107 
f 197/250/108 199/252/110 200/253/110 198/251/109 
f 201/254/111 183/234/96 186/237/96 202/255/111 
s off
f 186/237/48 185/236/48 203/256/48 204/257/48 
f 185/236/48 188/239/48 205/258/48 203/256/48 
f 188/239/48 190/241/48 206/259/48 205/258/48 
f 190/241/48 192/243/48 207/260/48 206/259/48 
f 192/247/48 194/246/48 208/261/48 207/262/48 
f 194/246/48 196/249/48 209/263/48 208/261/48 
f 196/249/112 198/251/112 210/264/112 209/263/112 
f 198/251/48 200/253/48 211/265/48 210/264/48 
f 200/253/48 202/255/48 212/266/48 211/265/48 
f 202/255/48 186/237/48 204/257/48 212/266/48 
f 204/267/113 203/268/113 213/269/113 214/270/113 
f 203/268/114 205/271/114 215/272/114 213/269/114 
f 205/271/115 206/273/115 216/274/115 215/272/115 
f 206/273/116 207/275/116 217/276/116 216/274/116 
f 207/275/117 208/277/117 218/278/117 217/276/117 
f 208/279/118 209/280/118 219/281/118 218/282/118 
f 209/280/119 210/283/119 220/284/119 219/281/119 
f 210/283/44 211/285/44 221/286/44 220/284/44 
f 211/285/120 212/287/120 222/288/120 221/286/120 
f 212/287/121 204/267/121 214/270/121 222/288/121 
f 214/270/48 213/269/48 223/289/48 224/290/48 
f 213/269/48 215/272/48 225/291/48 223/289/48 
f 215/272/48 216/274/48 226/292/48 225/291/48 
f 216/274/48 217/276/48 227/293/48 226/292/48 
f 217/276/48 218/278/48 228/294/48 227/293/48 
f 218/282/48 219/281/48 229/295/48 228/296/48 
f 219/281/112 220/284/112 230/297/112 229/295/112 
f 220/284/48 221/286/48 231/298/48 230/297/48 
f 221/286/122 222/288/122 232/299/122 231/298/122 
f 222/288/90 214/270/90 224/290/90 232/299/90 
f 224/300/123 223/301/123 233/302/123 234/303/123 
f 223/301/124 225/304/124 235/305/124 233/302/124 
f 225/304/125 226/306/125 236/307/125 235/305/125 
f 226/306/126 227/308/126 237/309/126 236/307/126 
f 227/308/127 228/310/127 238/311/127 237/309/127 
f 228/312/128 229/313/128 239/314/128 238/315/128 
f 229/313/129 230/316/129 240/317/129 239/314/129 
f 230/316/130 231/318/130 241/319/130 240/317/130 
f 231/318/131 232/320/131 242/321/131 241/319/131 
f 232/320/132 224/300/132 234/303/132 242/321/132 
f 233/302/133 243/322/133 244/323/133 234/303/133 
f 235/305/134 245/324/134 243/322/134 233/302/134 
f 236/307/135 246/325/135 245/324/135 235/305/135 
f 237/309/136 247/326/136 246/325/136 236/307/136 
f 238/311/137 248/327/137 247/326/137 237/309/137 
f 239/314/138 249/328/138 248/329/138 238/315/138 
f 240/317/139 250/330/139 249/328/139 239/314/139 
f 241/319/140 251/331/140 250/330/140 240/317/140 
f 242/321/141 252/332/141 251/331/141 241/319/141 
f 234/303/142 244/323/142 252/332/142 242/321/142 
f 243/322/143 253/333/143 254/334/143 244/323/143 
f 245/324/144 255/335/144 253/333/144 243/322/144 
f 246/325/145 256/336/145 255/335/145 245/324/145 
f 247/326/146 257/337/146 256/336/146 246/325/146 
f 248/327/147 258/338/147 257/337/147 247/326/147 
f 249/328/148 259/339/148 258/340/148 248/329/148 
f 250/330/149 260/341/149 259/339/149 249/328/149 
f 251/331/150 261/342/150 260/341/150 250/330/150 
f 252/332/151 262/343/151 261/342/151 251/331/151 
f 244/323/152 254/334/152 262/343/152 252/332/152 
s 1
f 201/254/153 202/255/153 200/253/153 199/252/153 
s off
f 254/344/16 253/345/16 263/346/16 
f 253/345/45 255/347/45 263/346/45 
f 255/347/45 256/348/45 263/346/45 
f 256/348/45 257/349/45 263/346/45 
f 257/349/44 258/350/44 263/346/44 
f 258/350/44 259/351/44 263/346/44 
f 259/351/16 260/352/16 263/346/16 
f 260/352/45 261/353/45 263/346/45 
f 261/353/45 262/354/45 263/346/45 
f 262/354/44 254/344/44 263/346/44 
s 8
f 264/234/154 265/237/154 266/236/155 267/235/156 
f 267/235/156 266/236/155 268/239/157 269/238/158 
f 269/238/158 268/239/157 270/241/159 271/240/160 
f 271/240/160 270/241/159 272/243/161 273/242/162 
f 273/244/162 272/247/161 274/246/163 275/245/163 
f 275/245/163 274/246/163 276/249/164 277/248/165 
f 277/248/165 276/249/164 278/251/166 279/250/167 
f 279/250/167 278/251/166 280/253/168 281/252/169 
f 282/254/170 283/255/170 265/237/154 264/234/154 
s off
f 265/237/171 284/257/171 285/256/171 266/236/171 
f 266/236/171 285/256/171 286/258/171 268/239/171 
f 268/239/55 286/258/55 287/259/55 270/241/55 
f 270/241/171 287/259/171 288/260/171 272/243/171 
f 272/247/55 288/262/55 289/261/55 274/246/55 
f 274/246/55 289/261/55 290/263/55 276/249/55 
f 276/249/55 290/263/55 291/264/55 278/251/55 
f 278/251/172 291/264/172 292/265/172 280/253/172 
f 280/253/55 292/265/55 293/266/55 283/255/55 
f 283/255/55 293/266/55 284/257/55 265/237/55 
f 284/267/113 294/270/113 295/269/113 285/268/113 
f 285/268/114 295/269/114 296/272/114 286/271/114 
f 286/271/52 296/272/52 297/274/52 287/273/52 
f 287/273/116 297/274/116 298/276/116 288/275/116 
f 288/275/117 298/276/117 299/278/117 289/277/117 
f 289/279/118 299/282/118 300/281/118 290/280/118 
f 290/280/119 300/281/119 301/284/119 291/283/119 
f 291/283/17 301/284/17 302/286/17 292/285/17 
f 292/285/120 302/286/120 303/288/120 293/287/120 
f 293/287/121 303/288/121 294/270/121 284/267/121 
f 294/270/50 304/290/50 305/289/50 295/269/50 
f 295/269/172 305/289/172 306/291/172 296/272/172 
f 296/272/55 306/291/55 307/292/55 297/274/55 
f 297/274/172 307/292/172 308/293/172 298/276/172 
f 298/276/171 308/293/171 309/294/171 299/278/171 
f 299/282/55 309/296/55 310/295/55 300/281/55 
f 300/281/55 310/295/55 311/297/55 301/284/55 
f 301/284/172 311/297/172 312/298/172 302/286/172 
f 302/286/55 312/298/55 313/299/55 303/288/55 
f 303/288/50 313/299/50 304/290/50 294/270/50 
f 304/300/173 314/303/173 315/302/173 305/301/173 
f 305/301/174 315/302/174 316/305/174 306/304/174 
f 306/304/175 316/305/175 317/307/175 307/306/175 
f 307/306/176 317/307/176 318/309/176 308/308/176 
f 308/308/177 318/309/177 319/311/177 309/310/177 
f 309/312/178 319/315/178 320/314/178 310/313/178 
f 310/313/179 320/314/179 321/317/179 311/316/179 
f 311/316/180 321/317/180 322/319/180 312/318/180 
f 312/318/181 322/319/181 323/321/181 313/320/181 
f 313/320/182 323/321/182 314/303/182 304/300/182 
f 315/302/183 314/303/183 324/323/183 325/322/183 
f 316/305/184 315/302/184 325/322/184 326/324/184 
f 317/307/185 316/305/185 326/324/185 327/325/185 
f 318/309/186 317/307/186 327/325/186 328/326/186 
f 319/311/187 318/309/187 328/326/187 329/327/187 
f 320/314/188 319/315/188 329/329/188 330/328/188 
f 321/317/189 320/314/189 330/328/189 331/330/189 
f 322/319/190 321/317/190 331/330/190 332/331/190 
f 323/321/191 322/319/191 332/331/191 333/332/191 
f 314/303/192 323/321/192 333/332/192 324/323/192 
f 325/322/193 324/323/193 334/334/193 335/333/193 
f 326/324/194 325/322/194 335/333/194 336/335/194 
f 327/325/195 326/324/195 336/335/195 337/336/195 
f 328/326/196 327/325/196 337/336/196 338/337/196 
f 329/327/197 328/326/197 338/337/197 339/338/197 
f 330/328/198 329/329/198 339/340/198 340/339/198 
f 331/330/199 330/328/199 340/339/199 341/341/199 
f 332/331/200 331/330/200 341/341/200 342/342/200 
f 333/332/201 332/331/201 342/342/201 343/343/201 
f 324/323/202 333/332/202 343/343/202 334/334/202 
s 1
f 282/254/203 281/252/203 280/253/203 283/255/203 
s off
f 334/344/44 344/346/44 335/345/44 
f 335/345/17 344/346/17 336/347/17 
f 336/347/17 344/346/17 337/348/17 
f 337/348/44 344/346/44 338/349/44 
f 338/349/44 344/346/44 339/350/44 
f 339/350/16 344/346/16 340/351/16 
f 340/351/16 344/346/16 341/352/16 
f 341/352/45 344/346/45 342/353/45 
f 342/353/45 344/346/45 343/354/45 
f 343/354/16 344/346/16 334/344/16 
s 1
f 345/355/204 346/356/205 347/357/206 
f 345/355/204 348/358/207 346/356/205 
f 345/355/204 349/359/208 348/358/207 
f 345/355/204 350/360/209 349/359/208 
f 345/355/204 351/361/210 350/360/209 
f 345/355/204 352/362/211 351/361/210 
f 345/355/204 347/357/206 352/362/211 
f 347/363/206 346/364/205 353/365/212 354/366/213 
f 349/367/208 350/368/209 355/369/214 356/370/215 
f 350/368/209 351/361/210 357/371/216 355/369/214 
f 351/361/210 352/362/211 358/372/217 357/371/216 
f 352/362/211 347/363/206 354/366/213 358/372/217 
f 359/373/218 360/374/219 361/375/220 
f 359/373/218 361/375/220 362/376/221 
f 359/373/218 362/376/221 363/377/222 
f 359/373/218 363/377/222 364/378/223 
f 359/373/218 364/378/223 365/379/224 
f 359/373/218 365/379/224 366/380/225 
f 359/373/218 366/380/225 360/374/219 
s off
f 348/358/226 367/381/226 368/382/226 346/356/226 
f 346/356/227 368/382/227 369/383/227 353/384/227 
f 361/385/228 370/386/228 371/387/228 362/388/228 
f 362/388/229 371/387/229 372/389/229 363/390/229 
f 363/390/230 372/389/230 373/391/230 356/392/230 
f 349/359/231 374/393/231 367/381/231 348/358/231 
f 368/382/232 367/381/232 375/394/232 376/395/232 
f 370/396/233 369/383/233 377/397/233 378/398/233 
f 371/387/234 370/386/234 378/399/234 379/400/234 
f 372/389/235 371/387/235 379/400/235 380/401/235 
f 374/393/236 373/391/236 381/402/236 382/403/236 
f 367/381/237 374/393/237 382/403/237 375/394/237 
f 376/395/238 375/394/238 383/404/238 384/405/238 
f 378/398/239 377/397/239 385/406/239 386/407/239 
f 379/400/240 378/399/240 386/408/240 387/409/240 
f 380/401/241 379/400/241 387/409/241 388/410/241 
f 382/403/242 381/402/242 389/411/242 390/412/242 
f 375/394/243 382/403/243 390/412/243 383/404/243 
f 383/413/244 391/414/244 392/415/244 384/416/244 
f 384/416/245 392/415/245 393/417/245 385/418/245 
f 386/419/246 394/420/246 395/421/246 387/422/246 
f 387/422/247 395/421/247 396/423/247 388/424/247 
f 388/424/248 396/423/248 397/425/248 389/426/248 
f 390/427/249 398/428/249 391/414/249 383/413/249 
f 391/414/250 399/429/250 400/430/250 392/415/250 
f 392/415/251 400/430/251 401/431/251 393/417/251 
f 394/420/252 402/432/252 403/433/252 395/421/252 
f 395/421/253 403/433/253 404/434/253 396/423/253 
f 396/423/254 404/434/254 405/435/254 397/425/254 
f 398/428/255 406/436/255 399/429/255 391/414/255 
f 403/433/256 402/432/256 407/437/256 408/438/256 
f 404/434/257 403/433/257 408/438/257 409/439/257 
f 406/436/258 405/435/258 410/440/258 411/441/258 
f 399/429/259 406/436/259 411/441/259 412/442/259 
s 1
f 354/366/213 353/365/212 361/443/220 360/444/219 
f 356/370/215 355/369/214 364/445/223 363/446/222 
f 355/369/214 357/371/216 365/379/224 364/445/223 
f 357/371/216 358/372/217 366/380/225 365/379/224 
f 358/372/217 354/366/213 360/444/219 366/380/225 
s off
f 353/384/260 369/383/260 370/396/260 361/447/260 
f 356/392/261 373/391/261 374/393/261 349/359/261 
f 377/397/233 369/383/233 368/382/233 376/395/233 
f 381/402/236 373/391/236 372/389/236 380/401/236 
f 385/406/239 377/397/239 376/395/239 384/405/239 
f 389/411/242 381/402/242 380/401/242 388/410/242 
f 385/418/262 393/417/262 394/448/262 386/449/262 
f 389/426/263 397/425/263 398/428/263 390/427/263 
f 393/417/264 401/431/264 402/450/264 394/448/264 
f 397/425/258 405/435/258 406/436/258 398/428/258 
f 410/440/254 405/435/254 404/434/254 409/439/254 
f 413/451/265 414/452/265 408/438/265 407/437/265 
f 410/453/266 414/452/266 412/454/266 411/455/266 
f 408/438/267 414/452/267 410/453/267 409/456/267 
f 412/454/268 414/452/268 413/451/268 415/457/268 
f 400/430/269 416/458/269 417/459/269 415/460/269 
f 415/460/270 417/459/270 418/461/270 412/442/270 
f 412/442/271 418/461/271 419/462/271 399/429/271 
f 399/429/272 419/462/272 416/458/272 400/430/272 
f 402/450/264 420/463/264 421/464/264 407/465/264 
f 407/465/264 421/464/264 422/466/264 413/467/264 
f 413/467/264 422/466/264 423/468/264 401/431/264 
f 401/431/273 423/468/273 420/463/273 402/450/273 
f 413/467/274 424/469/274 425/470/274 415/460/274 
f 415/460/251 425/470/251 426/471/251 400/430/251 
f 400/430/251 426/471/251 427/472/251 401/431/251 
f 401/431/251 427/472/251 424/469/251 413/467/251 
f 416/473/275 428/474/275 429/475/275 417/476/275 
f 417/477/276 429/478/276 430/479/276 418/480/276 
f 418/480/277 430/479/277 431/481/277 419/482/277 
f 419/482/278 431/481/278 428/474/278 416/473/278 
f 420/483/279 432/484/279 433/485/279 421/486/279 
f 421/487/280 433/488/280 434/489/280 422/490/280 
f 422/490/281 434/489/281 435/491/281 423/492/281 
f 423/492/282 435/491/282 432/484/282 420/483/282 
f 424/493/283 436/494/283 437/495/283 425/496/283 
f 425/496/284 437/495/284 438/497/284 426/498/284 
f 426/498/285 438/497/285 439/499/285 427/500/285 
f 427/500/286 439/499/286 436/501/286 424/502/286 
f 428/474/287 440/503/287 441/504/287 429/475/287 
f 429/478/288 441/505/288 442/506/288 430/479/288 
f 430/479/289 442/506/289 443/507/289 431/481/289 
f 431/481/290 443/507/290 440/503/290 428/474/290 
f 432/484/291 444/508/291 445/509/291 433/485/291 
f 433/488/292 445/510/292 446/511/292 434/489/292 
f 434/489/293 446/511/293 447/512/293 435/491/293 
f 435/491/294 447/512/294 444/508/294 432/484/294 
f 436/494/295 448/513/295 449/514/295 437/495/295 
f 437/495/296 449/514/296 450/515/296 438/497/296 
f 438/497/297 450/515/297 451/516/297 439/499/297 
f 439/499/298 451/516/298 448/517/298 436/501/298 
f 440/503/275 452/518/275 453/519/275 441/504/275 
f 441/505/276 453/520/276 454/521/276 442/506/276 
f 442/506/277 454/521/277 455/522/277 443/507/277 
f 443/507/278 455/522/278 452/518/278 440/503/278 
f 444/508/279 456/523/279 457/524/279 445/509/279 
f 445/510/280 457/525/280 458/526/280 446/511/280 
f 446/511/299 458/526/299 459/527/299 447/512/299 
f 447/512/282 459/527/282 456/523/282 444/508/282 
f 448/513/283 460/528/283 461/529/283 449/514/283 
f 449/514/284 461/529/284 462/530/284 450/515/284 
f 450/515/300 462/530/300 463/531/300 451/516/300 
f 451/516/286 463/531/286 460/532/286 448/517/286 
f 452/518/269 464/533/269 465/534/269 453/519/269 
f 453/520/301 465/535/301 466/536/301 454/521/301 
f 454/521/302 466/536/302 467/537/302 455/522/302 
f 455/522/303 467/537/303 464/533/303 452/518/303 
f 456/523/264 468/538/264 469/539/264 457/524/264 
f 457/525/273 469/540/273 470/541/273 458/526/273 
f 458/526/264 470/541/264 471/542/264 459/527/264 
f 459/527/264 471/542/264 468/538/264 456/523/264 
f 460/528/274 472/543/274 473/544/274 461/529/274 
f 461/529/251 473/544/251 474/545/251 462/530/251 
f 462/530/251 474/545/251 475/546/251 463/531/251 
f 463/531/251 475/546/251 472/547/251 460/532/251 
f 464/533/304 476/548/304 465/534/304 
f 465/535/305 476/548/305 466/536/305 
f 466/536/306 476/548/306 467/537/306 
f 467/537/307 476/548/307 464/533/307 
f 468/538/308 477/549/308 469/539/308 
f 469/540/309 477/549/309 470/541/309 
f 470/541/310 477/549/310 471/542/310 
f 471/542/311 477/549/311 468/538/311 
f 472/543/312 478/550/312 473/544/312 
f 473/544/313 478/550/313 474/545/313 
f 474/545/314 478/550/314 475/546/314 
f 475/546/315 478/550/315 472/547/315 
s 1
f 479/355/316 480/357/317 481/356/318 
f 479/355/316 481/356/318 482/358/319 
f 479/355/316 482/358/319 483/359/320 
f 479/355/316 483/359/320 484/360/321 
f 479/355/316 484/360/321 485/361/322 
f 479/355/316 485/361/322 486/362/323 
f 479/355/316 486/362/323 480/357/317 
f 480/363/317 487/366/324 488/365/325 481/364/318 
f 483/367/320 489/370/326 490/369/327 484/368/321 
f 484/368/321 490/369/327 491/371/328 485/361/322 
f 485/361/322 491/371/328 492/372/329 486/362/323 
f 486/362/323 492/372/329 487/366/324 480/363/317 
f 493/373/330 494/375/331 495/374/332 
f 493/373/330 496/376/333 494/375/331 
f 493/373/330 497/377/334 496/376/333 
f 493/373/330 498/378/335 497/377/334 
f 493/373/330 499/379/336 498/378/335 
f 493/373/330 500/380/337 499/379/336 
f 493/373/330 495/374/332 500/380/337 
s off
f 482/358/338 481/356/338 501/382/338 502/381/338 
f 481/356/339 488/384/339 503/383/339 501/382/339 
f 494/385/340 496/388/340 504/387/340 505/386/340 
f 496/388/341 497/390/341 506/389/341 504/387/341 
f 497/390/342 489/392/342 507/391/342 506/389/342 
f 483/359/343 482/358/343 502/381/343 508/393/343 
f 501/382/344 509/395/344 510/394/344 502/381/344 
f 505/396/345 511/398/345 512/397/345 503/383/345 
f 504/387/346 513/400/346 511/399/346 505/386/346 
f 506/389/347 514/401/347 513/400/347 504/387/347 
f 508/393/348 515/403/348 516/402/348 507/391/348 
f 502/381/349 510/394/349 515/403/349 508/393/349 
f 509/395/350 517/405/350 518/404/350 510/394/350 
f 511/398/351 519/407/351 520/406/351 512/397/351 
f 513/400/352 521/409/352 519/408/352 511/399/352 
f 514/401/353 522/410/353 521/409/353 513/400/353 
f 515/403/354 523/412/354 524/411/354 516/402/354 
f 510/394/355 518/404/355 523/412/355 515/403/355 
f 518/413/356 517/416/356 525/415/356 526/414/356 
f 517/416/357 520/418/357 527/417/357 525/415/357 
f 519/419/358 521/422/358 528/421/358 529/420/358 
f 521/422/359 522/424/359 530/423/359 528/421/359 
f 522/424/360 524/426/360 531/425/360 530/423/360 
f 523/427/361 518/413/361 526/414/361 532/428/361 
f 526/414/362 525/415/362 533/430/362 534/429/362 
f 525/415/363 527/417/363 535/431/363 533/430/363 
f 529/420/364 528/421/364 536/433/364 537/432/364 
f 528/421/365 530/423/365 538/434/365 536/433/365 
f 530/423/366 531/425/366 539/435/366 538/434/366 
f 532/428/367 526/414/367 534/429/367 540/436/367 
f 536/433/368 541/438/368 542/437/368 537/432/368 
f 538/434/369 543/439/369 541/438/369 536/433/369 
f 540/436/370 544/441/370 545/440/370 539/435/370 
f 534/429/371 546/442/371 544/441/371 540/436/371 
s 1
f 487/366/324 495/444/332 494/443/331 488/365/325 
f 489/370/326 497/446/334 498/445/335 490/369/327 
f 490/369/327 498/445/335 499/379/336 491/371/328 
f 491/371/328 499/379/336 500/380/337 492/372/329 
f 492/372/329 500/380/337 495/444/332 487/366/324 
s off
f 488/384/372 494/447/372 505/396/372 503/383/372 
f 489/392/373 483/359/373 508/393/373 507/391/373 
f 512/397/345 509/395/345 501/382/345 503/383/345 
f 516/402/348 514/401/348 506/389/348 507/391/348 
f 520/406/351 517/405/351 509/395/351 512/397/351 
f 524/411/354 522/410/354 514/401/354 516/402/354 
f 520/418/374 519/449/374 529/448/374 527/417/374 
f 524/426/375 523/427/375 532/428/375 531/425/375 
f 527/417/376 529/448/376 537/450/376 535/431/376 
f 531/425/370 532/428/370 540/436/370 539/435/370 
f 545/440/366 543/439/366 538/434/366 539/435/366 
f 547/451/377 542/437/377 541/438/377 548/452/377 
f 545/453/378 544/455/378 546/454/378 548/452/378 
f 541/438/379 543/456/379 545/453/379 548/452/379 
f 546/454/380 549/457/380 547/451/380 548/452/380 
f 533/430/381 549/460/381 550/459/381 551/458/381 
f 549/460/382 546/442/382 552/461/382 550/459/382 
f 546/442/383 534/429/383 553/462/383 552/461/383 
f 534/429/384 533/430/384 551/458/384 553/462/384 
f 537/450/376 542/465/376 554/464/376 555/463/376 
f 542/465/385 547/467/385 556/466/385 554/464/385 
f 547/467/376 535/431/376 557/468/376 556/466/376 
f 535/431/376 537/450/376 555/463/376 557/468/376 
f 547/467/363 549/460/363 558/470/363 559/469/363 
f 549/460/363 533/430/363 560/471/363 558/470/363 
f 533/430/386 535/431/386 561/472/386 560/471/386 
f 535/431/363 547/467/363 559/469/363 561/472/363 
f 551/473/387 550/476/387 562/475/387 563/474/387 
f 550/477/388 552/480/388 564/479/388 562/478/388 
f 552/480/389 553/482/389 565/481/389 564/479/389 
f 553/482/390 551/473/390 563/474/390 565/481/390 
f 555/483/391 554/486/391 566/485/391 567/484/391 
f 554/487/392 556/490/392 568/489/392 566/488/392 
f 556/490/393 557/492/393 569/491/393 568/489/393 
f 557/492/394 555/483/394 567/484/394 569/491/394 
f 559/493/395 558/496/395 570/495/395 571/494/395 
f 558/496/396 560/498/396 572/497/396 570/495/396 
f 560/498/397 561/500/397 573/499/397 572/497/397 
f 561/500/398 559/502/398 571/501/398 573/499/398 
f 563/474/399 562/475/399 574/504/399 575/503/399 
f 562/478/400 564/479/400 576/506/400 574/505/400 
f 564/479/401 565/481/401 577/507/401 576/506/401 
f 565/481/402 563/474/402 575/503/402 577/507/402 
f 567/484/403 566/485/403 578/509/403 579/508/403 
f 566/488/404 568/489/404 580/511/404 578/510/404 
f 568/489/405 569/491/405 581/512/405 580/511/405 
f 569/491/406 567/484/406 579/508/406 581/512/406 
f 571/494/407 570/495/407 582/514/407 583/513/407 
f 570/495/408 572/497/408 584/515/408 582/514/408 
f 572/497/409 573/499/409 585/516/409 584/515/409 
f 573/499/410 571/501/410 583/517/410 585/516/410 
f 575/503/387 574/504/387 586/519/387 587/518/387 
f 574/505/388 576/506/388 588/521/388 586/520/388 
f 576/506/389 577/507/389 589/522/389 588/521/389 
f 577/507/390 575/503/390 587/518/390 589/522/390 
f 579/508/391 578/509/391 590/524/391 591/523/391 
f 578/510/392 580/511/392 592/526/392 590/525/392 
f 580/511/393 581/512/393 593/527/393 592/526/393 
f 581/512/394 579/508/394 591/523/394 593/527/394 
f 583/513/395 582/514/395 594/529/395 595/528/395 
f 582/514/396 584/515/396 596/530/396 594/529/396 
f 584/515/397 585/516/397 597/531/397 596/530/397 
f 585/516/398 583/517/398 595/532/398 597/531/398 
f 587/518/381 586/519/381 598/534/381 599/533/381 
f 586/520/411 588/521/411 600/536/411 598/535/411 
f 588/521/412 589/522/412 601/537/412 600/536/412 
f 589/522/413 587/518/413 599/533/413 601/537/413 
f 591/523/376 590/524/376 602/539/376 603/538/376 
f 590/525/385 592/526/385 604/541/385 602/540/385 
f 592/526/376 593/527/376 605/542/376 604/541/376 
f 593/527/385 591/523/385 603/538/385 605/542/385 
f 595/528/363 594/529/363 606/544/363 607/543/363 
f 594/529/363 596/530/363 608/545/363 606/544/363 
f 596/530/386 597/531/386 609/546/386 608/545/386 
f 597/531/363 595/532/363 607/547/363 609/546/363 
f 599/533/414 598/534/414 610/548/414 
f 598/535/415 600/536/415 610/548/415 
f 600/536/416 601/537/416 610/548/416 
f 601/537/417 599/533/417 610/548/417 
f 603/538/418 602/539/418 611/549/418 
f 602/540/419 604/541/419 611/549/419 
f 604/541/420 605/542/420 611/549/420 
f 605/542/421 603/538/421 611/549/421 
f 607/543/422 606/544/422 612/550/422 
f 606/544/423 608/545/423 612/550/423 
f 608/545/424 609/546/424 612/550/424 
f 609/546/425 607/547/425 612/550/425 
s 1
f 613/551/426 614/552/427 615/553/428 616/554/429 
f 614/552/427 617/555/430 618/556/431 615/553/428 
f 617/555/430 619/557/122 620/558/432 618/556/431 
f 619/557/122 621/559/433 622/560/434 620/558/432 
f 621/559/433 623/561/435 624/562/436 622/560/434 
f 623/563/435 625/564/437 626/565/438 624/566/436 
f 625/564/437 627/567/51 628/568/439 626/565/438 
f 629/569/440 630/570/441 631/571/442 632/572/443 
f 630/570/441 633/573/444 634/574/445 631/571/442 
f 633/573/444 635/575/446 636/576/447 634/574/445 
f 635/575/446 637/577/448 638/578/449 636/576/447 
f 637/577/448 639/579/450 640/580/451 638/578/449 
f 639/579/450 641/581/452 642/582/453 640/580/451 
f 641/581/452 643/583/454 644/584/455 642/582/453 
f 645/585/456 646/586/457 647/587/458 648/588/459 
f 646/589/457 649/590/460 650/591/461 647/592/458 
f 649/590/460 651/593/462 652/594/463 650/591/461 
f 651/593/462 653/595/464 654/596/465 652/594/463 
f 653/595/464 655/597/466 656/598/467 654/596/465 
f 655/597/466 657/599/468 658/600/469 656/598/467 
f 657/599/468 659/601/470 660/602/471 658/600/469 
f 616/603/429 615/604/428 630/570/441 629/569/440 
f 615/604/428 618/605/431 633/573/444 630/570/441 
f 618/605/431 620/606/432 635/575/446 633/573/444 
f 620/606/432 622/607/434 637/577/448 635/575/446 
f 622/607/434 624/608/436 639/579/450 637/577/448 
f 624/608/436 626/609/438 641/581/452 639/579/450 
f 626/609/438 628/610/439 643/583/454 641/581/452 
f 659/611/470 657/612/468 642/582/453 644/584/455 
f 657/612/468 655/613/466 640/580/451 642/582/453 
f 655/613/466 653/614/464 638/578/449 640/580/451 
f 653/614/464 651/615/462 636/576/447 638/578/449 
f 651/615/462 649/616/460 634/574/445 636/576/447 
f 649/616/460 646/617/457 631/571/442 634/574/445 
f 646/617/457 645/618/456 632/572/443 631/571/442 
f 613/551/426 616/554/429 661/619/472 662/620/49 
f 629/569/440 632/572/443 663/621/473 664/622/472 
f 645/585/456 648/588/459 665/623/474 666/624/473 
f 616/603/429 629/569/440 664/622/472 661/625/472 
f 632/572/443 645/618/456 666/626/473 663/621/473 
f 648/588/459 647/587/458 667/627/475 668/628/476 
f 647/592/458 650/591/461 669/629/477 667/630/475 
f 650/591/461 652/594/463 670/631/478 669/629/477 
f 652/594/463 654/596/465 671/632/479 670/631/478 
f 654/596/465 656/598/467 672/633/480 671/632/479 
f 656/598/467 658/600/469 673/634/481 672/633/480 
f 658/600/469 660/602/471 674/635/482 673/634/481 
f 665/623/474 648/588/459 668/628/476 675/636/483 
f 668/628/476 667/627/475 676/637/484 677/638/485 
f 667/630/475 669/629/477 678/639/486 676/640/484 
f 669/629/477 670/631/478 679/641/487 678/639/486 
f 670/631/478 671/632/479 680/642/488 679/641/487 
f 671/632/479 672/633/480 681/643/489 680/642/488 
f 672/633/480 673/634/481 682/644/490 681/643/489 
f 673/634/481 674/635/482 683/645/491 682/644/490 
f 675/636/483 668/628/476 677/638/485 684/646/492 
f 677/638/485 676/647/484 685/648/493 686/649/494 
f 676/647/484 678/650/486 687/651/495 685/648/493 
f 678/650/486 679/652/487 688/653/496 687/651/495 
f 679/652/487 680/654/488 689/655/497 688/653/496 
f 680/654/488 681/656/489 690/657/498 689/655/497 
f 681/656/489 682/644/490 691/658/499 690/657/498 
f 682/644/490 683/645/491 692/659/500 691/658/499 
f 684/646/492 677/638/485 686/649/494 693/660/501 
f 694/661/502 695/662/503 696/663/504 697/664/505 
f 697/664/505 696/663/504 698/665/506 699/666/507 
f 699/666/507 698/665/506 700/667/508 701/668/55 
f 701/668/55 700/667/508 702/669/509 703/670/510 
f 703/670/510 702/669/509 704/671/511 705/672/512 
f 705/673/512 704/674/511 706/675/513 707/676/514 
f 707/676/514 706/675/513 628/568/439 627/567/51 
f 708/677/515 709/678/516 710/679/517 711/680/518 
f 711/680/518 710/679/517 712/681/519 713/682/520 
f 713/682/520 712/681/519 714/683/521 715/684/522 
f 715/684/522 714/683/521 716/685/523 717/686/524 
f 717/686/524 716/685/523 718/687/525 719/688/526 
f 719/688/526 718/687/525 720/689/527 721/690/528 
f 721/690/528 720/689/527 644/691/455 643/692/454 
f 722/693/529 723/694/530 724/695/531 725/696/532 
f 725/697/532 724/698/531 726/699/533 727/700/534 
f 727/700/534 726/699/533 728/701/535 729/702/536 
f 729/702/536 728/701/535 730/703/537 731/704/538 
f 731/704/538 730/703/537 732/705/539 733/706/540 
f 733/706/540 732/705/539 734/707/541 735/708/542 
f 735/708/542 734/707/541 660/602/471 659/601/470 
f 695/709/503 708/677/515 711/680/518 696/710/504 
f 696/710/504 711/680/518 713/682/520 698/711/506 
f 698/711/506 713/682/520 715/684/522 700/712/508 
f 700/712/508 715/684/522 717/686/524 702/713/509 
f 702/713/509 717/686/524 719/688/526 704/714/511 
f 704/714/511 719/688/526 721/690/528 706/715/513 
f 706/715/513 721/690/528 643/692/454 628/716/439 
f 659/717/470 644/691/455 720/689/527 735/718/542 
f 735/718/542 720/689/527 718/687/525 733/719/540 
f 733/719/540 718/687/525 716/685/523 731/720/538 
f 731/720/538 716/685/523 714/683/521 729/721/536 
f 729/721/536 714/683/521 712/681/519 727/722/534 
f 727/722/534 712/681/519 710/679/517 725/723/532 
f 725/723/532 710/679/517 709/678/516 722/724/529 
f 694/661/502 662/620/49 661/619/472 695/662/503 
f 708/677/515 664/622/472 663/621/473 709/678/516 
f 722/693/529 666/624/473 665/623/474 723/694/530 
f 695/709/503 661/625/472 664/622/472 708/677/515 
f 709/678/516 663/621/473 666/626/473 722/724/529 
f 723/694/530 736/725/543 737/726/544 724/695/531 
f 724/698/531 737/727/544 738/728/545 726/699/533 
f 726/699/533 738/728/545 739/729/546 728/701/535 
f 728/701/535 739/729/546 740/730/547 730/703/537 
f 730/703/537 740/730/547 741/731/548 732/705/539 
f 732/705/539 741/731/548 742/732/549 734/707/541 
f 734/707/541 742/732/549 674/635/482 660/602/471 
f 665/623/474 675/636/483 736/725/543 723/694/530 
f 736/725/543 743/733/550 744/734/551 737/726/544 
f 737/727/544 744/735/551 745/736/552 738/728/545 
f 738/728/545 745/736/552 746/737/553 739/729/546 
f 739/729/546 746/737/553 747/738/554 740/730/547 
f 740/730/547 747/738/554 748/739/555 741/731/548 
f 741/731/548 748/739/555 749/740/556 742/732/549 
f 742/732/549 749/740/556 683/645/491 674/635/482 
f 675/636/483 684/646/492 743/733/550 736/725/543 
f 743/733/550 750/741/557 751/742/558 744/743/551 
f 744/743/551 751/742/558 752/744/559 745/745/552 
f 745/745/552 752/744/559 753/746/560 746/747/553 
f 746/747/553 753/746/560 754/748/561 747/749/554 
f 747/749/554 754/748/561 755/750/562 748/751/555 
f 748/751/555 755/750/562 756/752/563 749/740/556 
f 749/740/556 756/752/563 692/659/500 683/645/491 
f 684/646/492 693/660/501 750/741/557 743/733/550 
f 751/742/558 750/741/557 693/660/501 757/753/564 
f 752/744/559 751/742/558 757/753/564 758/754/565 
f 753/746/560 752/744/559 758/754/565 759/755/52 
f 754/748/561 753/746/560 759/755/52 760/756/566 
f 755/750/562 754/748/561 760/756/566 761/757/567 
f 756/752/563 755/750/562 761/757/567 692/659/500 
f 693/660/501 686/649/494 685/648/493 757/753/564 
f 757/753/564 685/648/493 687/651/495 758/754/565 
f 758/754/565 687/651/495 688/653/496 759/755/52 
f 759/755/52 688/653/496 689/655/497 760/756/566 
f 760/756/566 689/655/497 690/657/498 761/757/567 
f 761/757/567 690/657/498 691/658/499 692/659/500 
s off
f 614/758/45 613/551/45 762/759/45 
f 617/760/45 614/758/45 762/759/45 
f 619/761/45 617/760/45 762/759/45 
f 621/762/45 619/761/45 762/759/45 
f 623/763/45 621/762/45 762/759/45 
f 625/564/45 623/763/45 762/759/45 
f 627/567/45 625/564/45 762/759/45 
f 613/551/45 662/620/45 762/759/45 
f 694/661/45 697/764/45 762/759/45 
f 697/764/45 699/765/45 762/759/45 
f 699/765/45 701/766/45 762/759/45 
f 701/766/45 703/767/45 762/759/45 
f 703/767/45 705/768/45 762/759/45 
f 705/768/45 707/676/45 762/759/45 
f 707/676/45 627/567/45 762/759/45 
f 662/620/45 694/661/45 762/759/45 
s 8
f 763/769/55 764/770/568 765/771/568 766/772/55 
f 764/770/568 767/773/569 768/774/569 765/771/568 
f 767/773/569 769/775/570 770/776/570 768/774/569 
f 769/775/570 771/777/571 772/778/571 770/776/570 
f 771/779/571 773/780/90 774/781/90 772/782/571 
f 773/780/90 775/783/572 776/784/572 774/781/90 
f 775/783/572 777/785/573 778/786/573 776/784/572 
f 777/785/573 779/787/574 780/788/574 778/786/573 
f 779/787/574 781/789/575 782/790/575 780/788/574 
f 781/789/575 763/769/55 766/772/55 782/790/575 
s off
f 764/770/49 763/769/49 783/791/49 784/792/49 
f 767/773/49 764/770/49 784/792/49 785/793/49 
f 769/775/49 767/773/49 785/793/49 786/794/49 
f 771/777/49 769/775/49 786/794/49 787/795/49 
f 773/780/49 771/779/49 787/796/49 788/797/49 
f 775/783/49 773/780/49 788/797/49 789/798/49 
f 777/785/49 775/783/49 789/798/49 790/799/49 
f 779/787/49 777/785/49 790/799/49 791/800/49 
f 781/789/49 779/787/49 791/800/49 792/801/49 
f 763/769/49 781/789/49 792/801/49 783/791/49 
f 784/792/576 783/791/576 793/802/576 794/803/576 
f 785/793/577 784/792/577 794/803/577 795/804/577 
f 786/794/578 785/793/578 795/804/578 796/805/578 
f 787/795/579 786/794/579 796/805/579 797/806/579 
f 788/797/580 787/796/580 797/807/580 798/808/580 
f 789/798/581 788/797/581 798/808/581 799/809/581 
f 790/799/582 789/798/582 799/809/582 800/810/582 
f 791/800/583 790/799/583 800/810/583 801/811/583 
f 792/801/584 791/800/584 801/811/584 802/812/584 
f 783/791/585 792/801/585 802/812/585 793/802/585 
s 1
f 794/813/586 793/814/587 803/815/588 804/816/589 
f 795/817/590 794/813/586 804/816/589 805/818/591 
f 796/819/592 795/817/590 805/818/591 806/820/593 
f 797/821/594 796/819/592 806/820/593 807/822/595 
f 798/823/596 797/821/594 807/822/595 808/824/597 
f 799/825/598 798/823/596 808/824/597 809/826/599 
f 800/827/600 799/825/598 809/826/599 810/828/601 
f 801/829/602 800/827/600 810/828/601 811/830/603 
f 802/831/604 801/829/602 811/830/603 812/832/605 
f 793/814/587 802/831/604 812/832/605 803/815/588 
f 804/816/589 803/815/588 813/833/606 814/834/607 
f 805/818/591 804/816/589 814/834/607 815/835/608 
f 806/820/593 805/818/591 815/835/608 816/836/609 
f 807/822/595 806/820/593 816/836/609 817/837/610 
f 808/824/597 807/822/595 817/837/610 818/838/611 
f 809/826/599 808/824/597 818/838/611 819/839/612 
f 810/828/601 809/826/599 819/839/612 820/840/613 
f 811/830/603 810/828/601 820/840/613 821/841/614 
f 812/832/605 811/830/603 821/841/614 822/842/615 
f 803/815/588 812/832/605 822/842/615 813/833/606 
f 814/834/607 813/833/606 823/843/616 824/844/617 
f 815/835/608 814/834/607 824/844/617 825/845/618 
f 816/836/609 815/835/608 825/845/618 826/846/619 
f 817/837/610 816/836/609 826/846/619 827/847/620 
f 818/838/611 817/837/610 827/847/620 828/848/621 
f 819/839/612 818/838/611 828/848/621 829/849/622 
f 820/840/613 819/839/612 829/849/622 830/850/623 
f 821/841/614 820/840/613 830/850/623 831/851/624 
f 822/842/615 821/841/614 831/851/624 832/852/625 
f 813/833/606 822/842/615 832/852/625 823/843/616 
f 824/844/617 823/843/616 833/853/49 
f 825/845/618 824/844/617 833/853/49 
f 826/846/619 825/845/618 833/853/49 
f 827/847/620 826/846/619 833/853/49 
f 828/848/621 827/847/620 833/853/49 
f 829/849/622 828/848/621 833/853/49 
f 830/850/623 829/849/622 833/853/49 
f 831/851/624 830/850/623 833/853/49 
f 832/852/625 831/851/624 833/853/49 
f 823/843/616 832/852/625 833/853/49 
# 758 polygons - 98 triangles

