# 3ds Max Wavefront OBJ Exporter v0.97b - (c)2007 guruware
# File Created: 17.04.2018 12:37:34

mtllib low_character.mtl

#
# object Sphere003
#

v  -5.4722 74.0515 -8.5095
v  -8.3643 67.7193 -10.7890
v  -12.6221 67.1779 -4.1089
v  -9.3410 74.0506 -2.7625
v  -12.9084 69.4040 -4.1089
v  -12.9084 69.4040 3.9969
v  -9.3410 74.0506 2.7258
v  -5.5695 74.0535 7.1972
v  -8.5021 67.9562 10.9248
v  -3.9935 68.3905 11.8041
v  -2.2476 74.0484 8.3590
v  -8.3618 63.3763 -11.3107
v  -13.4574 63.0012 -4.0509
v  -13.4598 62.9890 3.9969
v  -12.9031 66.8097 4.1664
v  -10.6858 63.1943 7.5669
v  -8.3643 63.3661 10.5545
v  -8.3643 67.7193 10.5545
v  -4.1822 63.3661 11.8069
v  -8.9910 58.6630 -11.3212
v  -7.3935 55.1396 -9.8195
v  -10.2258 55.1396 -3.9895
v  -12.7289 58.5348 -4.4362
v  -10.7956 59.0089 -4.1089
v  -9.5991 55.4854 -3.3348
v  -9.1498 55.4854 3.4592
v  -10.7956 59.0089 3.9969
v  -6.7669 55.4895 8.8846
v  -8.3643 59.0129 9.6025
v  -3.3834 55.4895 10.2213
v  -3.7789 59.0129 11.4424
v  -4.7934 76.5576 -1.4914
v  -2.9625 76.7941 -3.9421
v  -4.7934 76.5576 1.3794
v  -2.9625 76.7941 3.7020
v  -1.4812 76.5576 4.8405
v  -0.0000 76.4449 -0.0559
v  -0.0000 76.4449 -0.0563
v  -0.0000 76.3201 4.8189
v  -5.1694 52.5797 -6.6137
v  -2.5847 52.5797 -7.3877
v  -1.4034 50.8838 -4.0369
v  -2.8068 50.8838 -3.6166
v  -6.5123 52.5797 -2.5608
v  -4.5416 50.8838 -0.0560
v  -6.5123 52.5797 2.4488
v  -5.1694 52.5837 7.4243
v  -2.8068 50.8860 4.3042
v  -7.6059 27.7518 -3.8290
v  -8.2162 27.7518 1.7119
v  -7.7325 34.2537 1.7119
v  -7.1222 34.2537 -4.2097
v  -4.8752 48.3404 -1.6814
v  -5.4854 48.8889 1.7120
v  -3.2420 49.0250 1.7120
v  -3.2420 48.4765 -3.1639
v  -10.7835 40.0403 -2.4980
v  -11.2383 40.1654 1.6923
v  -9.7663 43.8983 1.7164
v  -9.0960 43.6962 -2.2636
v  -6.6102 37.2565 -4.3620
v  -3.2576 37.2565 -5.0724
v  -4.7273 34.2537 -4.9201
v  -6.1047 37.2565 7.2971
v  -3.2576 37.2565 8.5395
v  -3.2483 42.4014 7.3973
v  -5.1442 42.4014 6.8502
v  -5.1074 42.4014 -3.9812
v  -3.2483 42.4014 -4.6916
v  -6.6830 45.7179 1.7196
v  -6.1618 45.7262 -1.9212
v  -2.3864 46.7759 5.2652
v  -3.6127 46.7759 4.7181
v  -7.2205 37.2565 1.7119
v  -6.6168 34.2537 7.3732
v  -4.7273 34.2537 8.6157
v  -4.7977 27.7518 -4.5393
v  -3.5759 46.7759 -2.4583
v  -3.2304 46.7759 -3.1687
v  -4.1862 46.7759 1.7119
v  -3.2420 48.4765 6.3508
v  -4.9119 48.3403 4.2522
v  -7.9424 24.1871 -3.5244
v  -8.5526 24.1871 1.7119
v  -7.1005 27.7518 7.2971
v  -7.4369 24.1871 6.0367
v  -2.5991 24.1871 8.3109
v  -4.7977 27.7518 8.5395
v  -6.8856 20.1509 -2.0865
v  -8.5526 20.1509 1.7119
v  -6.9981 20.1509 4.9165
v  -2.8626 20.1509 6.4074
v  -1.0253 37.2565 -5.0724
v  -1.0407 34.2537 -4.9201
v  -1.0253 37.2565 8.5395
v  -1.0252 42.4014 7.3973
v  -1.0252 42.4014 -4.6916
v  -1.0161 46.7759 5.2652
v  -1.0407 34.2537 8.6157
v  -1.0415 27.7518 -4.5393
v  -1.7624 46.7759 -3.1687
v  -1.0251 48.5446 6.3508
v  -2.5991 24.1871 -4.2347
v  -1.0184 24.1871 8.3109
v  -1.0415 27.7518 8.5395
v  -2.8626 20.1509 -3.5338
v  -1.0211 20.1509 6.4074
v  -1.3708 20.1509 1.7119
v  -1.0054 20.1509 1.7119
v  -10.5481 40.0699 5.3328
v  -9.2177 43.6174 5.0654
v  -6.2116 45.7267 4.2531
v  -4.3078 28.2364 8.5452
v  -4.2480 33.7691 8.6100
v  -1.0357 33.7691 8.6100
v  -4.3078 28.2438 7.9089
v  -4.2480 33.7766 7.9737
v  -1.0357 33.7766 7.9737
v  -6.9271 17.9200 -1.8577
v  -8.4884 17.9200 1.6998
v  -7.0325 17.9200 4.7011
v  -3.1593 17.9200 6.0975
v  -3.1593 17.9200 -3.2132
v  -1.7621 17.9200 1.6998
v  -6.8600 15.7292 -1.4295
v  -8.2234 15.7292 1.6772
v  -6.9520 15.7292 4.2981
v  -3.5696 15.7292 5.5175
v  -3.5696 15.7292 -2.6132
v  -2.3495 15.7292 1.6772
v  -7.1707 15.7292 -2.0004
v  -8.7980 15.7292 1.7074
v  -7.2805 15.7292 4.8354
v  -3.2437 15.7292 6.2908
v  -3.2437 15.7292 -3.4132
v  -1.7875 15.7292 1.7074
v  -7.1730 8.2971 -2.0606
v  -8.5476 8.2971 1.6785
v  -7.2658 8.2971 4.3208
v  -3.8558 8.2971 5.5502
v  -3.8558 8.2971 -2.6470
v  -2.6257 8.2971 1.6785
v  -7.8948 4.7152 -2.9367
v  -9.4353 4.7152 4.6183
v  -7.9988 4.7152 10.7562
v  -4.1771 4.7152 11.8164
v  -4.1771 4.7153 -3.4235
v  -2.7985 4.7152 4.6183
v  -8.1581 2.2283 -2.9334
v  -9.9220 2.2283 5.0035
v  -8.2771 2.2283 11.3350
v  -3.9012 2.2282 12.4852
v  -3.9012 2.2283 -3.3550
v  -2.3227 2.2283 5.0035
v  -8.0045 0.2778 -2.9368
v  -9.6380 0.2778 4.5233
v  -8.1148 0.2778 10.5864
v  -4.0624 0.2777 11.6117
v  -4.0624 0.2778 -3.3958
v  -2.6006 0.2778 4.5233
v  -1.7365 48.6175 -1.5704
v  -0.8683 48.6540 -1.8575
v  -1.6210 48.5446 -3.5136
v  -1.7363 48.6400 1.8903
v  -2.3071 49.0732 0.3650
v  -1.6508 50.3879 -1.8059
v  -0.8254 50.3886 -2.0666
v  -1.6507 50.3890 1.9099
v  -2.4198 50.3966 0.1545
v  -6.5194 39.3473 -2.4994
v  -5.1972 42.8735 -2.2655
v  -6.7751 39.3430 1.7052
v  -6.1855 39.3472 4.8061
v  -5.3189 42.7947 5.0636
v  -4.0066 46.1081 4.2512
v  -4.4780 46.0993 1.7177
v  -3.9568 46.1076 -1.9230
v  -8.7266 33.0426 1.6812
v  -9.0372 33.0456 -1.2968
v  -8.8418 33.0454 4.2030
v  -12.4784 33.7048 4.3107
v  -12.9637 33.7385 1.6826
v  -12.6403 33.6931 -1.2962
v  -9.8382 30.7084 -1.4892
v  -9.2961 30.7051 1.7132
v  -8.4715 30.5724 1.7905
v  -9.3639 30.5778 -3.4812
v  -9.6476 30.7083 4.5552
v  -9.0621 30.5776 6.4686
v  -13.2289 31.4268 4.5565
v  -13.6941 31.5596 6.4708
v  -13.7642 31.4236 1.7146
v  -14.5875 31.5544 1.7927
v  -13.4048 31.4269 -1.4879
v  -13.9959 31.5598 -3.4790
v  -8.6974 29.6508 1.7960
v  -9.5898 29.6562 -3.4757
v  -9.2879 29.6560 6.4742
v  -13.9199 30.6380 6.4764
v  -14.8134 30.6328 1.7982
v  -14.2217 30.6382 -3.4735
v  -9.2174 29.7341 1.7322
v  -9.8203 29.7378 -1.8294
v  -9.6074 29.7376 4.8927
v  -13.7007 30.5542 4.8942
v  -14.2949 30.5507 1.7337
v  -13.8952 30.5544 -1.8279
v  -9.6457 27.7462 1.7443
v  -10.2743 27.7500 -1.9690
v  -10.0522 27.7498 5.0395
v  -14.3221 28.5884 5.0408
v  -14.9416 28.5848 1.7459
v  -14.5249 28.5886 -1.9671
v  -11.6797 21.8221 -3.0300
v  -10.7202 21.7783 1.7780
v  -10.9249 20.9596 1.7776
v  -11.8833 21.0033 -3.0292
v  -11.4207 21.8206 6.1070
v  -11.6222 21.0013 6.1043
v  -16.0912 22.7854 6.1183
v  -16.2963 21.9668 6.1179
v  -17.0552 22.8211 1.8101
v  -17.2599 22.0024 1.8094
v  -16.3603 22.7888 -3.0167
v  -16.5616 21.9696 -3.0195
v  -13.7648 17.9931 3.8228
v  -13.9824 18.2635 5.4806
v  -15.9138 18.7101 5.6452
v  -16.1081 18.8102 4.3207
v  -16.0819 13.2472 -1.0616
v  -16.1208 13.2814 -2.2416
v  -14.8002 13.3546 -2.0861
v  -14.5972 13.4073 -1.3146
v  -12.9919 56.2553 -0.0560
v  -4.1822 67.7193 -12.0414
v  -2.8474 74.0360 -9.3023
v  -2.2532 69.1916 13.2558
v  -1.8229 74.2739 7.9807
v  -4.5822 63.3763 -12.6288
v  -0.0000 63.3661 13.0593
v  -0.0000 67.7193 13.0593
v  -3.2114 52.2338 -8.0424
v  -5.7961 52.2338 -7.2683
v  -4.0101 55.1396 -10.8328
v  -2.0012 53.5853 6.7265
v  -0.0000 53.5853 7.2400
v  -0.0000 55.5359 8.9560
v  -2.4257 55.5359 8.3155
v  -1.4812 76.5576 -4.3857
v  -0.0000 74.0515 8.6014
v  -0.0000 52.5797 -8.1617
v  -0.0000 50.8838 -4.4571
v  -2.5847 52.5837 8.1984
v  -1.4034 50.8860 4.7245
v  -1.0363 28.2438 7.9089
v  -1.0211 20.1509 -3.6986
v  -1.0184 24.1871 -4.2347
v  -0.0000 37.2565 -5.0724
v  -0.0000 34.2537 -4.9201
v  -0.0000 37.2565 8.5395
v  -0.0000 42.4014 7.3973
v  -0.0000 42.4014 -4.6916
v  -0.0000 46.7759 5.2652
v  -0.0000 34.2537 8.6157
v  -0.0000 27.7518 -4.5393
v  -0.0000 46.7759 -3.1687
v  -0.0000 48.6126 6.3508
v  -0.0000 24.1871 8.3109
v  -0.0000 27.7518 8.5395
v  -0.0000 20.1509 6.4074
v  -0.0000 20.1509 1.7119
v  -1.0363 28.2364 8.5452
v  -0.0000 33.7691 8.6100
v  -0.0000 33.7766 7.9737
v  -0.0000 48.6905 -2.1445
v  -0.0000 48.6126 -3.8634
v  -0.8682 48.6650 2.2717
v  -0.0000 50.3893 -2.3273
v  -0.8254 50.3895 2.2177
v  -4.8088 58.6630 -12.5736
v  -1.1233 58.8692 13.1983
v  -0.0000 58.9408 13.5638
v  -0.0000 61.8392 13.0372
v  -1.1049 62.0283 12.7440
v  -7.1389 52.2338 -3.2155
v  -7.3897 55.5291 2.5157
v  -6.5546 53.5853 2.0887
v  -4.7409 53.6097 5.8637
v  -5.6542 55.5115 7.0616
v  -0.0000 56.8806 13.8259
v  -1.6136 56.7990 12.9069
v  -1.0842 59.0492 12.2832
v  -1.5745 56.8890 11.2927
v  -0.0000 55.4895 11.2344
v  -0.0000 56.6999 11.4213
v  -0.0000 67.7194 13.0592
v  -1.7983 68.5649 11.9230
v  -4.0321 64.3723 13.3486
v  -5.2908 65.4420 12.3829
v  -8.4406 65.4420 11.0053
v  -5.4285 65.6789 12.7532
v  -8.5783 65.6789 11.3756
v  -6.1633 63.2832 12.2622
v  -8.1119 54.5196 4.1081
v  -5.6795 54.4030 8.9612
v  -2.7719 54.3786 9.8000
v  -0.0000 52.5837 8.9723
v  -0.0000 54.4168 10.3271
v  -5.6869 54.4307 8.9032
v  -3.1963 54.4551 9.7273
v  -15.6001 67.9446 3.9969
v  -15.6001 67.9446 -4.1089
v  -12.6332 58.4066 3.9969
v  -10.5582 55.3303 2.1104
v  -10.5582 55.3303 -2.2224
v  -11.5926 55.0083 2.1104
v  -11.5926 55.0083 -2.2224
v  -9.8291 52.5283 -0.0560
v  -1.3126 50.9991 -7.6909
v  -0.0000 52.2338 -8.8163
v  -0.0000 52.2337 -8.8162
v  -4.0532 50.9806 -6.9592
v  -5.7048 50.9950 -4.7947
v  -10.8337 63.4825 7.4609
v  -11.5495 21.0727 1.7884
v  -11.9367 19.7910 1.7884
v  -12.3851 19.9829 -1.1977
v  -12.2916 21.0772 -2.5956
v  -12.1561 21.0782 5.9572
v  -12.1480 19.8719 3.6510
v  -15.7784 21.8461 5.9590
v  -15.6127 19.2052 6.5399
v  -14.0417 18.7557 6.5166
v  -16.6356 21.8894 1.7903
v  -17.0458 20.5316 1.7903
v  -16.5786 20.6515 4.0508
v  -16.1436 21.8938 -2.5937
v  -16.7357 20.5001 -1.0653
v  -14.1091 17.9953 -2.5956
v  -16.1861 18.8119 -2.5937
v  -12.2800 21.9691 -1.0317
v  -11.8129 21.9663 1.7278
v  -12.1129 21.9690 4.1766
v  -15.5062 22.6370 4.1778
v  -15.9645 22.6343 1.7290
v  -15.6548 22.6371 -1.0305
v  -16.3144 18.8097 -0.4725
v  -16.3687 18.8074 1.7903
v  -15.7877 13.1727 3.8624
v  -15.7952 13.1105 2.3439
v  -14.0841 13.3740 2.2042
v  -14.3268 13.3085 3.3979
v  -13.6263 17.9908 1.7884
v  -13.9757 17.9938 -1.1340
v  -14.3161 12.8918 -0.1811
v  -13.9910 13.0043 1.5278
v  -15.6305 12.7497 1.3977
v  -15.7886 12.7511 0.0582
v  -15.3157 15.7950 6.9736
v  -14.8429 15.7512 6.8603
v  -14.8561 15.9844 7.3733
v  -15.3164 16.0684 7.4145
v  -14.6571 17.3778 6.1684
v  -15.6433 17.4680 6.3227
v  -14.5943 17.8278 7.0977
v  -15.5538 17.9362 7.1390
v  -14.6745 15.8983 6.6081
v  -15.6452 16.0201 6.8225
v  -14.6972 16.3537 7.5391
v  -15.6482 16.4948 7.6428
v  -16.7637 16.8551 -2.6477
v  -16.8055 16.8204 -0.5223
v  -14.6864 16.0389 -2.5198
v  -14.4315 15.9927 -1.0672
v  -16.7203 16.7732 1.8621
v  -16.5653 16.8100 4.4013
v  -13.9783 15.9560 1.7451
v  -14.2520 16.0024 3.7720
v  -16.5801 14.3889 -2.4947
v  -16.5261 14.3555 -0.7959
v  -14.8074 14.4996 -2.2858
v  -14.5040 14.5603 -1.1402
v  -16.2475 14.2054 2.1416
v  -16.2349 14.2732 4.1741
v  -13.9903 14.5382 1.9577
v  -14.3196 14.4657 3.5643
v  -14.3565 16.3659 1.6967
v  -14.6930 16.3029 -0.5277
v  -16.5408 16.4253 1.6243
v  -16.6058 16.4432 -0.1055
v  -13.9016 14.1743 1.7735
v  -14.3246 14.0411 -0.4383
v  -16.0591 13.8530 1.6023
v  -16.2606 13.8425 -0.1230
v  -0.0000 76.3201 -4.8292
v  -0.0000 74.0203 -9.7563
v  -0.0000 63.3763 -13.6802
v  -0.0000 67.7193 -13.2937
v  -0.0000 55.1396 -11.8459
v  -0.0000 58.6630 -13.8259
v  -0.0000 50.8860 5.1447
v  -0.0000 28.2438 7.9089
v  -0.0000 20.1509 -3.8634
v  -0.0000 24.1871 -4.2347
v  -0.0000 28.2364 8.5452
v  -0.0000 48.6900 2.6530
v  -0.0000 50.3899 2.5255
v  -0.0000 74.0516 8.6013
v  -0.0000 54.4940 10.4335
v  -0.0000 52.5795 -8.1616
v  5.4722 74.0515 -8.5095
v  9.3410 74.0506 -2.7625
v  12.6221 67.1779 -4.1089
v  8.3643 67.7193 -10.7890
v  9.3410 74.0506 2.7258
v  12.9084 69.4040 3.9969
v  12.9084 69.4040 -4.1089
v  5.5695 74.0535 7.1972
v  2.2476 74.0484 8.3590
v  3.9935 68.3905 11.8041
v  8.5021 67.9562 10.9248
v  13.4574 63.0012 -4.0509
v  8.3618 63.3763 -11.3107
v  12.9031 66.8097 4.1664
v  13.4598 62.9890 3.9969
v  10.6858 63.1943 7.5669
v  8.3643 67.7193 10.5545
v  8.3643 63.3661 10.5545
v  4.1821 63.3661 11.8069
v  8.9910 58.6630 -11.3212
v  12.7289 58.5348 -4.4362
v  10.2258 55.1396 -3.9895
v  7.3935 55.1396 -9.8195
v  10.7956 59.0089 -4.1089
v  10.7956 59.0089 3.9969
v  9.1498 55.4854 3.4592
v  9.5991 55.4854 -3.3348
v  8.3643 59.0129 9.6025
v  6.7669 55.4895 8.8846
v  3.7789 59.0129 11.4424
v  3.3834 55.4895 10.2213
v  2.9625 76.7941 -3.9421
v  4.7934 76.5576 -1.4914
v  4.7934 76.5576 1.3794
v  2.9625 76.7941 3.7020
v  1.4812 76.5576 4.8405
v  5.1694 52.5797 -6.6137
v  2.8068 50.8838 -3.6166
v  1.4034 50.8838 -4.0369
v  2.5847 52.5797 -7.3877
v  6.5123 52.5797 -2.5608
v  4.5416 50.8838 -0.0560
v  6.5123 52.5797 2.4488
v  5.1694 52.5837 7.4243
v  2.8068 50.8860 4.3042
v  7.6059 27.7518 -3.8290
v  7.1222 34.2537 -4.2097
v  7.7325 34.2537 1.7119
v  8.2162 27.7518 1.7119
v  4.8752 48.3404 -1.6814
v  3.2420 48.4765 -3.1639
v  3.2420 49.0250 1.7120
v  5.4854 48.8889 1.7120
v  10.7835 40.0403 -2.4980
v  9.0960 43.6962 -2.2636
v  9.7663 43.8983 1.7164
v  11.2383 40.1654 1.6923
v  6.6102 37.2565 -4.3620
v  4.7273 34.2537 -4.9201
v  3.2576 37.2565 -5.0724
v  6.1047 37.2565 7.2971
v  5.1441 42.4014 6.8502
v  3.2483 42.4014 7.3973
v  3.2576 37.2565 8.5395
v  5.1074 42.4014 -3.9812
v  3.2483 42.4014 -4.6916
v  6.1618 45.7262 -1.9212
v  6.6830 45.7179 1.7196
v  3.6127 46.7759 4.7181
v  2.3864 46.7759 5.2652
v  7.2205 37.2565 1.7119
v  6.6168 34.2537 7.3732
v  4.7273 34.2537 8.6157
v  4.7977 27.7518 -4.5393
v  3.5759 46.7759 -2.4583
v  3.2303 46.7759 -3.1687
v  4.1862 46.7759 1.7119
v  4.9119 48.3403 4.2522
v  3.2420 48.4765 6.3508
v  8.5526 24.1871 1.7119
v  7.9424 24.1871 -3.5244
v  7.1005 27.7518 7.2971
v  4.7977 27.7518 8.5395
v  2.5991 24.1871 8.3109
v  7.4369 24.1871 6.0367
v  8.5526 20.1509 1.7119
v  6.8856 20.1509 -2.0865
v  2.8626 20.1509 6.4074
v  6.9981 20.1509 4.9165
v  1.0407 34.2537 -4.9201
v  1.0253 37.2565 -5.0724
v  1.0252 42.4014 7.3973
v  1.0253 37.2565 8.5395
v  1.0252 42.4014 -4.6916
v  1.0161 46.7759 5.2652
v  1.0407 34.2537 8.6157
v  1.0415 27.7518 -4.5393
v  1.7624 46.7759 -3.1687
v  1.0251 48.5446 6.3508
v  2.5991 24.1871 -4.2347
v  1.0415 27.7518 8.5395
v  1.0184 24.1871 8.3109
v  2.8626 20.1509 -3.5338
v  1.0211 20.1509 6.4074
v  1.3708 20.1509 1.7119
v  1.0054 20.1509 1.7119
v  9.2177 43.6174 5.0654
v  10.5480 40.0699 5.3328
v  6.2115 45.7267 4.2531
v  4.2480 33.7691 8.6100
v  4.3078 28.2364 8.5452
v  1.0357 33.7691 8.6100
v  4.2480 33.7766 7.9737
v  4.3078 28.2438 7.9089
v  1.0357 33.7766 7.9737
v  8.4884 17.9200 1.6998
v  6.9271 17.9200 -1.8577
v  3.1593 17.9200 6.0975
v  7.0325 17.9200 4.7011
v  3.1593 17.9200 -3.2132
v  1.7621 17.9200 1.6998
v  8.2234 15.7292 1.6772
v  6.8600 15.7292 -1.4295
v  3.5696 15.7292 5.5175
v  6.9520 15.7292 4.2981
v  3.5696 15.7292 -2.6132
v  2.3495 15.7292 1.6772
v  8.7980 15.7292 1.7074
v  7.1707 15.7292 -2.0004
v  3.2437 15.7292 6.2908
v  7.2805 15.7292 4.8354
v  3.2437 15.7292 -3.4132
v  1.7875 15.7292 1.7074
v  8.5476 8.2971 1.6785
v  7.1730 8.2971 -2.0606
v  3.8558 8.2971 5.5502
v  7.2658 8.2971 4.3208
v  3.8558 8.2971 -2.6470
v  2.6257 8.2971 1.6785
v  9.4353 4.7152 4.6183
v  7.8948 4.7152 -2.9367
v  4.1771 4.7152 11.8164
v  7.9988 4.7152 10.7562
v  4.1771 4.7153 -3.4235
v  2.7985 4.7152 4.6183
v  9.9220 2.2283 5.0035
v  8.1581 2.2283 -2.9334
v  3.9012 2.2282 12.4852
v  8.2771 2.2283 11.3350
v  3.9012 2.2283 -3.3550
v  2.3227 2.2283 5.0035
v  9.6380 0.2778 4.5233
v  8.0045 0.2778 -2.9368
v  4.0624 0.2777 11.6117
v  8.1147 0.2778 10.5864
v  4.0624 0.2778 -3.3958
v  2.6006 0.2778 4.5233
v  1.6210 48.5446 -3.5136
v  0.8683 48.6540 -1.8575
v  1.7365 48.6175 -1.5704
v  2.3071 49.0732 0.3650
v  1.7363 48.6400 1.8903
v  0.8254 50.3886 -2.0666
v  1.6508 50.3879 -1.8059
v  2.4198 50.3966 0.1545
v  1.6507 50.3890 1.9099
v  5.1972 42.8735 -2.2655
v  6.5194 39.3473 -2.4994
v  6.7751 39.3430 1.7052
v  6.1854 39.3472 4.8061
v  5.3189 42.7947 5.0636
v  4.0066 46.1081 4.2512
v  4.4780 46.0993 1.7177
v  3.9568 46.1076 -1.9230
v  9.0372 33.0456 -1.2968
v  8.7266 33.0426 1.6812
v  8.8418 33.0454 4.2030
v  12.4784 33.7048 4.3107
v  12.9637 33.7385 1.6826
v  12.6403 33.6931 -1.2962
v  9.8382 30.7084 -1.4892
v  9.3639 30.5778 -3.4812
v  8.4715 30.5724 1.7905
v  9.2961 30.7051 1.7132
v  9.0621 30.5776 6.4686
v  9.6476 30.7083 4.5552
v  13.6941 31.5596 6.4708
v  13.2289 31.4268 4.5565
v  14.5875 31.5544 1.7927
v  13.7642 31.4236 1.7146
v  13.9959 31.5598 -3.4790
v  13.4048 31.4269 -1.4879
v  9.5898 29.6562 -3.4757
v  8.6974 29.6508 1.7960
v  9.2879 29.6560 6.4742
v  13.9199 30.6380 6.4764
v  14.8134 30.6328 1.7982
v  14.2217 30.6382 -3.4735
v  9.8203 29.7378 -1.8294
v  9.2174 29.7341 1.7322
v  9.6073 29.7376 4.8927
v  13.7007 30.5542 4.8942
v  14.2949 30.5507 1.7337
v  13.8952 30.5544 -1.8279
v  10.2743 27.7500 -1.9690
v  9.6457 27.7462 1.7443
v  10.0522 27.7498 5.0395
v  14.3221 28.5884 5.0408
v  14.9415 28.5848 1.7459
v  14.5249 28.5886 -1.9671
v  11.6797 21.8221 -3.0300
v  11.8832 21.0033 -3.0292
v  10.9249 20.9596 1.7776
v  10.7202 21.7783 1.7780
v  11.6222 21.0013 6.1043
v  11.4207 21.8206 6.1070
v  16.2963 21.9668 6.1179
v  16.0912 22.7854 6.1183
v  17.2599 22.0024 1.8094
v  17.0552 22.8211 1.8101
v  16.5616 21.9696 -3.0195
v  16.3603 22.7888 -3.0167
v  13.7648 17.9931 3.8228
v  16.1081 18.8102 4.3207
v  15.9138 18.7101 5.6452
v  13.9824 18.2635 5.4806
v  16.0819 13.2472 -1.0616
v  14.5972 13.4073 -1.3146
v  14.8002 13.3546 -2.0861
v  16.1208 13.2814 -2.2416
v  12.9919 56.2553 -0.0560
v  4.1821 67.7193 -12.0414
v  2.8474 74.0360 -9.3023
v  1.8229 74.2739 7.9807
v  2.2532 69.1916 13.2558
v  4.5822 63.3763 -12.6288
v  3.2114 52.2338 -8.0424
v  4.0101 55.1396 -10.8328
v  5.7961 52.2338 -7.2683
v  2.0012 53.5853 6.7265
v  2.4257 55.5359 8.3155
v  1.4812 76.5576 -4.3857
v  2.5847 52.5837 8.1984
v  1.4034 50.8860 4.7245
v  1.0363 28.2438 7.9089
v  1.0211 20.1509 -3.6986
v  1.0184 24.1871 -4.2347
v  1.0363 28.2364 8.5452
v  0.8682 48.6650 2.2717
v  0.8254 50.3895 2.2177
v  4.8088 58.6630 -12.5736
v  1.1233 58.8692 13.1983
v  1.1049 62.0283 12.7440
v  7.1389 52.2338 -3.2155
v  7.3897 55.5291 2.5157
v  5.6542 55.5115 7.0616
v  4.7409 53.6097 5.8637
v  6.5546 53.5853 2.0887
v  1.6136 56.7990 12.9069
v  1.0842 59.0492 12.2832
v  1.5745 56.8890 11.2927
v  1.7983 68.5649 11.9230
v  4.0321 64.3723 13.3486
v  8.4406 65.4420 11.0053
v  5.2908 65.4420 12.3829
v  5.4285 65.6789 12.7532
v  8.5783 65.6789 11.3756
v  6.1633 63.2832 12.2622
v  8.1119 54.5196 4.1081
v  5.6795 54.4030 8.9612
v  2.7719 54.3786 9.8000
v  3.1963 54.4551 9.7273
v  5.6869 54.4307 8.9032
v  15.6001 67.9446 -4.1089
v  15.6001 67.9446 3.9969
v  12.6332 58.4066 3.9969
v  10.5582 55.3303 -2.2224
v  10.5582 55.3303 2.1104
v  11.5926 55.0083 2.1104
v  11.5926 55.0083 -2.2224
v  9.8291 52.5283 -0.0560
v  1.3126 50.9991 -7.6909
v  4.0532 50.9806 -6.9592
v  5.7048 50.9950 -4.7947
v  10.8337 63.4825 7.4609
v  11.5495 21.0727 1.7884
v  12.2916 21.0772 -2.5956
v  12.3851 19.9829 -1.1977
v  11.9367 19.7910 1.7884
v  12.1561 21.0782 5.9572
v  12.1480 19.8719 3.6510
v  15.7784 21.8461 5.9590
v  14.0417 18.7557 6.5166
v  15.6127 19.2052 6.5399
v  16.6356 21.8894 1.7903
v  16.5786 20.6515 4.0508
v  17.0458 20.5316 1.7903
v  16.1436 21.8938 -2.5937
v  16.7357 20.5001 -1.0653
v  16.1861 18.8119 -2.5937
v  14.1091 17.9953 -2.5956
v  12.2800 21.9691 -1.0317
v  11.8129 21.9663 1.7278
v  12.1129 21.9690 4.1766
v  15.5062 22.6370 4.1778
v  15.9645 22.6343 1.7290
v  15.6548 22.6371 -1.0305
v  16.3144 18.8097 -0.4725
v  16.3687 18.8074 1.7903
v  15.7877 13.1727 3.8624
v  14.3267 13.3085 3.3979
v  14.0841 13.3740 2.2042
v  15.7952 13.1105 2.3439
v  13.6263 17.9908 1.7884
v  13.9757 17.9938 -1.1340
v  14.3161 12.8918 -0.1811
v  15.7886 12.7511 0.0582
v  15.6305 12.7497 1.3977
v  13.9910 13.0043 1.5278
v  15.3157 15.7950 6.9736
v  15.3164 16.0684 7.4145
v  14.8560 15.9844 7.3733
v  14.8429 15.7512 6.8603
v  15.6433 17.4680 6.3227
v  14.6571 17.3778 6.1684
v  14.5943 17.8278 7.0977
v  15.5538 17.9362 7.1390
v  15.6452 16.0201 6.8225
v  14.6745 15.8983 6.6081
v  14.6971 16.3537 7.5391
v  15.6482 16.4948 7.6428
v  16.8055 16.8204 -0.5223
v  16.7637 16.8551 -2.6477
v  14.6864 16.0389 -2.5198
v  14.4315 15.9927 -1.0672
v  16.5653 16.8100 4.4013
v  16.7203 16.7732 1.8621
v  13.9783 15.9560 1.7451
v  14.2520 16.0024 3.7720
v  16.5261 14.3555 -0.7959
v  16.5801 14.3889 -2.4947
v  14.8074 14.4996 -2.2858
v  14.5040 14.5603 -1.1402
v  16.2349 14.2732 4.1741
v  16.2475 14.2054 2.1416
v  13.9903 14.5382 1.9577
v  14.3196 14.4657 3.5643
v  14.6930 16.3029 -0.5277
v  14.3565 16.3659 1.6967
v  16.5408 16.4253 1.6243
v  16.6058 16.4432 -0.1055
v  14.3245 14.0411 -0.4383
v  13.9016 14.1743 1.7735
v  16.0591 13.8530 1.6023
v  16.2606 13.8425 -0.1230
# 765 vertices

vn -0.4654 0.6553 -0.5950
vn -0.6291 0.2700 -0.7289
vn -0.9075 0.2371 -0.3468
vn -0.7117 0.6740 -0.1979
vn -0.6910 0.7229 -0.0000
vn -0.7312 0.5301 0.4294
vn -0.6770 0.7030 0.2179
vn -0.4289 0.6924 0.5802
vn -0.5021 0.3580 0.7872
vn -0.5272 0.4356 0.7296
vn 0.0984 0.6404 0.7617
vn -0.6241 0.0925 -0.7758
vn -0.9644 0.0461 -0.2604
vn -0.9544 -0.0744 0.2890
vn -0.8390 0.0821 0.5380
vn -0.7728 -0.3040 0.5572
vn -0.6065 -0.1067 0.7879
vn -0.4637 -0.0000 0.8860
vn -0.3361 -0.0547 0.9402
vn -0.3030 0.0964 0.9481
vn -0.6398 -0.2206 -0.7362
vn -0.5324 -0.5813 -0.6153
vn -0.7504 -0.5874 -0.3030
vn -0.9388 -0.2356 -0.2514
vn -0.9607 -0.2777 -0.0000
vn -0.8824 -0.4696 0.0285
vn -0.8528 -0.4951 0.1662
vn -0.9061 -0.3371 0.2557
vn -0.6530 -0.4538 0.6064
vn -0.7155 -0.2450 0.6542
vn -0.3187 -0.3666 0.8741
vn -0.3564 -0.2141 0.9095
vn -0.3139 0.9473 -0.0634
vn -0.1509 0.9655 -0.2122
vn -0.3111 0.9489 0.0538
vn -0.1659 0.9630 0.2125
vn 0.0115 0.9293 0.3691
vn 0.0000 1.0000 -0.0041
vn -0.0000 0.9995 0.0320
vn 0.0000 0.9428 0.3334
vn -0.3065 -0.8971 -0.3183
vn -0.1436 -0.8913 -0.4301
vn -0.1122 -0.9355 -0.3349
vn -0.2768 -0.9238 -0.2646
vn -0.6495 -0.7566 -0.0762
vn -0.4864 -0.8736 -0.0174
vn -0.7100 -0.6962 0.1060
vn -0.5582 -0.7089 0.4312
vn -0.2588 -0.9346 0.2441
vn -0.7508 -0.0145 -0.6604
vn -0.9968 0.0698 0.0389
vn -0.9938 0.1031 0.0418
vn -0.7835 0.0465 -0.6196
vn -0.1432 0.9788 -0.1464
vn -0.6419 0.1561 -0.7508
vn -0.9603 0.2778 0.0260
vn -0.8113 0.5846 0.0094
vn -0.5575 0.4505 -0.6973
vn -0.7390 0.1391 -0.6592
vn -0.1093 0.0400 -0.9932
vn -0.1655 -0.0286 -0.9858
vn -0.7927 0.1741 0.5842
vn -0.1855 0.1387 0.9728
vn -0.1560 0.3253 0.9327
vn -0.6479 0.3008 0.6998
vn -0.7227 0.2983 -0.6234
vn -0.2075 0.2083 -0.9558
vn -0.4083 0.9128 0.0075
vn -0.2973 0.7437 -0.5988
vn -0.2032 -0.0725 0.9765
vn -0.6798 -0.2476 0.6903
vn -0.9863 0.1597 0.0420
vn -0.8437 0.0836 0.5303
vn -0.4269 0.0671 0.9018
vn -0.1585 -0.1084 -0.9814
vn -0.9049 -0.0373 -0.4240
vn -0.5707 0.1353 -0.8099
vn -0.8689 -0.4949 0.0121
vn -0.8860 -0.4637 0.0033
vn -0.8520 -0.4311 -0.2970
vn -0.3269 -0.5185 0.7901
vn -0.8373 -0.4744 0.2717
vn -0.7371 -0.1413 -0.6608
vn -0.9998 -0.0010 0.0212
vn -0.7952 -0.0576 0.6037
vn -0.7883 -0.1546 0.5955
vn -0.1811 -0.2554 0.9497
vn -0.4037 -0.1430 0.9036
vn -0.7311 -0.1758 -0.6592
vn -0.9993 -0.0371 -0.0056
vn -0.7019 -0.1659 0.6927
vn 0.0483 -0.5288 0.8474
vn -0.4733 -0.1177 -0.8730
vn -0.0000 0.0110 -0.9999
vn 0.0000 -0.0518 -0.9987
vn 0.0000 0.1156 0.9933
vn -0.0000 0.3149 0.9491
vn -0.0000 0.1933 -0.9811
vn 0.0000 -0.0471 0.9989
vn 0.0000 0.0240 0.9997
vn -0.0000 -0.0681 -0.9977
vn -0.0264 0.0973 -0.9949
vn 0.0208 -0.5005 0.8655
vn -0.0743 -0.1193 -0.9901
vn 0.0000 -0.2384 0.9712
vn 0.0000 -0.0607 0.9982
vn 0.0606 -0.4556 -0.8881
vn 0.0000 -0.8392 0.5439
vn -0.1802 0.9690 0.1690
vn 0.5805 -0.8142 0.0084
vn 0.0000 -1.0000 -0.0000
vn -0.5672 0.1406 0.8115
vn -0.5317 0.4392 0.7241
vn -0.2738 0.7680 0.5789
vn -0.0000 -0.0111 0.9999
vn 0.0000 -0.0111 0.9999
vn 1.0000 -0.0092 -0.0001
vn -0.0000 -0.9999 -0.0123
vn -0.7040 -0.1020 -0.7029
vn -0.9978 -0.0630 0.0180
vn -0.6923 -0.1003 0.7146
vn 0.4228 -0.2187 0.8794
vn 0.4345 -0.2242 -0.8723
vn 0.9828 -0.1841 0.0139
vn -0.4699 0.7653 -0.4400
vn -0.6329 0.7742 0.0099
vn -0.4642 0.7603 0.4544
vn 0.2089 0.8698 0.4471
vn 0.2147 0.8729 -0.4382
vn 0.7191 0.6949 0.0092
vn -0.5583 0.6262 -0.5442
vn -0.7849 0.6194 0.0145
vn -0.5449 0.6125 0.5726
vn 0.3803 0.5294 0.7584
vn 0.4024 0.5396 -0.7395
vn 0.7871 0.6168 0.0113
vn -0.6917 0.1034 -0.7147
vn -0.9965 0.0633 -0.0548
vn -0.6815 0.4318 0.5909
vn 0.6126 0.3614 0.7029
vn 0.5715 0.0062 -0.8206
vn 0.9977 -0.0653 -0.0163
vn -0.6725 0.1589 -0.7229
vn -0.9754 0.2178 0.0348
vn -0.6225 0.5009 0.6013
vn 0.4279 0.5203 0.7390
vn 0.5410 0.0742 -0.8377
vn 0.9913 0.1227 0.0465
vn -0.6953 0.0024 -0.7188
vn -0.9990 0.0174 0.0412
vn -0.6982 -0.0378 0.7149
vn 0.4880 -0.0531 0.8712
vn 0.6292 0.0055 -0.7773
vn 0.9995 0.0152 0.0270
vn -0.6642 -0.0362 -0.7467
vn -0.9929 -0.1179 -0.0178
vn -0.7435 -0.2769 0.6087
vn 0.5646 -0.3528 0.7462
vn 0.5699 -0.0254 -0.8213
vn 0.9932 -0.1159 -0.0144
vn -0.0000 -1.0000 -0.0000
vn 0.0000 -1.0000 0.0000
vn -0.0614 0.9972 -0.0427
vn 0.2683 0.9534 0.1378
vn -0.0719 0.9847 -0.1585
vn -0.7403 -0.0541 -0.6701
vn -0.4831 -0.7369 -0.4729
vn -0.2523 -0.6511 -0.7158
vn -0.3383 -0.1016 -0.9355
vn -0.7251 0.0115 0.6886
vn -0.5291 -0.6967 0.4844
vn -0.7090 -0.7052 -0.0049
vn -0.9985 -0.0408 0.0370
vn -0.9730 0.1772 -0.1481
vn -0.9380 0.3182 -0.1379
vn -0.9848 0.1682 0.0431
vn -0.9664 0.1792 0.1841
vn -0.9738 0.1738 0.1469
vn -0.9223 0.3499 0.1639
vn -0.9236 0.3503 0.1557
vn -0.9291 0.3496 -0.1204
vn -0.9313 0.3213 -0.1717
vn 0.0175 0.0758 -0.9970
vn 0.3843 -0.1715 -0.9071
vn 0.4885 -0.2056 0.8480
vn 0.0064 0.1004 0.9949
vn -0.1673 0.8256 0.5388
vn -0.1992 0.9800 0.0035
vn -0.1487 0.8106 -0.5664
vn 0.9514 -0.3038 -0.0515
vn 0.9710 -0.2368 -0.0337
vn 0.6704 -0.2295 -0.7056
vn 0.7068 -0.1908 0.6812
vn -0.6420 0.1605 0.7498
vn -0.9668 0.2534 0.0317
vn -0.6789 0.1475 -0.7193
vn 0.1885 0.9817 -0.0276
vn 0.1847 0.9826 0.0196
vn 0.2364 0.9716 -0.0073
vn 0.1811 0.9829 -0.0320
vn 0.1854 0.9825 0.0197
vn 0.2368 0.9716 -0.0056
vn 0.9681 -0.2027 -0.1472
vn 0.9731 -0.2023 0.1104
vn 0.0019 0.0053 1.0000
vn -0.9653 0.2023 0.1652
vn -0.9743 0.2027 -0.0979
vn -0.0019 -0.0053 -1.0000
vn -0.1885 -0.9817 0.0276
vn -0.1841 -0.9827 -0.0195
vn -0.2354 -0.9719 0.0074
vn -0.1804 -0.9831 0.0319
vn -0.1854 -0.9825 -0.0197
vn -0.2359 -0.9718 0.0055
vn 0.6609 -0.0788 -0.7463
vn 0.9834 -0.1804 -0.0201
vn 0.9702 -0.2414 -0.0193
vn 0.6180 -0.1821 -0.7648
vn 0.6754 -0.0774 0.7334
vn 0.6351 -0.1810 0.7509
vn -0.6110 0.2182 0.7610
vn -0.6286 0.1135 0.7694
vn -0.9624 0.2696 0.0324
vn -0.9779 0.2065 0.0328
vn -0.6373 0.2233 -0.7376
vn -0.6535 0.1126 -0.7485
vn 0.9632 -0.2044 -0.1743
vn 0.9684 -0.2046 0.1424
vn 0.0024 -0.0023 1.0000
vn -0.9594 0.2043 0.1943
vn -0.9705 0.2050 -0.1271
vn -0.0023 0.0016 -1.0000
vn 0.7060 -0.5775 0.4100
vn 0.5302 -0.8478 0.0099
vn -0.8933 -0.4495 0.0027
vn -0.8779 -0.3465 0.3305
vn -0.3664 -0.7367 0.5683
vn -0.4100 -0.7201 -0.5598
vn 0.5586 -0.6419 -0.5253
vn 0.7059 -0.5806 0.4056
vn -0.9949 -0.1008 0.0093
vn -0.2941 0.2739 -0.9157
vn -0.1689 0.6732 -0.7199
vn -0.7302 0.4073 0.5485
vn -0.0872 0.5224 0.8482
vn -0.3032 0.0825 -0.9493
vn 0.0000 0.0005 1.0000
vn -0.0000 0.3235 0.9462
vn -0.2256 -0.6276 -0.7452
vn -0.5321 -0.6604 -0.5298
vn -0.2395 -0.5733 -0.7835
vn -0.2412 -0.6210 0.7458
vn 0.0000 -0.6385 0.7696
vn 0.0000 -0.6408 0.7677
vn -0.2536 -0.6131 0.7482
vn 0.3535 0.5834 0.7313
vn 0.0000 0.8452 0.5344
vn 0.0000 -0.9006 -0.4346
vn -0.0000 -0.9342 -0.3567
vn -0.1960 -0.7853 0.5873
vn -0.1041 -0.9458 0.3077
vn -0.1677 -0.2231 -0.9603
vn -0.0759 -0.7571 -0.6489
vn -0.0000 -0.1029 -0.9947
vn 0.0000 0.0110 -0.9999
vn 0.0000 0.3149 0.9491
vn 0.0000 0.1933 -0.9811
vn -0.0000 -0.0450 0.9990
vn 0.0000 -0.0681 -0.9977
vn -0.0000 0.0345 -0.9994
vn 0.0000 -0.4891 0.8722
vn 0.0000 0.9999 0.0123
vn 0.0000 -0.9999 -0.0123
vn -0.0623 0.9970 -0.0458
vn -0.0393 0.9988 0.0281
vn -0.0000 -0.7245 -0.6893
vn -0.0000 -0.1050 -0.9945
vn -0.3084 -0.6128 0.7275
vn -0.4328 0.0256 0.9011
vn -0.2894 -0.2310 -0.9289
vn -0.3823 0.1060 0.9180
vn 0.0000 0.1452 0.9894
vn -0.0000 0.0751 0.9972
vn -0.3202 -0.0143 0.9472
vn -0.7395 -0.6363 -0.2198
vn -0.8395 -0.4243 0.3395
vn -0.8462 -0.3860 0.3674
vn -0.6133 -0.5677 0.5491
vn -0.5817 -0.5791 0.5712
vn 0.0000 0.0342 0.9994
vn -0.5357 -0.0047 0.8444
vn -0.3300 -0.2090 0.9205
vn -0.2301 -0.3959 0.8890
vn 0.0000 -0.3521 0.9360
vn 0.0000 -0.2634 0.9647
vn 0.0000 0.7071 0.7071
vn -0.1081 0.7019 0.7041
vn 0.9638 0.1486 0.2215
vn 0.0884 -0.3419 -0.9356
vn 0.8760 -0.2679 0.4010
vn -0.7275 0.2403 0.6427
vn 0.3740 -0.2506 -0.8930
vn 0.8612 -0.2389 0.4486
vn -0.3526 0.1803 0.9182
vn -0.4249 0.2442 0.8717
vn -0.9539 -0.0289 -0.2989
vn 0.4359 -0.1025 -0.8941
vn 0.8206 -0.3078 0.4815
vn -0.4374 -0.0603 0.8972
vn -0.7759 -0.6118 0.1536
vn -0.7479 -0.6198 0.2376
vn -0.5143 -0.6372 0.5740
vn -0.2219 -0.6218 0.7511
vn 0.0000 -0.7596 0.6504
vn 0.0000 -0.5741 0.8188
vn -0.5268 -0.4708 0.7078
vn -0.2849 -0.4529 0.8448
vn 0.3805 0.9112 -0.1578
vn 0.0903 0.9667 -0.2396
vn 0.0545 0.9636 -0.2618
vn 0.2213 -0.8211 -0.5261
vn 0.6955 -0.6592 -0.2858
vn -0.9993 -0.0003 -0.0384
vn -0.9808 0.1950 -0.0053
vn -0.0481 -0.9986 0.0233
vn 0.3387 0.0371 -0.9402
vn -0.3654 -0.9304 -0.0277
vn -0.4561 0.7160 0.5285
vn -0.5373 0.8434 -0.0000
vn 0.0000 0.0000 -1.0000
vn -0.0000 -0.0000 1.0000
vn 0.9985 0.0549 0.0000
vn 0.1609 -0.4256 0.8905
vn -0.9764 -0.1882 0.1060
vn -0.9393 -0.3430 0.0029
vn -0.9405 -0.3398 -0.0000
vn 0.2424 -0.4301 -0.8696
vn 0.9763 0.2162 0.0000
vn 0.2011 -0.5500 0.8106
vn -0.8555 -0.5178 -0.0000
vn 0.2011 -0.5500 -0.8106
vn 0.9928 -0.1194 -0.0120
vn -0.5988 -0.3607 0.7151
vn -0.3862 -0.0214 0.9222
vn -0.5143 -0.4814 0.7098
vn -0.0000 -0.6757 -0.7371
vn 0.0000 -0.7770 -0.6295
vn -0.2224 -0.5147 -0.8280
vn 0.3166 -0.0063 0.9485
vn -0.5301 -0.4608 0.7118
vn -0.2719 -0.5124 -0.8146
vn 0.7245 -0.6346 -0.2689
vn 0.9580 0.0346 0.2848
vn -0.1313 -0.8139 0.5660
vn -0.8220 -0.5144 -0.2444
vn 0.7519 -0.5724 -0.3271
vn -0.8354 -0.0887 0.5424
vn -0.7234 -0.4121 0.5539
vn -0.1905 -0.4934 0.8487
vn 0.9695 -0.2445 -0.0148
vn 0.8947 -0.4462 -0.0190
vn 0.8935 -0.4131 -0.1761
vn 0.6299 -0.2452 -0.7369
vn 0.6967 -0.2274 0.6804
vn 0.8909 -0.4274 0.1538
vn -0.6718 0.1741 0.7199
vn -0.5911 0.1776 0.7868
vn 0.6340 -0.0944 0.7675
vn -0.9667 0.2531 0.0364
vn -0.9983 -0.0382 0.0433
vn -0.9785 0.0293 0.2041
vn -0.6703 0.0875 -0.7369
vn -0.9900 0.0065 -0.1407
vn 0.5752 -0.2470 -0.7798
vn -0.6301 0.0381 -0.7756
vn 0.1941 0.9806 -0.0264
vn 0.1939 0.9808 0.0188
vn 0.2314 0.9728 -0.0058
vn 0.1894 0.9814 -0.0307
vn 0.1946 0.9807 0.0191
vn 0.2319 0.9727 -0.0043
vn -0.1956 -0.9803 0.0271
vn -0.2385 -0.9711 0.0003
vn -0.1998 -0.9796 -0.0200
vn -0.2281 -0.9730 0.0344
vn -0.2352 -0.9593 0.1561
vn -0.1866 -0.9822 -0.0200
vn -0.9964 -0.0831 -0.0193
vn -0.9949 -0.0962 0.0301
vn -0.3276 -0.7129 0.6200
vn -0.4355 -0.7555 -0.4894
vn 0.6504 -0.5672 -0.5053
vn 0.6442 -0.6019 0.4719
vn 0.8902 -0.4529 -0.0497
vn 0.8745 -0.4838 -0.0359
vn 0.5132 -0.6222 -0.5911
vn 0.6460 -0.5715 0.5060
vn -0.3965 -0.7570 0.5193
vn -0.4891 -0.7518 -0.4423
vn -0.3727 -0.9279 0.0027
vn 0.3173 -0.9449 -0.0805
vn 0.4091 -0.6684 0.6212
vn -0.2990 -0.6566 0.6924
vn 0.5569 -0.4981 -0.6646
vn -0.8191 -0.2513 -0.5157
vn 0.6630 0.1417 0.7351
vn -0.6159 0.2915 0.7319
vn 0.5763 -0.5671 -0.5885
vn -0.7819 -0.5096 -0.3590
vn 0.6711 -0.1436 0.7274
vn -0.6222 -0.0900 0.7777
vn -0.6966 0.0416 -0.7162
vn -0.6521 0.0096 0.7581
vn 0.6041 -0.1583 -0.7810
vn 0.7975 -0.1191 0.5914
vn -0.7716 -0.0321 -0.6353
vn -0.6232 -0.0063 0.7820
vn 0.6897 -0.1298 -0.7124
vn 0.7405 -0.1181 0.6616
vn -0.6560 -0.2251 -0.7204
vn -0.6145 -0.2421 0.7509
vn 0.6515 -0.1164 -0.7496
vn 0.8246 -0.1085 0.5552
vn -0.7188 -0.2570 -0.6460
vn -0.5619 -0.2623 0.7845
vn 0.7435 -0.1279 -0.6564
vn 0.7675 -0.0916 0.6345
vn 0.6665 -0.0940 0.7395
vn 0.4730 -0.1839 -0.8617
vn -0.7302 -0.0468 0.6816
vn -0.8199 -0.0583 -0.5695
vn 0.7372 -0.0097 0.6756
vn 0.5755 -0.0447 -0.8166
vn -0.6682 -0.2149 0.7123
vn -0.7686 -0.2270 -0.5981
vn 0.0065 0.8790 -0.4768
vn 0.0000 0.8835 -0.4684
vn 0.0000 0.6821 -0.7312
vn 0.9525 -0.3039 -0.0204
vn 0.6076 -0.2930 -0.7382
vn 0.6215 -0.2917 0.7270
vn -0.6755 0.0128 0.7372
vn -0.9890 0.1446 0.0320
vn -0.7009 0.0068 -0.7132
vn 0.9748 -0.2201 -0.0363
vn 0.6216 -0.1006 -0.7768
vn 0.6248 -0.0841 0.7763
vn -0.6031 0.2464 0.7586
vn -0.9587 0.2826 0.0324
vn -0.6316 0.2399 -0.7373
vn 0.0000 0.0736 -0.9973
vn 0.0000 0.2724 -0.9622
vn 0.0000 -0.5797 -0.8148
vn 0.0000 -0.2261 -0.9741
vn -0.0000 0.9996 -0.0272
vn 0.0000 -0.9427 0.3337
vn 0.0000 -0.3377 -0.9412
vn 0.0000 -0.7009 -0.7132
vn -0.0000 -0.1004 -0.9949
vn -0.0634 0.9977 0.0256
vn 0.0000 -0.7007 0.7135
vn 0.0000 0.0484 0.9988
vn 0.0600 -0.8713 -0.4870
vn -0.0000 0.5484 0.8362
vn -0.2646 0.5347 0.8025
vn 0.0000 0.5554 0.8316
vn 0.0000 -0.6067 0.7949
vn 0.3163 0.0442 0.9476
vn 0.8196 -0.5006 0.2787
vn -0.8958 -0.2673 0.3550
vn 0.0000 -0.8025 -0.5966
vn 0.1626 -0.8001 -0.5775
vn 0.1672 -0.8057 -0.5683
vn 0.0000 -0.8079 -0.5894
vn 0.8489 0.2093 0.4853
vn 0.4654 0.6553 -0.5950
vn 0.7117 0.6740 -0.1979
vn 0.9075 0.2371 -0.3468
vn 0.6291 0.2700 -0.7289
vn 0.6770 0.7030 0.2179
vn 0.7312 0.5301 0.4294
vn 0.6910 0.7229 -0.0000
vn 0.4289 0.6924 0.5802
vn -0.0984 0.6404 0.7617
vn 0.5272 0.4356 0.7296
vn 0.5021 0.3580 0.7872
vn 0.9644 0.0461 -0.2604
vn 0.6241 0.0925 -0.7758
vn 0.8390 0.0821 0.5380
vn 0.9544 -0.0744 0.2890
vn 0.7728 -0.3040 0.5572
vn 0.4637 -0.0000 0.8860
vn 0.6065 -0.1067 0.7879
vn 0.3030 0.0964 0.9481
vn 0.3361 -0.0547 0.9402
vn 0.6398 -0.2206 -0.7362
vn 0.9388 -0.2356 -0.2514
vn 0.7504 -0.5874 -0.3030
vn 0.5324 -0.5813 -0.6153
vn 0.9607 -0.2777 -0.0000
vn 0.9061 -0.3371 0.2557
vn 0.8528 -0.4951 0.1662
vn 0.8824 -0.4696 0.0285
vn 0.7155 -0.2450 0.6542
vn 0.6530 -0.4538 0.6064
vn 0.3564 -0.2141 0.9095
vn 0.3187 -0.3666 0.8741
vn 0.1509 0.9655 -0.2122
vn 0.3140 0.9473 -0.0634
vn 0.3111 0.9489 0.0538
vn 0.1659 0.9630 0.2125
vn -0.0115 0.9293 0.3691
vn 0.3065 -0.8971 -0.3183
vn 0.2768 -0.9238 -0.2646
vn 0.1122 -0.9355 -0.3349
vn 0.1436 -0.8913 -0.4301
vn 0.6495 -0.7566 -0.0762
vn 0.4864 -0.8736 -0.0174
vn 0.7100 -0.6962 0.1060
vn 0.5582 -0.7089 0.4312
vn 0.2588 -0.9346 0.2441
vn 0.7508 -0.0145 -0.6604
vn 0.7835 0.0465 -0.6196
vn 0.9938 0.1031 0.0418
vn 0.9968 0.0698 0.0389
vn 0.1432 0.9788 -0.1464
vn 0.6419 0.1561 -0.7508
vn 0.5575 0.4505 -0.6973
vn 0.8113 0.5846 0.0094
vn 0.9603 0.2778 0.0260
vn 0.7390 0.1391 -0.6592
vn 0.1655 -0.0286 -0.9858
vn 0.1093 0.0400 -0.9932
vn 0.7927 0.1741 0.5842
vn 0.6479 0.3008 0.6998
vn 0.1560 0.3253 0.9327
vn 0.1855 0.1387 0.9728
vn 0.7227 0.2983 -0.6234
vn 0.2075 0.2083 -0.9558
vn 0.2973 0.7437 -0.5988
vn 0.4083 0.9128 0.0075
vn 0.6798 -0.2476 0.6903
vn 0.2032 -0.0725 0.9765
vn 0.9863 0.1597 0.0420
vn 0.8437 0.0836 0.5303
vn 0.4269 0.0671 0.9018
vn 0.1585 -0.1084 -0.9814
vn 0.9049 -0.0373 -0.4240
vn 0.5707 0.1353 -0.8099
vn 0.8520 -0.4311 -0.2970
vn 0.8860 -0.4637 0.0033
vn 0.8689 -0.4949 0.0121
vn 0.8373 -0.4744 0.2717
vn 0.3269 -0.5185 0.7901
vn 0.9998 -0.0010 0.0212
vn 0.7371 -0.1413 -0.6608
vn 0.7952 -0.0576 0.6037
vn 0.4037 -0.1430 0.9036
vn 0.1811 -0.2554 0.9497
vn 0.7883 -0.1546 0.5955
vn 0.9993 -0.0371 -0.0056
vn 0.7311 -0.1758 -0.6592
vn -0.0483 -0.5288 0.8474
vn 0.7019 -0.1659 0.6927
vn 0.4733 -0.1177 -0.8730
vn -0.0000 0.1156 0.9933
vn -0.0000 -0.0471 0.9989
vn -0.0000 0.0240 0.9997
vn 0.0264 0.0973 -0.9949
vn -0.0208 -0.5005 0.8655
vn 0.0743 -0.1193 -0.9901
vn -0.0000 -0.0607 0.9982
vn -0.0000 -0.2384 0.9712
vn -0.0606 -0.4556 -0.8881
vn -0.0000 -0.8392 0.5439
vn 0.1802 0.9690 0.1690
vn -0.5805 -0.8142 0.0084
vn 0.5317 0.4392 0.7241
vn 0.5672 0.1406 0.8115
vn 0.2738 0.7680 0.5789
vn -1.0000 -0.0092 -0.0001
vn 0.9978 -0.0630 0.0180
vn 0.7040 -0.1020 -0.7029
vn -0.4228 -0.2187 0.8794
vn 0.6923 -0.1003 0.7146
vn -0.4345 -0.2242 -0.8723
vn -0.9828 -0.1841 0.0139
vn 0.6329 0.7742 0.0099
vn 0.4699 0.7653 -0.4400
vn -0.2089 0.8698 0.4471
vn 0.4642 0.7603 0.4544
vn -0.2147 0.8729 -0.4382
vn -0.7191 0.6949 0.0092
vn 0.7849 0.6194 0.0145
vn 0.5583 0.6262 -0.5442
vn -0.3803 0.5294 0.7584
vn 0.5449 0.6125 0.5726
vn -0.4024 0.5396 -0.7395
vn -0.7871 0.6168 0.0113
vn 0.9965 0.0633 -0.0548
vn 0.6917 0.1034 -0.7147
vn -0.6126 0.3614 0.7029
vn 0.6815 0.4318 0.5909
vn -0.5715 0.0062 -0.8206
vn -0.9977 -0.0653 -0.0163
vn 0.9754 0.2178 0.0348
vn 0.6725 0.1589 -0.7229
vn -0.4279 0.5203 0.7390
vn 0.6225 0.5009 0.6013
vn -0.5410 0.0742 -0.8377
vn -0.9913 0.1227 0.0465
vn 0.9990 0.0174 0.0412
vn 0.6953 0.0024 -0.7188
vn -0.4880 -0.0531 0.8712
vn 0.6982 -0.0378 0.7149
vn -0.6292 0.0055 -0.7773
vn -0.9995 0.0152 0.0270
vn 0.9929 -0.1179 -0.0178
vn 0.6642 -0.0362 -0.7467
vn -0.5646 -0.3528 0.7462
vn 0.7435 -0.2769 0.6087
vn -0.5699 -0.0254 -0.8213
vn -0.9932 -0.1159 -0.0144
vn -0.0000 -1.0000 0.0000
vn 0.0614 0.9972 -0.0427
vn -0.2683 0.9534 0.1378
vn 0.0719 0.9847 -0.1585
vn 0.7403 -0.0541 -0.6701
vn 0.3383 -0.1016 -0.9355
vn 0.2523 -0.6511 -0.7158
vn 0.4831 -0.7369 -0.4729
vn 0.7251 0.0115 0.6886
vn 0.9985 -0.0408 0.0370
vn 0.7090 -0.7052 -0.0049
vn 0.5291 -0.6967 0.4844
vn 0.9380 0.3182 -0.1379
vn 0.9730 0.1772 -0.1481
vn 0.9848 0.1682 0.0431
vn 0.9664 0.1792 0.1841
vn 0.9738 0.1738 0.1469
vn 0.9223 0.3499 0.1639
vn 0.9236 0.3503 0.1557
vn 0.9291 0.3496 -0.1204
vn 0.9313 0.3213 -0.1717
vn -0.0175 0.0758 -0.9970
vn -0.3843 -0.1715 -0.9071
vn -0.4885 -0.2056 0.8480
vn -0.0064 0.1004 0.9949
vn 0.1673 0.8256 0.5388
vn 0.1992 0.9800 0.0035
vn 0.1487 0.8106 -0.5664
vn -0.6704 -0.2295 -0.7056
vn -0.9710 -0.2368 -0.0337
vn -0.9514 -0.3038 -0.0515
vn -0.7068 -0.1908 0.6812
vn 0.6420 0.1605 0.7498
vn 0.9668 0.2534 0.0317
vn 0.6789 0.1475 -0.7193
vn -0.1885 0.9817 -0.0276
vn -0.1847 0.9826 0.0196
vn -0.2364 0.9716 -0.0073
vn -0.1811 0.9829 -0.0320
vn -0.1854 0.9825 0.0197
vn -0.2368 0.9716 -0.0056
vn -0.9681 -0.2027 -0.1472
vn -0.9731 -0.2023 0.1104
vn -0.0019 0.0053 1.0000
vn 0.9653 0.2023 0.1652
vn 0.9743 0.2027 -0.0979
vn 0.0019 -0.0053 -1.0000
vn 0.1885 -0.9817 0.0276
vn 0.1841 -0.9827 -0.0195
vn 0.2354 -0.9719 0.0074
vn 0.1804 -0.9831 0.0319
vn 0.1854 -0.9825 -0.0197
vn 0.2359 -0.9718 0.0055
vn -0.6609 -0.0788 -0.7463
vn -0.6180 -0.1821 -0.7648
vn -0.9702 -0.2414 -0.0193
vn -0.9834 -0.1804 -0.0201
vn -0.6351 -0.1810 0.7509
vn -0.6754 -0.0774 0.7334
vn 0.6286 0.1135 0.7694
vn 0.6110 0.2182 0.7610
vn 0.9779 0.2065 0.0328
vn 0.9624 0.2696 0.0324
vn 0.6535 0.1126 -0.7485
vn 0.6373 0.2233 -0.7376
vn -0.9632 -0.2044 -0.1743
vn -0.9684 -0.2046 0.1424
vn -0.0024 -0.0023 1.0000
vn 0.9594 0.2043 0.1943
vn 0.9705 0.2050 -0.1271
vn 0.0023 0.0016 -1.0000
vn -0.7060 -0.5775 0.4100
vn 0.8779 -0.3465 0.3305
vn 0.8933 -0.4495 0.0027
vn -0.5302 -0.8478 0.0099
vn 0.3664 -0.7367 0.5683
vn -0.7059 -0.5806 0.4056
vn -0.5586 -0.6419 -0.5253
vn 0.4100 -0.7201 -0.5598
vn 0.9949 -0.1008 0.0093
vn 0.2941 0.2739 -0.9157
vn 0.1689 0.6732 -0.7199
vn 0.0872 0.5224 0.8482
vn 0.7302 0.4073 0.5485
vn 0.3032 0.0825 -0.9493
vn 0.2256 -0.6276 -0.7452
vn 0.2395 -0.5733 -0.7835
vn 0.5321 -0.6604 -0.5298
vn 0.2412 -0.6210 0.7458
vn 0.2536 -0.6131 0.7482
vn -0.3535 0.5834 0.7313
vn 0.1960 -0.7853 0.5873
vn 0.1041 -0.9458 0.3077
vn 0.1677 -0.2231 -0.9603
vn 0.0759 -0.7571 -0.6489
vn 0.0000 -0.1029 -0.9947
vn -0.0000 0.9999 0.0123
vn 0.0623 0.9970 -0.0458
vn 0.0393 0.9988 0.0281
vn 0.3084 -0.6128 0.7275
vn 0.4328 0.0256 0.9011
vn 0.2894 -0.2310 -0.9289
vn 0.3823 0.1060 0.9180
vn 0.3202 -0.0143 0.9472
vn 0.7395 -0.6363 -0.2198
vn 0.8395 -0.4243 0.3395
vn 0.5817 -0.5791 0.5712
vn 0.6133 -0.5677 0.5491
vn 0.8462 -0.3860 0.3674
vn 0.5357 -0.0047 0.8444
vn 0.3300 -0.2090 0.9205
vn 0.2301 -0.3959 0.8890
vn 0.1081 0.7019 0.7041
vn -0.9638 0.1486 0.2215
vn -0.0884 -0.3419 -0.9356
vn -0.8760 -0.2679 0.4010
vn 0.7275 0.2403 0.6427
vn -0.3740 -0.2506 -0.8930
vn -0.8612 -0.2389 0.4486
vn 0.4249 0.2442 0.8717
vn 0.3526 0.1803 0.9182
vn 0.9539 -0.0289 -0.2989
vn -0.4359 -0.1025 -0.8941
vn -0.8206 -0.3078 0.4815
vn 0.4374 -0.0603 0.8972
vn 0.7759 -0.6118 0.1536
vn 0.7479 -0.6198 0.2376
vn 0.5143 -0.6372 0.5740
vn 0.2219 -0.6218 0.7511
vn 0.2849 -0.4529 0.8448
vn 0.5268 -0.4708 0.7078
vn -0.3805 0.9112 -0.1578
vn -0.0903 0.9667 -0.2396
vn -0.0545 0.9636 -0.2618
vn -0.2213 -0.8211 -0.5261
vn -0.6955 -0.6592 -0.2858
vn 0.9993 -0.0003 -0.0384
vn 0.9808 0.1950 -0.0053
vn 0.0481 -0.9986 0.0233
vn -0.3387 0.0371 -0.9402
vn 0.3654 -0.9304 -0.0277
vn 0.4561 0.7160 0.5285
vn 0.5373 0.8434 -0.0000
vn 0.0000 -0.0000 1.0000
vn -0.9985 0.0549 0.0000
vn -0.1609 -0.4256 0.8905
vn 0.9764 -0.1882 0.1060
vn 0.9405 -0.3398 -0.0000
vn 0.9393 -0.3430 0.0029
vn -0.2424 -0.4301 -0.8696
vn -0.9763 0.2162 0.0000
vn -0.2011 -0.5500 0.8106
vn 0.8555 -0.5178 -0.0000
vn -0.2011 -0.5500 -0.8106
vn -0.9928 -0.1194 -0.0120
vn 0.5988 -0.3607 0.7151
vn 0.3862 -0.0214 0.9222
vn 0.5143 -0.4814 0.7098
vn 0.2224 -0.5147 -0.8280
vn -0.3166 -0.0063 0.9485
vn 0.5301 -0.4608 0.7118
vn 0.2719 -0.5124 -0.8146
vn -0.7245 -0.6346 -0.2689
vn -0.9580 0.0346 0.2848
vn 0.1313 -0.8139 0.5660
vn 0.8220 -0.5144 -0.2444
vn -0.7519 -0.5724 -0.3271
vn 0.8354 -0.0887 0.5424
vn 0.7234 -0.4121 0.5539
vn 0.1905 -0.4934 0.8487
vn -0.9695 -0.2445 -0.0148
vn -0.6299 -0.2452 -0.7369
vn -0.8935 -0.4131 -0.1761
vn -0.8947 -0.4462 -0.0190
vn -0.6967 -0.2274 0.6804
vn -0.8909 -0.4274 0.1538
vn 0.6718 0.1741 0.7199
vn -0.6340 -0.0944 0.7675
vn 0.5911 0.1776 0.7868
vn 0.9667 0.2531 0.0364
vn 0.9785 0.0293 0.2041
vn 0.9983 -0.0382 0.0433
vn 0.6703 0.0875 -0.7369
vn 0.9900 0.0065 -0.1407
vn 0.6301 0.0381 -0.7756
vn -0.5752 -0.2470 -0.7798
vn -0.1941 0.9806 -0.0264
vn -0.1939 0.9808 0.0188
vn -0.2314 0.9728 -0.0058
vn -0.1894 0.9814 -0.0307
vn -0.1946 0.9807 0.0191
vn -0.2319 0.9727 -0.0043
vn 0.1956 -0.9803 0.0271
vn 0.2385 -0.9711 0.0003
vn 0.1998 -0.9796 -0.0200
vn 0.2281 -0.9730 0.0344
vn 0.2352 -0.9593 0.1561
vn 0.1866 -0.9822 -0.0200
vn 0.9964 -0.0831 -0.0193
vn 0.9949 -0.0962 0.0301
vn 0.3276 -0.7129 0.6200
vn -0.6442 -0.6019 0.4719
vn -0.6504 -0.5672 -0.5053
vn 0.4355 -0.7555 -0.4894
vn -0.8902 -0.4529 -0.0497
vn -0.8745 -0.4838 -0.0359
vn -0.5132 -0.6222 -0.5911
vn 0.4891 -0.7518 -0.4423
vn 0.3965 -0.7570 0.5193
vn -0.6460 -0.5715 0.5060
vn 0.3727 -0.9279 0.0027
vn 0.2990 -0.6566 0.6924
vn -0.4091 -0.6684 0.6212
vn -0.3173 -0.9449 -0.0805
vn 0.8191 -0.2513 -0.5157
vn -0.5569 -0.4981 -0.6646
vn -0.6630 0.1417 0.7351
vn 0.6159 0.2915 0.7319
vn 0.7819 -0.5096 -0.3590
vn -0.5763 -0.5671 -0.5885
vn -0.6711 -0.1436 0.7274
vn 0.6222 -0.0900 0.7777
vn 0.6521 0.0096 0.7581
vn 0.6966 0.0416 -0.7162
vn -0.6041 -0.1583 -0.7810
vn -0.7975 -0.1191 0.5914
vn 0.6232 -0.0063 0.7820
vn 0.7716 -0.0321 -0.6353
vn -0.6897 -0.1298 -0.7124
vn -0.7405 -0.1181 0.6616
vn 0.6145 -0.2421 0.7509
vn 0.6560 -0.2251 -0.7204
vn -0.6515 -0.1164 -0.7496
vn -0.8246 -0.1085 0.5552
vn 0.5619 -0.2623 0.7845
vn 0.7188 -0.2570 -0.6460
vn -0.7435 -0.1279 -0.6564
vn -0.7675 -0.0916 0.6345
vn -0.4730 -0.1839 -0.8617
vn -0.6665 -0.0940 0.7395
vn 0.7302 -0.0468 0.6816
vn 0.8199 -0.0583 -0.5695
vn -0.5755 -0.0447 -0.8166
vn -0.7372 -0.0097 0.6756
vn 0.6682 -0.2149 0.7123
vn 0.7686 -0.2270 -0.5981
vn -0.0065 0.8790 -0.4768
vn -0.6076 -0.2930 -0.7382
vn -0.9525 -0.3039 -0.0204
vn -0.6215 -0.2917 0.7270
vn 0.6755 0.0128 0.7372
vn 0.9890 0.1446 0.0320
vn 0.7009 0.0068 -0.7132
vn -0.6216 -0.1006 -0.7768
vn -0.9748 -0.2201 -0.0363
vn -0.6248 -0.0841 0.7763
vn 0.6031 0.2464 0.7586
vn 0.9587 0.2826 0.0324
vn 0.6316 0.2399 -0.7373
vn 0.0634 0.9977 0.0256
vn -0.0600 -0.8713 -0.4870
vn 0.2646 0.5347 0.8025
vn -0.3163 0.0442 0.9476
vn -0.8196 -0.5006 0.2787
vn 0.8958 -0.2673 0.3550
vn -0.1672 -0.8057 -0.5683
vn -0.1626 -0.8001 -0.5775
vn -0.8489 0.2093 0.4853
# 891 vertex normals

vt 0.7594 0.6768 0.0000
vt 0.8032 0.6658 0.0000
vt 0.8120 0.7111 0.0000
vt 0.7681 0.7158 0.0000
vt 0.8003 0.7137 0.0000
vt 0.7996 0.7516 0.0000
vt 0.7654 0.7462 0.0000
vt 0.7489 0.7797 0.0000
vt 0.7991 0.8080 0.0000
vt 0.7743 0.8348 0.0000
vt 0.7309 0.7947 0.0000
vt 0.8301 0.6588 0.0000
vt 0.8369 0.7112 0.0000
vt 0.8395 0.7513 0.0000
vt 0.8149 0.7529 0.0000
vt 0.3781 0.2124 0.0000
vt 0.4272 0.2124 0.0000
vt 0.4273 0.2774 0.0000
vt 0.4807 0.2124 0.0000
vt 0.4849 0.2864 0.0000
vt 0.8602 0.6590 0.0000
vt 0.8864 0.6577 0.0000
vt 0.8947 0.6998 0.0000
vt 0.8656 0.7081 0.0000
vt 0.2995 0.1519 0.0000
vt 0.2995 0.0992 0.0000
vt 0.3538 0.0992 0.0000
vt 0.3434 0.1519 0.0000
vt 0.4314 0.0992 0.0000
vt 0.4222 0.1519 0.0000
vt 0.4759 0.0992 0.0000
vt 0.4808 0.1519 0.0000
vt 0.7377 0.7179 0.0000
vt 0.7308 0.6996 0.0000
vt 0.7358 0.7371 0.0000
vt 0.7238 0.7539 0.0000
vt 0.7147 0.7634 0.0000
vt 0.7063 0.7236 0.0000
vt 0.7067 0.7218 0.0000
vt 0.7032 0.7615 0.0000
vt 0.6141 0.3814 0.0000
vt 0.6304 0.3523 0.0000
vt 0.6768 0.3800 0.0000
vt 0.6681 0.3955 0.0000
vt 0.6332 0.4357 0.0000
vt 0.6801 0.4470 0.0000
vt 0.6679 0.4930 0.0000
vt 0.7115 0.5435 0.0000
vt 0.7244 0.4905 0.0000
vt 0.3345 0.4246 0.0000
vt 0.3761 0.4241 0.0000
vt 0.3765 0.4782 0.0000
vt 0.3299 0.4767 0.0000
vt 0.3902 0.7984 0.0000
vt 0.3846 0.7355 0.0000
vt 0.4206 0.7368 0.0000
vt 0.4160 0.8262 0.0000
vt 0.2738 0.7764 0.0000
vt 0.3167 0.7594 0.0000
vt 0.3303 0.8059 0.0000
vt 0.2887 0.8148 0.0000
vt 0.3265 0.5012 0.0000
vt 0.3023 0.5017 0.0000
vt 0.3125 0.4766 0.0000
vt 0.4249 0.5061 0.0000
vt 0.4517 0.5086 0.0000
vt 0.4422 0.5627 0.0000
vt 0.4242 0.5593 0.0000
vt 0.3190 0.5443 0.0000
vt 0.3048 0.5448 0.0000
vt 0.3314 0.8450 0.0000
vt 0.2916 0.8485 0.0000
vt 0.4339 0.6229 0.0000
vt 0.4164 0.6197 0.0000
vt 0.3754 0.5049 0.0000
vt 0.4241 0.4778 0.0000
vt 0.4425 0.4776 0.0000
vt 0.3154 0.4236 0.0000
vt 0.3159 0.5846 0.0000
vt 0.3092 0.5837 0.0000
vt 0.3480 0.5834 0.0000
vt 0.3499 0.6020 0.0000
vt 0.3241 0.5990 0.0000
vt 0.4224 0.6549 0.0000
vt 0.3924 0.6361 0.0000
vt 0.3378 0.3984 0.0000
vt 0.3750 0.3956 0.0000
vt 0.4200 0.4224 0.0000
vt 0.4084 0.3943 0.0000
vt 0.4448 0.3876 0.0000
vt 0.4389 0.4203 0.0000
vt 0.3419 0.3657 0.0000
vt 0.3733 0.3639 0.0000
vt 0.4003 0.3614 0.0000
vt 0.4315 0.3534 0.0000
vt 0.3087 0.5977 0.0000
vt 0.2862 0.5021 0.0000
vt 0.2864 0.4760 0.0000
vt 0.4712 0.5113 0.0000
vt 0.4630 0.5673 0.0000
vt 0.2889 0.5462 0.0000
vt 0.4510 0.6244 0.0000
vt 0.4740 0.4807 0.0000
vt 0.2898 0.4212 0.0000
vt 0.2984 0.5843 0.0000
vt 0.4537 0.6554 0.0000
vt 0.3041 0.3937 0.0000
vt 0.4544 0.3844 0.0000
vt 0.4639 0.4122 0.0000
vt 0.3110 0.3614 0.0000
vt 0.4433 0.3540 0.0000
vt 0.3935 0.6898 0.0000
vt 0.4541 0.3279 0.0000
vt 0.4555 0.3287 0.0000
vt 0.0493 0.8242 0.0000
vt 0.0554 0.7747 0.0000
vt 0.0957 0.7855 0.0000
vt 0.0855 0.8240 0.0000
vt 0.0569 0.8638 0.0000
vt 0.0861 0.8608 0.0000
vt 0.3608 0.6219 0.0000
vt 0.3821 0.5970 0.0000
vt 0.4431 0.4237 0.0000
vt 0.4465 0.4731 0.0000
vt 0.4745 0.4757 0.0000
vt 0.5136 0.4381 0.0000
vt 0.5191 0.4377 0.0000
vt 0.5229 0.4879 0.0000
vt 0.5174 0.4884 0.0000
vt 0.5233 0.4934 0.0000
vt 0.5478 0.4863 0.0000
vt 0.5481 0.4918 0.0000
vt 0.3440 0.3483 0.0000
vt 0.3719 0.3466 0.0000
vt 0.3959 0.3443 0.0000
vt 0.4220 0.3380 0.0000
vt 0.3186 0.3457 0.0000
vt 0.2843 0.3370 0.0000
vt 0.2935 0.3261 0.0000
vt 0.4435 0.3174 0.0000
vt 0.3459 0.3318 0.0000
vt 0.3704 0.3294 0.0000
vt 0.3918 0.3278 0.0000
vt 0.4141 0.3235 0.0000
vt 0.3247 0.3310 0.0000
vt 0.3028 0.3149 0.0000
vt 0.4329 0.3067 0.0000
vt 0.6301 0.9430 0.0000
vt 0.6279 0.9403 0.0000
vt 0.6476 0.9331 0.0000
vt 0.6484 0.9356 0.0000
vt 0.5988 0.5372 0.0000
vt 0.5995 0.5436 0.0000
vt 0.5584 0.5432 0.0000
vt 0.5644 0.5366 0.0000
vt 0.6113 0.9513 0.0000
vt 0.6105 0.9484 0.0000
vt 0.5857 0.9616 0.0000
vt 0.5843 0.9591 0.0000
vt 0.6645 0.9273 0.0000
vt 0.6634 0.9305 0.0000
vt 0.5644 0.9704 0.0000
vt 0.5599 0.9688 0.0000
vt 0.6108 0.8995 0.0000
vt 0.6331 0.8927 0.0000
vt 0.6004 0.6261 0.0000
vt 0.5664 0.6260 0.0000
vt 0.5929 0.9073 0.0000
vt 0.5683 0.9181 0.0000
vt 0.6486 0.8892 0.0000
vt 0.5473 0.9272 0.0000
vt 0.6030 0.8779 0.0000
vt 0.6441 0.8678 0.0000
vt 0.5815 0.6998 0.0000
vt 0.5464 0.6974 0.0000
vt 0.5854 0.8852 0.0000
vt 0.5438 0.9052 0.0000
vt 0.6775 0.8604 0.0000
vt 0.5071 0.9229 0.0000
vt 0.5998 0.8634 0.0000
vt 0.6429 0.8532 0.0000
vt 0.5793 0.7255 0.0000
vt 0.5417 0.7227 0.0000
vt 0.5780 0.8717 0.0000
vt 0.5352 0.8928 0.0000
vt 0.6773 0.8457 0.0000
vt 0.4975 0.9113 0.0000
vt 0.5967 0.8516 0.0000
vt 0.6380 0.8426 0.0000
vt 0.5772 0.7451 0.0000
vt 0.5449 0.7428 0.0000
vt 0.5727 0.8601 0.0000
vt 0.5324 0.8813 0.0000
vt 0.6712 0.8354 0.0000
vt 0.4966 0.8990 0.0000
vt 0.5972 0.7917 0.0000
vt 0.5477 0.8020 0.0000
vt 0.4421 0.7987 0.0000
vt 0.4559 0.8047 0.0000
vt 0.4420 0.8340 0.0000
vt 0.4455 0.7316 0.0000
vt 0.4355 0.7604 0.0000
vt 0.7199 0.4048 0.0000
vt 0.6969 0.4060 0.0000
vt 0.6997 0.3955 0.0000
vt 0.7190 0.3971 0.0000
vt 0.7381 0.4346 0.0000
vt 0.7255 0.4532 0.0000
vt 0.7055 0.4353 0.0000
vt 0.7212 0.4280 0.0000
vt 0.3385 0.5210 0.0000
vt 0.3308 0.5523 0.0000
vt 0.3737 0.5240 0.0000
vt 0.4019 0.5273 0.0000
vt 0.4068 0.5663 0.0000
vt 0.4117 0.6098 0.0000
vt 0.3868 0.5895 0.0000
vt 0.3212 0.5795 0.0000
vt 0.3479 0.5778 0.0000
vt 0.2584 0.8380 0.0000
vt 0.2354 0.7979 0.0000
vt 0.1392 0.8020 0.0000
vt 0.1192 0.8427 0.0000
vt 0.0957 0.8815 0.0000
vt 0.0650 0.8869 0.0000
vt 0.3292 0.8689 0.0000
vt 0.2858 0.8694 0.0000
vt 0.1808 0.8042 0.0000
vt 0.1791 0.7132 0.0000
vt 0.2148 0.7106 0.0000
vt 0.1490 0.7123 0.0000
vt 0.1106 0.7042 0.0000
vt 0.0814 0.6951 0.0000
vt 0.2515 0.6995 0.0000
vt 0.2816 0.6865 0.0000
vt 0.2130 0.6804 0.0000
vt 0.1782 0.6838 0.0000
vt 0.1789 0.6754 0.0000
vt 0.2172 0.6692 0.0000
vt 0.1485 0.6819 0.0000
vt 0.1459 0.6705 0.0000
vt 0.1174 0.6772 0.0000
vt 0.1236 0.6683 0.0000
vt 0.0899 0.6696 0.0000
vt 0.0933 0.6636 0.0000
vt 0.2707 0.6637 0.0000
vt 0.2431 0.6740 0.0000
vt 0.2378 0.6649 0.0000
vt 0.2702 0.6570 0.0000
vt 0.1786 0.6653 0.0000
vt 0.2163 0.6632 0.0000
vt 0.1465 0.6646 0.0000
vt 0.1244 0.6627 0.0000
vt 0.0947 0.6553 0.0000
vt 0.2368 0.6596 0.0000
vt 0.2681 0.6493 0.0000
vt 0.1799 0.6594 0.0000
vt 0.2109 0.6557 0.0000
vt 0.1514 0.6575 0.0000
vt 0.1216 0.6544 0.0000
vt 0.0962 0.6503 0.0000
vt 0.2396 0.6514 0.0000
vt 0.2673 0.6453 0.0000
vt 0.1792 0.6397 0.0000
vt 0.2092 0.6380 0.0000
vt 0.1525 0.6394 0.0000
vt 0.1232 0.6372 0.0000
vt 0.0977 0.6318 0.0000
vt 0.2374 0.6347 0.0000
vt 0.2646 0.6274 0.0000
vt 0.2131 0.5726 0.0000
vt 0.1795 0.5691 0.0000
vt 0.1796 0.5584 0.0000
vt 0.2143 0.5677 0.0000
vt 0.1486 0.5710 0.0000
vt 0.1472 0.5658 0.0000
vt 0.1296 0.5762 0.0000
vt 0.1289 0.5725 0.0000
vt 0.1127 0.5781 0.0000
vt 0.1122 0.5746 0.0000
vt 0.2501 0.5761 0.0000
vt 0.2297 0.5758 0.0000
vt 0.2301 0.5723 0.0000
vt 0.2501 0.5723 0.0000
vt 0.2056 0.4406 0.0000
vt 0.2057 0.4574 0.0000
vt 0.1864 0.4646 0.0000
vt 0.1842 0.4494 0.0000
vt 0.0769 0.0757 0.0000
vt 0.0780 0.0583 0.0000
vt 0.0953 0.0621 0.0000
vt 0.0970 0.0737 0.0000
vt 0.8689 0.7279 0.0000
vt 0.7944 0.6419 0.0000
vt 0.7500 0.6644 0.0000
vt 0.7537 0.8423 0.0000
vt 0.7262 0.7924 0.0000
vt 0.8266 0.6340 0.0000
vt 0.5351 0.2124 0.0000
vt 0.5378 0.2748 0.0000
vt 0.9196 0.6448 0.0000
vt 0.9151 0.6622 0.0000
vt 0.8902 0.6365 0.0000
vt 0.9156 0.4709 0.0000
vt 0.9274 0.4722 0.0000
vt 0.9284 0.4893 0.0000
vt 0.9141 0.4875 0.0000
vt 0.7262 0.6962 0.0000
vt 0.7106 0.8015 0.0000
vt 0.6933 0.7987 0.0000
vt 0.6474 0.3229 0.0000
vt 0.6858 0.3651 0.0000
vt 0.7429 0.5451 0.0000
vt 0.7420 0.4904 0.0000
vt 0.2978 0.5989 0.0000
vt 0.5444 0.4360 0.0000
vt 0.2831 0.3379 0.0000
vt 0.2999 0.3642 0.0000
vt 0.2943 0.3923 0.0000
vt 0.2786 0.5023 0.0000
vt 0.2787 0.4757 0.0000
vt 0.4804 0.5124 0.0000
vt 0.4727 0.5689 0.0000
vt 0.2815 0.5468 0.0000
vt 0.4627 0.6247 0.0000
vt 0.4831 0.4815 0.0000
vt 0.2824 0.4203 0.0000
vt 0.2860 0.5853 0.0000
vt 0.4677 0.6548 0.0000
vt 0.4605 0.3822 0.0000
vt 0.4708 0.4096 0.0000
vt 0.4488 0.3540 0.0000
vt 0.4599 0.3308 0.0000
vt 0.4653 0.4160 0.0000
vt 0.4835 0.4765 0.0000
vt 0.5187 0.4322 0.0000
vt 0.5440 0.4305 0.0000
vt 0.5558 0.4857 0.0000
vt 0.5561 0.4912 0.0000
vt 0.4697 0.8106 0.0000
vt 0.4679 0.8417 0.0000
vt 0.4585 0.7244 0.0000
vt 0.7028 0.3868 0.0000
vt 0.7194 0.3893 0.0000
vt 0.7362 0.4562 0.0000
vt 0.7450 0.4389 0.0000
vt 0.8614 0.6340 0.0000
vt 0.5250 0.1519 0.0000
vt 0.5379 0.1519 0.0000
vt 0.5339 0.1887 0.0000
vt 0.5197 0.1914 0.0000
vt 0.9228 0.6909 0.0000
vt 0.5805 0.4558 0.0000
vt 0.6312 0.5318 0.0000
vt 0.8703 0.4647 0.0000
vt 0.8781 0.4529 0.0000
vt 0.8992 0.4685 0.0000
vt 0.8944 0.4835 0.0000
vt 0.5377 0.1229 0.0000
vt 0.5207 0.1236 0.0000
vt 0.5137 0.1519 0.0000
vt 0.5039 0.1182 0.0000
vt 0.5148 0.0992 0.0000
vt 0.5178 0.1079 0.0000
vt 0.5127 0.2918 0.0000
vt 0.7418 0.8499 0.0000
vt 0.7329 0.8726 0.0000
vt 0.7829 0.8967 0.0000
vt 0.8296 0.8060 0.0000
vt 0.8610 0.8204 0.0000
vt 0.8397 0.8383 0.0000
vt 0.8190 0.8228 0.0000
vt 0.8013 0.8438 0.0000
vt 0.8017 0.8476 0.0000
vt 0.8160 0.8210 0.0000
vt 0.8271 0.8030 0.0000
vt 0.8232 0.8498 0.0000
vt 0.6518 0.5297 0.0000
vt 0.7067 0.5757 0.0000
vt 0.7447 0.5791 0.0000
vt 0.7764 0.5465 0.0000
vt 0.7805 0.5794 0.0000
vt 0.4417 0.0761 0.0000
vt 0.4741 0.0761 0.0000
vt 0.3690 0.0721 0.0000
vt 0.8614 0.4553 0.0000
vt 0.8414 0.4280 0.0000
vt 0.8621 0.4322 0.0000
vt 0.8442 0.4107 0.0000
vt 0.8643 0.4158 0.0000
vt 0.8482 0.3951 0.0000
vt 0.8665 0.4041 0.0000
vt 0.8167 0.4693 0.0000
vt 0.8281 0.4593 0.0000
vt 0.8397 0.4667 0.0000
vt 0.8240 0.4793 0.0000
vt 0.8079 0.7469 0.0000
vt 0.8069 0.7170 0.0000
vt 0.8704 0.7576 0.0000
vt 0.8693 0.7453 0.0000
vt 0.9120 0.7963 0.0000
vt 0.8986 0.7467 0.0000
vt 0.9209 0.7674 0.0000
vt 0.8979 0.7398 0.0000
vt 0.8835 0.7165 0.0000
vt 0.8850 0.7356 0.0000
vt 0.9293 0.6881 0.0000
vt 0.9386 0.6952 0.0000
vt 0.9194 0.7150 0.0000
vt 0.9139 0.7119 0.0000
vt 0.9242 0.7415 0.0000
vt 0.9241 0.7412 0.0000
vt 0.8977 0.7250 0.0000
vt 0.9058 0.7345 0.0000
vt 0.9782 0.6630 0.0000
vt 0.9545 0.6757 0.0000
vt 0.9505 0.6712 0.0000
vt 0.9742 0.6586 0.0000
vt 0.9247 0.6453 0.0000
vt 0.9320 0.6356 0.0000
vt 0.9245 0.6229 0.0000
vt 0.9336 0.6509 0.0000
vt 0.9259 0.6546 0.0000
vt 0.9205 0.6630 0.0000
vt 0.9450 0.6696 0.0000
vt 0.9288 0.6756 0.0000
vt 0.9814 0.6449 0.0000
vt 0.8367 0.7813 0.0000
vt 0.8390 0.7826 0.0000
vt 0.8025 0.8083 0.0000
vt 0.2269 0.1124 0.0000
vt 0.2072 0.1132 0.0000
vt 0.2052 0.0706 0.0000
vt 0.2198 0.0491 0.0000
vt 0.2300 0.1757 0.0000
vt 0.1818 0.1709 0.0000
vt 0.1785 0.1470 0.0000
vt 0.2130 0.1427 0.0000
vt 0.1464 0.4645 0.0000
vt 0.1781 0.4758 0.0000
vt 0.1765 0.4929 0.0000
vt 0.1438 0.5030 0.0000
vt 0.1246 0.4000 0.0000
vt 0.1417 0.3966 0.0000
vt 0.1444 0.4227 0.0000
vt 0.1335 0.4481 0.0000
vt 0.0959 0.2927 0.0000
vt 0.1158 0.3107 0.0000
vt 0.1176 0.3455 0.0000
vt 0.0997 0.3463 0.0000
vt 0.1202 0.2018 0.0000
vt 0.1636 0.2086 0.0000
vt 0.1612 0.2330 0.0000
vt 0.1232 0.2449 0.0000
vt 0.2060 0.5821 0.0000
vt 0.1785 0.5803 0.0000
vt 0.1541 0.5822 0.0000
vt 0.1285 0.5845 0.0000
vt 0.1107 0.5820 0.0000
vt 0.2492 0.5802 0.0000
vt 0.2304 0.5837 0.0000
vt 0.1797 0.5497 0.0000
vt 0.2146 0.5649 0.0000
vt 0.2304 0.5702 0.0000
vt 0.2497 0.5698 0.0000
vt 0.1123 0.5723 0.0000
vt 0.1295 0.5707 0.0000
vt 0.1456 0.5637 0.0000
vt 0.1464 0.2581 0.0000
vt 0.1695 0.2571 0.0000
vt 0.1635 0.4427 0.0000
vt 0.1637 0.3953 0.0000
vt 0.1669 0.4229 0.0000
vt 0.0894 0.1512 0.0000
vt 0.0863 0.1297 0.0000
vt 0.1081 0.1247 0.0000
vt 0.1072 0.1421 0.0000
vt 0.2124 0.1166 0.0000
vt 0.2321 0.1158 0.0000
vt 0.1781 0.1178 0.0000
vt 0.1689 0.0724 0.0000
vt 0.1676 0.0511 0.0000
vt 0.1729 0.1144 0.0000
vt 0.0911 0.0934 0.0000
vt 0.0953 0.1180 0.0000
vt 0.0738 0.1159 0.0000
vt 0.0720 0.0967 0.0000
vt 0.1385 0.3163 0.0000
vt 0.1406 0.3432 0.0000
vt 0.1458 0.1924 0.0000
vt 0.1486 0.1898 0.0000
vt 0.1507 0.1946 0.0000
vt 0.1478 0.1968 0.0000
vt 0.1882 0.1854 0.0000
vt 0.2073 0.4706 0.0000
vt 0.2003 0.4770 0.0000
vt 0.1736 0.1927 0.0000
vt 0.1677 0.1809 0.0000
vt 0.1929 0.4845 0.0000
vt 0.1891 0.4929 0.0000
vt 0.2210 0.4807 0.0000
vt 0.2145 0.4875 0.0000
vt 0.1545 0.1973 0.0000
vt 0.1491 0.1865 0.0000
vt 0.2071 0.4940 0.0000
vt 0.2029 0.5018 0.0000
vt 0.1421 0.1934 0.0000
vt 0.1465 0.2025 0.0000
vt 0.1840 0.2279 0.0000
vt 0.1902 0.2477 0.0000
vt 0.1880 0.2063 0.0000
vt 0.1374 0.0748 0.0000
vt 0.1366 0.0532 0.0000
vt 0.1867 0.2778 0.0000
vt 0.2078 0.2652 0.0000
vt 0.1852 0.3957 0.0000
vt 0.1872 0.4187 0.0000
vt 0.1723 0.3692 0.0000
vt 0.1950 0.3722 0.0000
vt 0.1479 0.1471 0.0000
vt 0.1471 0.1179 0.0000
vt 0.1781 0.4444 0.0000
vt 0.1993 0.4372 0.0000
vt 0.2096 0.2221 0.0000
vt 0.2150 0.2385 0.0000
vt 0.2070 0.2050 0.0000
vt 0.1151 0.0751 0.0000
vt 0.1128 0.0579 0.0000
vt 0.2236 0.2569 0.0000
vt 0.2113 0.3958 0.0000
vt 0.2118 0.4152 0.0000
vt 0.2111 0.3748 0.0000
vt 0.1247 0.1443 0.0000
vt 0.1257 0.1210 0.0000
vt 0.2161 0.4326 0.0000
vt 0.1465 0.1146 0.0000
vt 0.1422 0.0827 0.0000
vt 0.1545 0.3703 0.0000
vt 0.1690 0.3382 0.0000
vt 0.1737 0.3599 0.0000
vt 0.1676 0.3192 0.0000
vt 0.1482 0.2901 0.0000
vt 0.1699 0.2992 0.0000
vt 0.1132 0.1200 0.0000
vt 0.1081 0.0881 0.0000
vt 0.1989 0.3363 0.0000
vt 0.2012 0.3585 0.0000
vt 0.1976 0.3179 0.0000
vt 0.1979 0.2981 0.0000
vt 0.2230 0.2194 0.0000
vt 0.2280 0.2335 0.0000
vt 0.2217 0.2047 0.0000
vt 0.2360 0.2481 0.0000
vt 0.2242 0.3961 0.0000
vt 0.2241 0.4135 0.0000
vt 0.2244 0.3784 0.0000
vt 0.2285 0.4279 0.0000
vt 0.2128 0.3348 0.0000
vt 0.2153 0.3528 0.0000
vt 0.2114 0.3180 0.0000
vt 0.2125 0.3013 0.0000
vt 0.7162 0.6886 0.0000
vt 0.7369 0.6504 0.0000
vt 0.8215 0.5997 0.0000
vt 0.7830 0.6138 0.0000
vt 0.8951 0.6092 0.0000
vt 0.8630 0.6001 0.0000
vt 0.7597 0.4898 0.0000
vt 0.2866 0.6008 0.0000
vt 0.5524 0.4355 0.0000
vt 0.2791 0.3405 0.0000
vt 0.2948 0.3654 0.0000
vt 0.2880 0.3910 0.0000
vt 0.4721 0.4134 0.0000
vt 0.5520 0.4300 0.0000
vt 0.4714 0.7171 0.0000
vt 0.7457 0.4579 0.0000
vt 0.7526 0.4423 0.0000
vt 0.7071 0.8052 0.0000
vt 0.7139 0.8003 0.0000
vt 0.7314 0.8645 0.0000
vt 0.5096 0.0761 0.0000
vt 0.9294 0.6210 0.0000
vt 0.9448 0.6290 0.0000
vt 0.8390 0.7823 0.0000
vt 0.8038 0.4829 0.0000
vt 0.8136 0.4893 0.0000
vt 0.7100 0.2136 0.0000
vt 0.6609 0.2786 0.0000
vt 0.6609 0.2136 0.0000
vt 0.6032 0.2876 0.0000
vt 0.6074 0.2136 0.0000
vt 0.7886 0.1531 0.0000
vt 0.7448 0.1531 0.0000
vt 0.7344 0.1004 0.0000
vt 0.7886 0.1004 0.0000
vt 0.6659 0.1531 0.0000
vt 0.6567 0.1004 0.0000
vt 0.6074 0.1531 0.0000
vt 0.6122 0.1004 0.0000
vt 0.5504 0.2760 0.0000
vt 0.5530 0.2136 0.0000
vt 0.5632 0.1531 0.0000
vt 0.5685 0.1926 0.0000
vt 0.5542 0.1900 0.0000
vt 0.5502 0.1531 0.0000
vt 0.5504 0.1242 0.0000
vt 0.5674 0.1248 0.0000
vt 0.5745 0.1531 0.0000
vt 0.5842 0.1194 0.0000
vt 0.5703 0.1092 0.0000
vt 0.5734 0.1004 0.0000
vt 0.5755 0.2930 0.0000
vt 0.6141 0.0773 0.0000
vt 0.6465 0.0773 0.0000
vt 0.7191 0.0734 0.0000
vt 0.5785 0.0773 0.0000
# 617 texture coords

g Sphere003
usemtl 02___Default
s 2
f 1/1/1 2/2/2 3/3/3 4/4/4 
f 4/4/4 5/5/5 6/6/6 7/7/7 
f 8/8/8 9/9/9 10/10/10 11/11/11 
f 2/2/2 12/12/12 13/13/13 3/3/3 
f 3/3/3 13/13/13 14/14/14 15/15/15 
s 1
f 16/16/16 17/17/17 18/18/18 
f 18/18/18 17/17/17 19/19/19 10/20/20 
s 2
f 20/21/21 21/22/22 22/23/23 23/24/24 
s 1
f 24/25/25 25/26/26 26/27/27 27/28/28 
f 27/28/28 26/27/27 28/29/29 29/30/30 
f 29/30/30 28/29/29 30/31/31 31/32/32 
s 2
f 1/1/1 4/4/4 32/33/33 33/34/34 
f 4/4/4 7/7/7 34/35/35 32/33/33 
f 7/7/7 8/8/8 35/36/36 34/35/35 
f 8/8/8 11/11/11 36/37/37 35/36/36 
f 33/34/34 32/33/33 37/38/38 38/39/39 
f 32/33/33 34/35/35 37/38/38 
f 34/35/35 35/36/36 37/38/38 
f 35/36/36 36/37/37 39/40/40 37/38/38 
s 1
f 40/41/41 41/42/42 42/43/43 43/44/44 
f 44/45/45 40/41/41 43/44/44 45/46/46 
f 46/47/47 44/45/45 45/46/46 
f 47/48/48 46/47/47 45/46/46 48/49/49 
f 49/50/50 50/51/51 51/52/52 52/53/53 
s off
f 53/54/54 54/55/54 55/56/54 56/57/54 
s 16
f 57/58/55 58/59/56 59/60/57 60/61/58 
s 1
f 61/62/59 62/63/60 63/64/61 52/53/53 
f 64/65/62 65/66/63 66/67/64 67/68/65 
f 68/69/66 69/70/67 62/63/60 61/62/59 
s 16
f 60/61/58 59/60/57 70/71/68 71/72/69 
s 1
f 67/68/65 66/67/64 72/73/70 73/74/71 
f 52/53/53 51/52/52 74/75/72 61/62/59 
f 75/76/73 76/77/74 65/66/63 64/65/62 
f 52/53/53 63/64/61 77/78/75 49/50/50 
f 78/79/76 79/80/77 69/70/67 68/69/66 
f 78/79/76 80/81/78 54/82/79 53/83/80 
f 73/74/71 72/73/70 81/84/81 82/85/82 
f 49/50/50 83/86/83 84/87/84 50/51/51 
f 85/88/85 86/89/86 87/90/87 88/91/88 
f 83/86/83 89/92/89 90/93/90 84/87/84 
f 86/89/86 91/94/91 92/95/92 87/90/87 
f 56/96/93 79/80/77 78/79/76 53/83/80 
f 88/91/88 76/77/74 75/76/73 85/88/85 
f 63/64/61 62/63/60 93/97/94 94/98/95 
f 66/67/64 65/66/63 95/99/96 96/100/97 
f 62/63/60 69/70/67 97/101/98 93/97/94 
f 72/73/70 66/67/64 96/100/97 98/102/99 
f 65/66/63 76/77/74 99/103/100 95/99/96 
f 77/78/75 63/64/61 94/98/95 100/104/101 
f 69/70/67 79/80/77 101/105/102 97/101/98 
f 81/84/81 72/73/70 98/102/99 102/106/103 
f 77/78/75 103/107/104 83/86/83 49/50/50 
f 88/91/88 87/90/87 104/108/105 105/109/106 
f 103/107/104 106/110/107 89/92/89 83/86/83 
f 87/90/87 92/95/92 107/111/108 104/108/105 
f 51/52/52 50/51/51 85/88/85 75/76/73 
s off
f 55/56/109 54/55/109 82/112/109 81/84/109 
s 1
f 108/113/110 109/114/111 107/111/108 92/95/92 
s 16
f 59/115/57 58/116/56 110/117/112 111/118/113 
f 70/119/68 59/115/57 111/118/113 112/120/114 
s 1
f 74/75/72 51/52/52 75/76/73 64/65/62 
f 54/121/79 80/122/78 73/74/71 82/85/82 
f 50/51/51 84/87/84 86/89/86 85/88/85 
f 84/87/84 90/93/90 91/94/91 86/89/86 
s off
f 88/91/115 113/123/115 114/124/115 76/77/115 
f 76/77/116 114/124/116 115/125/116 99/103/116 
f 113/126/117 116/127/117 117/128/117 114/129/117 
f 114/130/118 117/128/118 118/131/118 115/132/118 
s 1
f 89/92/89 119/133/119 120/134/120 90/93/90 
f 91/94/91 121/135/121 122/136/122 92/95/92 
f 106/110/107 123/137/123 119/133/119 89/92/89 
f 108/138/110 124/139/124 123/137/123 106/110/107 
f 90/93/90 120/134/120 121/135/121 91/94/91 
f 92/95/92 122/136/122 124/140/124 108/113/110 
f 119/133/119 125/141/125 126/142/126 120/134/120 
f 121/135/121 127/143/127 128/144/128 122/136/122 
f 123/137/123 129/145/129 125/141/125 119/133/119 
f 124/139/124 130/146/130 129/145/129 123/137/123 
f 120/134/120 126/142/126 127/143/127 121/135/121 
f 122/136/122 128/144/128 130/147/130 124/140/124 
f 125/148/125 131/149/131 132/150/132 126/151/126 
f 127/152/127 133/153/133 134/154/134 128/155/128 
f 129/156/129 135/157/135 131/149/131 125/148/125 
f 130/158/130 136/159/136 135/157/135 129/156/129 
f 126/151/126 132/150/132 133/160/133 127/161/127 
f 128/162/128 134/163/134 136/159/136 130/158/130 
f 131/149/131 137/164/137 138/165/138 132/150/132 
f 133/153/133 139/166/139 140/167/140 134/154/134 
f 135/157/135 141/168/141 137/164/137 131/149/131 
f 136/159/136 142/169/142 141/168/141 135/157/135 
f 132/150/132 138/165/138 139/170/139 133/160/133 
f 134/163/134 140/171/140 142/169/142 136/159/136 
f 137/164/137 143/172/143 144/173/144 138/165/138 
f 139/166/139 145/174/145 146/175/146 140/167/140 
f 141/168/141 147/176/147 143/172/143 137/164/137 
f 142/169/142 148/177/148 147/176/147 141/168/141 
f 138/165/138 144/173/144 145/178/145 139/170/139 
f 140/171/140 146/179/146 148/177/148 142/169/142 
f 143/172/143 149/180/149 150/181/150 144/173/144 
f 145/174/145 151/182/151 152/183/152 146/175/146 
f 147/176/147 153/184/153 149/180/149 143/172/143 
f 148/177/148 154/185/154 153/184/153 147/176/147 
f 144/173/144 150/181/150 151/186/151 145/178/145 
f 146/179/146 152/187/152 154/185/154 148/177/148 
f 149/180/149 155/188/155 156/189/156 150/181/150 
f 151/182/151 157/190/157 158/191/158 152/183/152 
f 153/184/153 159/192/159 155/188/155 149/180/149 
f 154/185/154 160/193/160 159/192/159 153/184/153 
f 150/181/150 156/189/156 157/194/157 151/186/151 
f 152/187/152 158/195/158 160/193/160 154/185/154 
s off
f 158/191/161 157/190/161 156/196/161 160/197/161 
f 155/188/162 159/192/162 160/197/162 156/196/162 
f 56/57/163 161/198/163 162/199/163 163/200/163 
f 81/84/164 164/201/164 165/202/164 55/56/164 
f 55/56/165 165/202/165 161/198/165 56/57/165 
s 1
f 161/203/166 166/204/167 167/205/168 162/206/169 
f 164/207/170 168/208/171 169/209/172 165/210/173 
f 165/210/173 169/209/172 166/204/167 161/203/166 
f 43/44/44 42/43/43 167/205/168 166/204/167 
f 45/46/46 43/44/44 166/204/167 169/209/172 
f 48/49/49 45/46/46 169/209/172 168/208/171 
f 68/69/66 61/62/59 170/211/174 171/212/175 
f 61/62/59 74/75/72 172/213/176 170/211/174 
f 74/75/72 64/65/62 173/214/177 172/213/176 
f 64/65/62 67/68/65 174/215/178 173/214/177 
s off
f 67/68/179 73/74/179 175/216/179 174/215/179 
f 73/74/180 80/122/180 176/217/180 175/216/180 
f 80/81/181 78/79/181 177/218/181 176/219/181 
s 1
f 78/79/76 68/69/66 171/212/175 177/218/182 
s 16
f 171/220/183 170/221/184 57/58/55 60/61/58 
f 173/222/185 174/223/186 111/118/113 110/117/112 
f 174/223/186 175/224/187 112/120/114 111/118/113 
f 175/224/187 176/225/188 70/119/68 112/120/114 
f 176/226/188 177/227/189 71/72/69 70/71/68 
f 177/227/189 171/220/183 60/61/58 71/72/69 
f 170/221/184 172/228/190 178/229/191 179/230/192 
f 172/228/190 173/222/185 180/231/193 178/229/191 
f 173/222/185 110/117/112 181/232/194 180/231/193 
f 110/117/112 58/116/56 182/233/195 181/232/194 
f 58/59/56 57/58/55 183/234/196 182/235/195 
f 57/58/55 170/221/184 179/230/192 183/234/196 
s off
f 184/236/197 185/237/197 186/238/197 187/239/197 
f 185/237/198 188/240/198 189/241/198 186/238/198 
f 188/240/199 190/242/199 191/243/199 189/241/199 
f 190/242/200 192/244/200 193/245/200 191/243/200 
f 192/246/201 194/247/201 195/248/201 193/249/201 
f 194/247/202 184/236/202 187/239/202 195/248/202 
f 187/239/203 186/238/203 196/250/203 197/251/203 
f 186/238/204 189/241/204 198/252/204 196/250/204 
f 189/241/205 191/243/205 199/253/205 198/252/205 
f 191/243/206 193/245/206 200/254/206 199/253/206 
f 193/249/207 195/248/207 201/255/207 200/256/207 
f 195/248/208 187/239/208 197/251/208 201/255/208 
f 197/251/209 196/250/209 202/257/209 203/258/209 
f 196/250/210 198/252/210 204/259/210 202/257/210 
f 198/252/211 199/253/211 205/260/211 204/259/211 
f 199/253/212 200/254/212 206/261/212 205/260/212 
f 200/256/213 201/255/213 207/262/213 206/263/213 
f 201/255/214 197/251/214 203/258/214 207/262/214 
s 4
f 203/258/215 202/257/216 208/264/217 209/265/218 
f 202/257/216 204/259/219 210/266/220 208/264/217 
f 204/259/219 205/260/221 211/267/222 210/266/220 
f 205/260/221 206/261/223 212/268/224 211/267/222 
f 206/263/223 207/262/225 213/269/226 212/270/224 
f 207/262/225 203/258/215 209/265/218 213/269/226 
s off
f 214/271/227 215/272/227 216/273/227 217/274/227 
f 215/272/228 218/275/228 219/276/228 216/273/228 
f 218/275/229 220/277/229 221/278/229 219/276/229 
f 220/277/230 222/279/230 223/280/230 221/278/230 
f 222/281/231 224/282/231 225/283/231 223/284/231 
f 224/282/232 214/271/232 217/274/232 225/283/232 
s 8
f 226/285/233 227/286/234 228/287/235 229/288/236 
f 230/289/237 231/290/238 232/291/239 233/292/240 
s 2
f 12/12/12 20/21/21 23/24/24 13/13/13 
f 13/13/13 234/293/241 14/14/14 
s 1
f 27/28/28 29/30/30 17/17/17 16/16/16 
f 17/17/17 29/30/30 31/32/32 19/19/19 
s 2
f 235/294/242 2/2/2 1/1/1 236/295/243 
f 10/10/10 237/296/244 238/297/245 11/11/11 
f 239/298/246 12/12/12 2/2/2 235/294/242 
s 1
f 19/19/19 240/299/247 241/300/248 10/20/20 
s 2
f 242/301/249 243/302/250 21/22/22 244/303/251 
s 1
f 245/304/252 246/305/253 247/306/254 248/307/255 
s 2
f 236/295/243 1/1/1 33/34/34 249/308/256 
f 11/309/11 250/310/257 39/40/40 36/37/37 
s 1
f 41/42/42 251/311/258 252/312/259 42/43/43 
f 253/313/260 47/48/48 48/49/49 254/314/261 
f 101/105/102 79/80/77 56/96/93 163/315/262 
s 4
f 118/131/116 117/128/116 116/127/116 255/316/116 
s 1
f 109/317/111 108/138/110 106/110/107 256/318/263 
f 257/319/264 103/107/104 77/78/75 100/104/101 
f 256/318/263 106/110/107 103/107/104 257/319/264 
f 93/97/94 258/320/265 259/321/95 94/98/95 
f 95/99/96 260/322/96 261/323/266 96/100/97 
f 97/101/98 262/324/267 258/320/265 93/97/94 
f 96/100/97 261/323/266 263/325/268 98/102/99 
f 99/103/100 264/326/100 260/322/96 95/99/96 
f 94/98/95 259/321/95 265/327/269 100/104/101 
f 101/105/102 266/328/270 262/324/267 97/101/98 
f 98/102/99 263/325/268 267/329/271 102/106/103 
f 104/108/105 268/330/105 269/331/106 105/109/106 
f 107/111/108 270/332/108 268/330/105 104/108/105 
f 109/114/111 271/333/161 270/332/108 107/111/108 
s off
f 272/334/116 113/123/116 88/91/116 105/109/116 
f 115/125/116 273/335/116 264/326/116 99/103/116 
f 255/316/272 116/127/272 113/336/272 272/337/272 
f 118/131/273 274/338/273 273/339/273 115/132/273 
f 162/199/274 275/340/274 276/341/274 163/200/274 
f 277/342/275 164/201/275 81/84/275 102/106/275 
s 1
f 167/205/168 278/343/276 275/344/277 162/206/169 
f 279/345/278 168/208/171 164/207/170 277/346/279 
f 42/43/43 252/312/259 278/343/276 167/205/168 
f 254/314/261 48/49/49 168/208/171 279/345/278 
s 2
f 280/347/280 20/21/21 12/12/12 239/298/246 
s 1
f 281/348/281 282/349/282 283/350/283 284/351/284 
s 2
f 21/22/22 243/302/250 285/352/285 22/23/23 
s 1
f 25/353/26 44/45/45 46/47/47 26/354/27 
f 286/355/286 287/356/287 288/357/288 289/358/289 
f 289/358/289 288/357/288 245/304/252 248/307/255 
s 2
f 21/22/22 20/21/21 280/347/280 244/303/251 
s 1
f 290/359/290 282/349/282 281/348/281 291/360/291 
f 19/19/19 31/32/32 292/361/292 284/351/284 
f 31/32/32 30/31/31 293/362/293 292/361/292 
f 30/31/31 294/363/294 295/364/295 293/362/293 
f 10/20/20 241/300/248 296/300/296 297/365/297 
s off
f 297/366/298 238/297/298 237/296/298 
f 10/367/299 297/366/299 298/368/299 
f 297/366/300 237/296/300 298/368/300 
s 2
f 237/296/244 10/10/10 298/368/301 
s off
f 18/369/302 10/370/302 299/371/302 300/372/302 
f 10/10/303 301/373/303 299/374/303 
s 2
f 10/10/10 9/9/9 302/375/304 301/373/305 
s off
f 9/376/306 18/369/306 300/372/306 302/375/306 
f 300/372/307 299/371/307 303/377/307 
f 299/374/308 301/373/308 303/377/308 
s 2
f 301/373/305 302/375/304 303/377/309 
s off
f 302/375/310 300/372/310 303/377/310 
s 1
f 26/354/27 46/47/47 304/378/311 
f 46/47/47 47/48/48 305/379/312 304/378/311 
f 47/48/48 253/313/260 306/380/313 305/379/312 
f 253/313/260 307/381/314 308/382/315 306/380/313 
f 30/31/31 28/29/29 309/383/316 310/384/317 
f 28/29/29 26/27/27 304/385/311 309/383/316 
s off
f 304/386/318 305/387/318 288/388/318 287/356/318 
f 305/387/319 306/389/319 245/390/319 288/388/319 
f 306/389/320 308/391/320 246/392/320 245/390/320 
f 310/393/321 309/394/321 289/395/321 248/396/321 
f 309/394/322 304/386/322 286/355/322 289/395/322 
f 292/361/323 281/348/323 284/351/323 
f 292/361/324 293/362/324 291/360/324 281/348/324 
f 293/362/325 295/364/325 290/359/325 291/360/325 
f 3/3/326 5/5/326 4/4/326 
f 3/3/327 15/15/327 311/397/327 312/398/327 
s 2
f 6/6/6 311/397/328 15/15/15 
f 6/6/6 5/5/5 312/398/329 311/397/328 
s off
f 5/5/330 3/3/330 312/398/330 
f 27/399/331 14/14/331 313/400/331 
f 24/401/332 27/399/332 314/402/332 315/403/332 
f 27/399/333 313/400/333 316/404/333 314/402/333 
s 2
f 313/400/334 23/24/24 317/405/335 316/406/336 
s off
f 23/407/337 24/408/337 315/409/337 317/410/337 
f 315/403/338 314/402/338 318/411/338 
f 314/402/339 316/404/339 318/412/339 
s 2
f 316/406/336 317/405/335 318/413/340 
s off
f 317/410/341 315/409/341 318/414/341 
s 2
f 23/24/24 234/293/241 13/13/13 
s off
f 23/24/342 313/400/342 234/293/342 
s 2
f 313/400/334 14/14/14 234/293/241 
s off
f 44/415/343 25/416/343 22/417/343 285/418/343 
f 25/416/344 24/408/344 23/407/344 22/417/344 
f 41/419/345 242/301/345 319/420/345 
s 2
f 242/301/249 320/421/346 321/421/347 319/420/348 
s off
f 41/419/349 40/422/349 322/423/349 
f 40/424/350 243/302/350 322/423/350 
s 2
f 243/302/250 242/301/249 322/423/351 
s off
f 242/301/352 41/419/352 322/423/352 
f 40/424/353 44/425/353 323/426/353 
f 44/415/354 285/418/354 323/427/354 
s 2
f 285/352/285 243/302/250 323/426/355 
s off
f 243/302/356 40/424/356 323/426/356 
s 2
f 7/7/7 6/6/6 9/9/9 8/8/8 
f 9/9/9 6/6/6 15/15/15 324/428/357 
f 15/15/15 14/14/14 27/399/358 324/428/357 
s off
f 9/9/359 324/428/359 16/429/359 18/430/359 
s 8
f 325/431/360 326/432/361 327/433/362 328/434/363 
f 329/435/364 227/436/234 226/437/233 330/438/365 
f 331/439/366 332/440/367 333/441/368 329/442/364 
f 334/443/369 335/444/370 336/445/371 331/446/366 
f 337/447/372 338/448/373 335/449/370 334/450/369 
f 328/451/363 339/452/374 340/453/375 337/454/372 
s off
f 341/455/376 342/456/376 215/272/376 214/271/376 
f 342/456/377 343/457/377 218/275/377 215/272/377 
f 343/457/378 344/458/378 220/277/378 218/275/378 
f 344/458/379 345/459/379 222/279/379 220/277/379 
f 345/460/380 346/461/380 224/282/380 222/281/380 
f 346/461/381 341/455/381 214/271/381 224/282/381 
f 325/462/382 328/463/382 217/274/382 216/273/382 
f 328/463/383 337/464/383 225/283/383 217/274/383 
f 337/464/384 334/465/384 223/284/384 225/283/384 
f 334/466/385 331/467/385 221/278/385 223/280/385 
f 331/467/386 329/468/386 219/276/386 221/278/386 
f 329/468/387 325/462/387 216/273/387 219/276/387 
s 8
f 338/469/373 337/454/372 340/453/375 347/470/388 
f 229/288/236 228/287/235 331/439/366 336/471/371 
f 336/445/371 335/444/370 348/472/389 229/473/236 
f 349/474/390 350/475/391 351/476/392 352/477/393 
f 326/478/361 325/479/360 329/435/364 330/438/365 
f 330/438/365 226/437/233 353/480/394 326/478/361 
f 354/481/395 339/482/374 328/434/363 327/433/362 
f 327/433/362 326/432/361 353/483/394 354/481/395 
f 355/484/396 356/485/397 357/486/398 358/487/399 
f 347/488/388 348/489/389 335/449/370 338/448/373 
f 359/490/400 360/491/401 361/492/402 362/493/403 
f 227/436/234 329/435/364 333/494/368 
f 228/287/235 332/440/367 331/439/366 
f 228/287/235 227/286/234 363/495/404 364/496/405 
f 227/436/234 333/494/368 365/497/406 363/498/404 
f 333/441/368 332/440/367 366/499/407 365/500/406 
f 332/440/367 228/287/235 364/496/405 366/499/407 
f 364/496/405 363/495/404 367/501/408 368/502/409 
f 363/498/404 365/497/406 369/503/410 367/504/408 
f 365/500/406 366/499/407 370/505/411 369/506/410 
f 366/499/407 364/496/405 368/502/409 370/505/411 
f 368/507/409 367/504/408 360/491/401 359/490/400 
f 367/504/408 369/503/410 361/492/402 360/491/401 
f 369/503/410 370/508/411 362/493/403 361/492/402 
f 370/508/411 368/507/409 359/490/400 362/493/403 
f 347/470/388 340/453/375 371/509/412 372/510/413 
f 340/453/375 339/452/374 373/511/414 371/509/412 
f 339/482/374 354/481/395 374/512/415 373/513/414 
f 354/514/395 347/470/388 372/510/413 374/515/415 
f 229/473/236 348/472/389 375/516/416 376/517/417 
f 348/472/389 353/518/394 377/519/418 375/516/416 
f 353/480/394 226/437/233 378/520/419 377/521/418 
f 226/522/233 229/473/236 376/517/417 378/523/419 
f 372/510/413 371/509/412 379/524/420 380/525/421 
f 371/509/412 373/511/414 381/526/422 379/524/420 
f 373/513/414 374/512/415 382/527/423 381/528/422 
f 374/515/415 372/510/413 380/525/421 382/529/423 
f 376/517/417 375/516/416 383/530/424 384/531/425 
f 375/516/416 377/519/418 385/532/426 383/530/424 
f 377/521/418 378/520/419 386/533/427 385/534/426 
f 378/523/419 376/517/417 384/531/425 386/535/427 
f 354/481/395 353/483/394 387/536/428 388/537/429 
f 353/538/394 348/489/389 389/539/430 387/540/428 
f 348/489/389 347/488/388 390/541/431 389/539/430 
f 347/488/388 354/542/395 388/543/429 390/541/431 
f 388/537/429 387/536/428 391/544/432 392/545/433 
f 387/540/428 389/539/430 393/546/434 391/547/432 
f 389/539/430 390/541/431 394/548/435 393/546/434 
f 390/541/431 388/543/429 392/549/433 394/548/435 
f 380/525/421 379/524/420 231/550/238 230/551/237 
f 379/524/420 381/526/422 232/552/239 231/550/238 
f 381/528/422 382/527/423 233/292/240 232/291/239 
f 382/529/423 380/525/421 230/551/237 233/553/240 
f 384/531/425 383/530/424 350/554/391 349/555/390 
f 383/530/424 385/532/426 351/556/392 350/554/391 
f 385/534/426 386/533/427 352/477/393 351/476/392 
f 386/535/427 384/531/425 349/555/390 352/557/393 
f 392/545/433 391/544/432 356/485/397 355/484/396 
f 391/547/432 393/546/434 357/558/398 356/559/397 
f 393/546/434 394/548/435 358/560/399 357/558/398 
f 394/548/435 392/549/433 355/561/396 358/560/399 
s 1
f 249/308/436 395/562/437 396/563/438 236/295/243 
s 4
f 208/264/217 342/456/439 341/455/440 209/265/218 
f 210/266/220 343/457/441 342/456/439 208/264/217 
f 211/267/222 344/458/442 343/457/441 210/266/220 
f 212/268/224 345/459/443 344/458/442 211/267/222 
f 213/269/226 346/461/444 345/460/443 212/270/224 
f 209/265/218 341/455/440 346/461/444 213/269/226 
s 16
f 178/229/191 185/237/445 184/236/446 179/230/192 
f 180/231/193 188/240/447 185/237/445 178/229/191 
f 181/232/194 190/242/448 188/240/447 180/231/193 
f 182/233/195 192/244/449 190/242/448 181/232/194 
f 183/234/196 194/247/450 192/246/449 182/235/195 
f 179/230/192 184/236/446 194/247/450 183/234/196 
s 2
f 397/564/451 239/298/246 235/294/242 398/565/452 
f 399/566/453 244/303/251 280/347/280 400/567/454 
f 395/562/455 249/308/256 33/34/34 38/39/39 
s 1
f 307/381/314 253/313/260 254/314/261 401/568/456 
f 266/328/270 101/105/102 163/315/262 276/569/457 
s 4
f 274/338/116 118/131/116 255/316/116 402/570/116 
s 1
f 271/571/161 109/317/111 256/318/263 403/572/458 
f 404/573/459 257/319/264 100/104/101 265/327/269 
f 403/572/458 256/318/263 257/319/264 404/573/459 
s off
f 405/574/115 272/334/115 105/109/115 269/331/115 
f 402/570/272 255/316/272 272/337/272 405/575/272 
f 406/576/460 277/342/460 102/106/460 267/329/460 
s 1
f 407/577/461 279/345/278 277/346/279 406/578/462 
f 401/568/456 254/314/261 279/345/278 407/577/461 
s 2
f 400/567/454 280/347/280 239/298/246 397/564/451 
f 320/421/346 242/301/249 244/303/251 399/566/453 
s 1
f 240/299/247 19/19/19 284/351/284 283/350/283 
s off
f 250/310/463 11/309/463 238/579/463 408/310/463 
s 2
f 408/580/464 238/297/245 297/366/465 296/581/466 
s 1
f 294/363/294 30/31/31 310/384/317 409/582/467 
s off
f 251/583/468 41/584/468 319/420/468 410/583/468 
f 410/583/469 319/420/469 321/421/469 
s 3
f 398/565/452 235/294/242 236/295/243 396/563/438 
s off
f 16/585/470 324/428/470 27/399/470 
s 4
f 409/586/471 310/393/472 248/396/473 247/587/474 
s off
f 286/355/475 304/386/475 287/356/475 
s 2
f 411/1/476 412/4/477 413/3/478 414/2/479 
f 412/4/477 415/7/480 416/6/481 417/5/482 
f 418/8/483 419/11/484 420/10/485 421/9/486 
f 414/2/479 413/3/478 422/13/487 423/12/488 
f 413/3/478 424/15/489 425/14/490 422/13/487 
s 1
f 426/588/491 427/589/492 428/590/493 
f 427/589/492 420/591/494 429/592/495 428/590/493 
s 2
f 430/21/496 431/24/497 432/23/498 433/22/499 
s 1
f 434/593/500 435/594/501 436/595/502 437/596/503 
f 435/594/501 438/597/504 439/598/505 436/595/502 
f 438/597/504 440/599/506 441/600/507 439/598/505 
s 2
f 411/1/476 442/34/508 443/33/509 412/4/477 
f 412/4/477 443/33/509 444/35/510 415/7/480 
f 415/7/480 444/35/510 445/36/511 418/8/483 
f 418/8/483 445/36/511 446/37/512 419/11/484 
f 442/34/508 38/39/39 37/38/38 443/33/509 
f 443/33/509 37/38/38 444/35/510 
f 444/35/510 37/38/38 445/36/511 
f 445/36/511 37/38/38 39/40/40 446/37/512 
s 1
f 447/41/513 448/44/514 449/43/515 450/42/516 
f 451/45/517 452/46/518 448/44/514 447/41/513 
f 453/47/519 452/46/518 451/45/517 
f 454/48/520 455/49/521 452/46/518 453/47/519 
f 456/50/522 457/53/523 458/52/524 459/51/525 
s off
f 460/54/526 461/57/526 462/56/526 463/55/526 
s 16
f 464/58/527 465/61/528 466/60/529 467/59/530 
s 1
f 468/62/531 457/53/523 469/64/532 470/63/533 
f 471/65/534 472/68/535 473/67/536 474/66/537 
f 475/69/538 468/62/531 470/63/533 476/70/539 
s 16
f 465/61/528 477/72/540 478/71/541 466/60/529 
s 1
f 472/68/535 479/74/542 480/73/543 473/67/536 
f 457/53/523 468/62/531 481/75/544 458/52/524 
f 482/76/545 471/65/534 474/66/537 483/77/546 
f 457/53/523 456/50/522 484/78/547 469/64/532 
f 485/79/548 475/69/538 476/70/539 486/80/549 
f 485/79/548 460/83/550 463/82/551 487/81/552 
f 479/74/542 488/85/553 489/84/554 480/73/543 
f 456/50/522 459/51/525 490/87/555 491/86/556 
f 492/88/557 493/91/558 494/90/559 495/89/560 
f 491/86/556 490/87/555 496/93/561 497/92/562 
f 495/89/560 494/90/559 498/95/563 499/94/564 
f 461/96/565 460/83/550 485/79/548 486/80/549 
f 493/91/558 492/88/557 482/76/545 483/77/546 
f 469/64/532 500/98/95 501/97/265 470/63/533 
f 473/67/536 502/100/266 503/99/566 474/66/537 
f 470/63/533 501/97/265 504/101/267 476/70/539 
f 480/73/543 505/102/567 502/100/266 473/67/536 
f 474/66/537 503/99/566 506/103/568 483/77/546 
f 484/78/547 507/104/269 500/98/95 469/64/532 
f 476/70/539 504/101/267 508/105/569 486/80/549 
f 489/84/554 509/106/570 505/102/567 480/73/543 
f 484/78/547 456/50/522 491/86/556 510/107/571 
f 493/91/558 511/109/572 512/108/573 494/90/559 
f 510/107/571 491/86/556 497/92/562 513/110/574 
f 494/90/559 512/108/573 514/111/575 498/95/563 
f 458/52/524 482/76/545 492/88/557 459/51/525 
s off
f 462/56/576 489/84/576 488/112/576 463/55/576 
s 1
f 515/113/577 498/95/563 514/111/575 516/114/161 
s 16
f 466/115/529 517/118/578 518/117/579 467/116/530 
f 478/119/541 519/120/580 517/118/578 466/115/529 
s 1
f 481/75/544 471/65/534 482/76/545 458/52/524 
f 463/121/551 488/85/553 479/74/542 487/122/552 
f 459/51/525 492/88/557 495/89/560 490/87/555 
f 490/87/555 495/89/560 499/94/564 496/93/561 
s off
f 493/91/116 483/77/116 520/124/116 521/123/116 
f 483/77/115 506/103/115 522/125/115 520/124/115 
f 521/126/581 520/129/581 523/128/581 524/127/581 
f 520/130/273 522/132/273 525/131/273 523/128/273 
s 1
f 497/92/562 496/93/561 526/134/582 527/133/583 
f 499/94/564 498/95/563 528/136/584 529/135/585 
f 513/110/574 497/92/562 527/133/583 530/137/586 
f 515/138/577 513/110/574 530/137/586 531/139/587 
f 496/93/561 499/94/564 529/135/585 526/134/582 
f 498/95/563 515/113/577 531/140/587 528/136/584 
f 527/133/583 526/134/582 532/142/588 533/141/589 
f 529/135/585 528/136/584 534/144/590 535/143/591 
f 530/137/586 527/133/583 533/141/589 536/145/592 
f 531/139/587 530/137/586 536/145/592 537/146/593 
f 526/134/582 529/135/585 535/143/591 532/142/588 
f 528/136/584 531/140/587 537/147/593 534/144/590 
f 533/148/589 532/151/588 538/150/594 539/149/595 
f 535/152/591 534/155/590 540/154/596 541/153/597 
f 536/156/592 533/148/589 539/149/595 542/157/598 
f 537/158/593 536/156/592 542/157/598 543/159/599 
f 532/151/588 535/161/591 541/160/597 538/150/594 
f 534/162/590 537/158/593 543/159/599 540/163/596 
f 539/149/595 538/150/594 544/165/600 545/164/601 
f 541/153/597 540/154/596 546/167/602 547/166/603 
f 542/157/598 539/149/595 545/164/601 548/168/604 
f 543/159/599 542/157/598 548/168/604 549/169/605 
f 538/150/594 541/160/597 547/170/603 544/165/600 
f 540/163/596 543/159/599 549/169/605 546/171/602 
f 545/164/601 544/165/600 550/173/606 551/172/607 
f 547/166/603 546/167/602 552/175/608 553/174/609 
f 548/168/604 545/164/601 551/172/607 554/176/610 
f 549/169/605 548/168/604 554/176/610 555/177/611 
f 544/165/600 547/170/603 553/178/609 550/173/606 
f 546/171/602 549/169/605 555/177/611 552/179/608 
f 551/172/607 550/173/606 556/181/612 557/180/613 
f 553/174/609 552/175/608 558/183/614 559/182/615 
f 554/176/610 551/172/607 557/180/613 560/184/616 
f 555/177/611 554/176/610 560/184/616 561/185/617 
f 550/173/606 553/178/609 559/186/615 556/181/612 
f 552/179/608 555/177/611 561/185/617 558/187/614 
f 557/180/613 556/181/612 562/189/618 563/188/619 
f 559/182/615 558/183/614 564/191/620 565/190/621 
f 560/184/616 557/180/613 563/188/619 566/192/622 
f 561/185/617 560/184/616 566/192/622 567/193/623 
f 556/181/612 559/186/615 565/194/621 562/189/618 
f 558/187/614 561/185/617 567/193/623 564/195/620 
s off
f 564/191/111 567/197/111 562/196/111 565/190/111 
f 563/188/624 562/196/624 567/197/624 566/192/624 
f 461/57/625 568/200/625 569/199/625 570/198/625 
f 489/84/626 462/56/626 571/202/626 572/201/626 
f 462/56/627 461/57/627 570/198/627 571/202/627 
s 1
f 570/203/628 569/206/629 573/205/630 574/204/631 
f 572/207/632 571/210/633 575/209/634 576/208/635 
f 571/210/633 570/203/628 574/204/631 575/209/634 
f 448/44/514 574/204/631 573/205/630 449/43/515 
f 452/46/518 575/209/634 574/204/631 448/44/514 
f 455/49/521 576/208/635 575/209/634 452/46/518 
f 475/69/538 577/212/636 578/211/637 468/62/531 
f 468/62/531 578/211/637 579/213/638 481/75/544 
f 481/75/544 579/213/638 580/214/639 471/65/534 
f 471/65/534 580/214/639 581/215/640 472/68/535 
s off
f 472/68/641 581/215/641 582/216/641 479/74/641 
f 479/74/642 582/216/642 583/217/642 487/122/642 
f 487/81/643 583/219/643 584/218/643 485/79/643 
s 1
f 485/79/548 584/218/644 577/212/636 475/69/538 
s 16
f 577/220/645 465/61/528 464/58/527 578/221/646 
f 580/222/647 518/117/579 517/118/578 581/223/648 
f 581/223/648 517/118/578 519/120/580 582/224/649 
f 582/224/649 519/120/580 478/119/541 583/225/650 
f 583/226/650 478/71/541 477/72/540 584/227/651 
f 584/227/651 477/72/540 465/61/528 577/220/645 
f 578/221/646 585/230/652 586/229/653 579/228/654 
f 579/228/654 586/229/653 587/231/655 580/222/647 
f 580/222/647 587/231/655 588/232/656 518/117/579 
f 518/117/579 588/232/656 589/233/657 467/116/530 
f 467/59/530 589/235/657 590/234/658 464/58/527 
f 464/58/527 590/234/658 585/230/652 578/221/646 
s off
f 591/236/659 592/239/659 593/238/659 594/237/659 
f 594/237/660 593/238/660 595/241/660 596/240/660 
f 596/240/661 595/241/661 597/243/661 598/242/661 
f 598/242/662 597/243/662 599/245/662 600/244/662 
f 600/246/663 599/249/663 601/248/663 602/247/663 
f 602/247/664 601/248/664 592/239/664 591/236/664 
f 592/239/665 603/251/665 604/250/665 593/238/665 
f 593/238/666 604/250/666 605/252/666 595/241/666 
f 595/241/667 605/252/667 606/253/667 597/243/667 
f 597/243/668 606/253/668 607/254/668 599/245/668 
f 599/249/669 607/256/669 608/255/669 601/248/669 
f 601/248/670 608/255/670 603/251/670 592/239/670 
f 603/251/671 609/258/671 610/257/671 604/250/671 
f 604/250/672 610/257/672 611/259/672 605/252/672 
f 605/252/673 611/259/673 612/260/673 606/253/673 
f 606/253/674 612/260/674 613/261/674 607/254/674 
f 607/256/675 613/263/675 614/262/675 608/255/675 
f 608/255/676 614/262/676 609/258/676 603/251/676 
s 4
f 609/258/677 615/265/678 616/264/679 610/257/680 
f 610/257/680 616/264/679 617/266/681 611/259/682 
f 611/259/682 617/266/681 618/267/683 612/260/684 
f 612/260/684 618/267/683 619/268/685 613/261/686 
f 613/263/686 619/270/685 620/269/687 614/262/688 
f 614/262/688 620/269/687 615/265/678 609/258/677 
s off
f 621/271/689 622/274/689 623/273/689 624/272/689 
f 624/272/690 623/273/690 625/276/690 626/275/690 
f 626/275/691 625/276/691 627/278/691 628/277/691 
f 628/277/692 627/278/692 629/280/692 630/279/692 
f 630/281/693 629/284/693 631/283/693 632/282/693 
f 632/282/694 631/283/694 622/274/694 621/271/694 
s 8
f 633/285/695 634/288/696 635/287/697 636/286/698 
f 637/289/699 638/292/700 639/291/701 640/290/702 
s 2
f 423/12/488 422/13/487 431/24/497 430/21/496 
f 422/13/487 425/14/490 641/293/703 
s 1
f 435/594/501 426/588/491 428/590/493 438/597/504 
f 428/590/493 429/592/495 440/599/506 438/597/504 
s 2
f 642/294/704 643/295/705 411/1/476 414/2/479 
f 420/10/485 419/11/484 644/297/706 645/296/707 
f 646/298/708 642/294/704 414/2/479 423/12/488 
s 1
f 429/592/495 420/591/494 241/601/248 240/602/247 
s 2
f 647/301/709 648/303/710 433/22/499 649/302/711 
s 1
f 650/304/712 651/307/713 247/306/254 246/305/253 
s 2
f 643/295/705 652/308/714 442/34/508 411/1/476 
f 419/309/484 446/37/512 39/40/40 250/310/257 
s 1
f 450/42/516 449/43/515 252/312/259 251/311/258 
f 653/313/715 654/314/716 455/49/521 454/48/520 
f 508/105/569 568/315/717 461/96/565 486/80/549 
s 4
f 525/131/115 655/316/115 524/127/115 523/128/115 
s 1
f 516/317/161 656/318/718 513/110/574 515/138/577 
f 657/319/719 507/104/269 484/78/547 510/107/571 
f 656/318/718 657/319/719 510/107/571 513/110/574 
f 501/97/265 500/98/95 259/321/95 258/320/265 
f 503/99/566 502/100/266 261/323/266 260/322/96 
f 504/101/267 501/97/265 258/320/265 262/324/267 
f 502/100/266 505/102/567 263/325/268 261/323/266 
f 506/103/568 503/99/566 260/322/96 264/326/100 
f 500/98/95 507/104/269 265/327/269 259/321/95 
f 508/105/569 504/101/267 262/324/267 266/328/270 
f 505/102/567 509/106/570 267/329/271 263/325/268 
f 512/108/573 511/109/572 269/331/106 268/330/105 
f 514/111/575 512/108/573 268/330/105 270/332/108 
f 516/114/161 514/111/575 270/332/108 271/333/161 
s off
f 658/334/115 511/109/115 493/91/115 521/123/115 
f 522/125/115 506/103/115 264/326/115 273/335/115 
f 655/316/720 658/337/720 521/336/720 524/127/720 
f 525/131/118 522/132/118 273/339/118 274/338/118 
f 569/199/721 568/200/721 276/341/721 275/340/721 
f 659/342/722 509/106/722 489/84/722 572/201/722 
s 1
f 573/205/630 569/206/629 275/344/277 278/343/276 
f 660/345/723 659/346/724 572/207/632 576/208/635 
f 449/43/515 573/205/630 278/343/276 252/312/259 
f 654/314/716 660/345/723 576/208/635 455/49/521 
s 2
f 661/347/725 646/298/708 423/12/488 430/21/496 
s 1
f 662/603/726 663/604/727 283/605/283 282/606/282 
s 2
f 433/22/499 432/23/498 664/352/728 649/302/711 
s 1
f 437/353/503 436/354/502 453/47/519 451/45/517 
f 665/355/729 666/358/730 667/357/731 668/356/732 
f 666/358/730 651/307/713 650/304/712 667/357/731 
s 2
f 433/22/499 648/303/710 661/347/725 430/21/496 
s 1
f 290/607/290 669/608/733 662/603/726 282/606/282 
f 429/592/495 663/604/727 670/609/734 440/599/506 
f 440/599/506 670/609/734 671/610/735 441/600/507 
f 441/600/507 671/610/735 295/611/295 294/612/294 
f 420/591/494 672/613/736 296/601/296 241/601/248 
s off
f 672/366/737 645/296/737 644/297/737 
f 420/367/738 673/368/738 672/366/738 
f 672/366/739 673/368/739 645/296/739 
s 2
f 645/296/707 673/368/740 420/10/485 
s off
f 427/369/741 674/372/741 675/371/741 420/370/741 
f 420/10/742 675/374/742 676/373/742 
s 2
f 420/10/485 676/373/743 677/375/744 421/9/486 
s off
f 421/376/745 677/375/745 674/372/745 427/369/745 
f 674/372/746 678/377/746 675/371/746 
f 675/374/747 678/377/747 676/373/747 
s 2
f 676/373/743 678/377/748 677/375/744 
s off
f 677/375/749 678/377/749 674/372/749 
s 1
f 436/354/502 679/378/750 453/47/519 
f 453/47/519 679/378/750 680/379/751 454/48/520 
f 454/48/520 680/379/751 681/380/752 653/313/715 
f 653/313/715 681/380/752 308/382/315 307/381/314 
f 441/600/507 682/614/753 683/615/754 439/598/505 
f 439/598/505 683/615/754 679/616/750 436/595/502 
s off
f 679/386/755 668/356/755 667/388/755 680/387/755 
f 680/387/756 667/388/756 650/390/756 681/389/756 
f 681/389/757 650/390/757 246/392/757 308/391/757 
f 682/393/758 651/396/758 666/395/758 683/394/758 
f 683/394/759 666/395/759 665/355/759 679/386/759 
f 670/609/760 663/604/760 662/603/760 
f 670/609/761 662/603/761 669/608/761 671/610/761 
f 671/610/762 669/608/762 290/607/762 295/611/762 
f 413/3/763 412/4/763 417/5/763 
f 413/3/764 684/398/764 685/397/764 424/15/764 
s 2
f 416/6/481 424/15/489 685/397/765 
f 416/6/481 685/397/765 684/398/766 417/5/482 
s off
f 417/5/330 684/398/330 413/3/330 
f 435/399/767 686/400/767 425/14/767 
f 434/401/768 687/403/768 688/402/768 435/399/768 
f 435/399/769 688/402/769 689/404/769 686/400/769 
s 2
f 686/400/770 689/406/771 690/405/772 431/24/497 
s off
f 431/407/773 690/410/773 687/409/773 434/408/773 
f 687/403/774 691/411/774 688/402/774 
f 688/402/775 691/412/775 689/404/775 
s 2
f 689/406/771 691/413/776 690/405/772 
s off
f 690/410/777 691/414/777 687/409/777 
s 2
f 431/24/497 422/13/487 641/293/703 
s off
f 431/24/778 641/293/778 686/400/778 
s 2
f 686/400/770 641/293/703 425/14/490 
s off
f 451/415/779 664/418/779 432/417/779 437/416/779 
f 437/416/780 432/417/780 431/407/780 434/408/780 
f 450/419/781 692/420/781 647/301/781 
s 2
f 647/301/709 692/420/782 321/421/347 320/421/346 
s off
f 450/419/783 693/423/783 447/422/783 
f 447/424/784 693/423/784 649/302/784 
s 2
f 649/302/711 693/423/785 647/301/709 
s off
f 647/301/786 693/423/786 450/419/786 
f 447/424/787 694/426/787 451/425/787 
f 451/415/788 694/427/788 664/418/788 
s 2
f 664/352/728 694/426/789 649/302/711 
s off
f 649/302/790 694/426/790 447/424/790 
s 2
f 415/7/480 418/8/483 421/9/486 416/6/481 
f 421/9/486 695/428/791 424/15/489 416/6/481 
f 424/15/489 695/428/791 435/399/792 425/14/490 
s off
f 421/9/793 427/430/793 426/429/793 695/428/793 
s 8
f 696/431/794 697/434/795 698/433/796 699/432/797 
f 700/435/798 701/438/799 633/437/695 636/436/698 
f 702/439/800 700/442/798 703/441/801 704/440/802 
f 705/443/803 702/446/800 706/445/804 707/444/805 
f 708/447/806 705/450/803 707/449/805 709/448/807 
f 697/451/795 708/454/806 710/453/808 711/452/809 
s off
f 712/455/810 621/271/810 624/272/810 713/456/810 
f 713/456/811 624/272/811 626/275/811 714/457/811 
f 714/457/812 626/275/812 628/277/812 715/458/812 
f 715/458/813 628/277/813 630/279/813 716/459/813 
f 716/460/814 630/281/814 632/282/814 717/461/814 
f 717/461/815 632/282/815 621/271/815 712/455/815 
f 696/462/816 623/273/816 622/274/816 697/463/816 
f 697/463/817 622/274/817 631/283/817 708/464/817 
f 708/464/818 631/283/818 629/284/818 705/465/818 
f 705/466/819 629/280/819 627/278/819 702/467/819 
f 702/467/820 627/278/820 625/276/820 700/468/820 
f 700/468/821 625/276/821 623/273/821 696/462/821 
s 8
f 709/469/807 718/470/822 710/453/808 708/454/806 
f 634/288/696 706/471/804 702/439/800 635/287/697 
f 706/445/804 634/473/696 719/472/823 707/444/805 
f 720/474/824 721/477/825 722/476/826 723/475/827 
f 699/478/797 701/438/799 700/435/798 696/479/794 
f 701/438/799 699/478/797 724/480/828 633/437/695 
f 725/481/829 698/433/796 697/434/795 711/482/809 
f 698/433/796 725/481/829 724/483/828 699/432/797 
f 726/484/830 727/487/831 728/486/832 729/485/833 
f 718/488/822 709/448/807 707/449/805 719/489/823 
f 730/490/834 731/493/835 732/492/836 733/491/837 
f 636/436/698 703/494/801 700/435/798 
f 635/287/697 702/439/800 704/440/802 
f 635/287/697 734/496/838 735/495/839 636/286/698 
f 636/436/698 735/498/839 736/497/840 703/494/801 
f 703/441/801 736/500/840 737/499/841 704/440/802 
f 704/440/802 737/499/841 734/496/838 635/287/697 
f 734/496/838 738/502/842 739/501/843 735/495/839 
f 735/498/839 739/504/843 740/503/844 736/497/840 
f 736/500/840 740/506/844 741/505/845 737/499/841 
f 737/499/841 741/505/845 738/502/842 734/496/838 
f 738/507/842 730/490/834 733/491/837 739/504/843 
f 739/504/843 733/491/837 732/492/836 740/503/844 
f 740/503/844 732/492/836 731/493/835 741/508/845 
f 741/508/845 731/493/835 730/490/834 738/507/842 
f 718/470/822 742/510/846 743/509/847 710/453/808 
f 710/453/808 743/509/847 744/511/848 711/452/809 
f 711/482/809 744/513/848 745/512/849 725/481/829 
f 725/514/829 745/515/849 742/510/846 718/470/822 
f 634/473/696 746/517/850 747/516/851 719/472/823 
f 719/472/823 747/516/851 748/519/852 724/518/828 
f 724/480/828 748/521/852 749/520/853 633/437/695 
f 633/522/695 749/523/853 746/517/850 634/473/696 
f 742/510/846 750/525/854 751/524/855 743/509/847 
f 743/509/847 751/524/855 752/526/856 744/511/848 
f 744/513/848 752/528/856 753/527/857 745/512/849 
f 745/515/849 753/529/857 750/525/854 742/510/846 
f 746/517/850 754/531/858 755/530/859 747/516/851 
f 747/516/851 755/530/859 756/532/860 748/519/852 
f 748/521/852 756/534/860 757/533/861 749/520/853 
f 749/523/853 757/535/861 754/531/858 746/517/850 
f 725/481/829 758/537/862 759/536/863 724/483/828 
f 724/538/828 759/540/863 760/539/864 719/489/823 
f 719/489/823 760/539/864 761/541/865 718/488/822 
f 718/488/822 761/541/865 758/543/862 725/542/829 
f 758/537/862 762/545/866 763/544/867 759/536/863 
f 759/540/863 763/547/867 764/546/868 760/539/864 
f 760/539/864 764/546/868 765/548/869 761/541/865 
f 761/541/865 765/548/869 762/549/866 758/543/862 
f 750/525/854 637/551/699 640/550/702 751/524/855 
f 751/524/855 640/550/702 639/552/701 752/526/856 
f 752/528/856 639/291/701 638/292/700 753/527/857 
f 753/529/857 638/553/700 637/551/699 750/525/854 
f 754/531/858 720/555/824 723/554/827 755/530/859 
f 755/530/859 723/554/827 722/556/826 756/532/860 
f 756/534/860 722/476/826 721/477/825 757/533/861 
f 757/535/861 721/557/825 720/555/824 754/531/858 
f 762/545/866 726/484/830 729/485/833 763/544/867 
f 763/547/867 729/559/833 728/558/832 764/546/868 
f 764/546/868 728/558/832 727/560/831 765/548/869 
f 765/548/869 727/560/831 726/561/830 762/549/866 
s 1
f 652/308/870 643/295/705 396/563/438 395/562/437 
s 4
f 616/264/679 615/265/678 712/455/871 713/456/872 
f 617/266/681 616/264/679 713/456/872 714/457/873 
f 618/267/683 617/266/681 714/457/873 715/458/874 
f 619/268/685 618/267/683 715/458/874 716/459/875 
f 620/269/687 619/270/685 716/460/875 717/461/876 
f 615/265/678 620/269/687 717/461/876 712/455/871 
s 16
f 586/229/653 585/230/652 591/236/877 594/237/878 
f 587/231/655 586/229/653 594/237/878 596/240/879 
f 588/232/656 587/231/655 596/240/879 598/242/880 
f 589/233/657 588/232/656 598/242/880 600/244/881 
f 590/234/658 589/235/657 600/246/881 602/247/882 
f 585/230/652 590/234/658 602/247/882 591/236/877 
s 2
f 397/564/451 398/565/452 642/294/704 646/298/708 
f 399/566/453 400/567/454 661/347/725 648/303/710 
f 395/562/455 38/39/39 442/34/508 652/308/714 
s 1
f 307/381/314 401/568/456 654/314/716 653/313/715 
f 266/328/270 276/569/457 568/315/717 508/105/569 
s 4
f 274/338/116 402/570/116 655/316/115 525/131/115 
s 1
f 271/571/161 403/572/458 656/318/718 516/317/161 
f 404/573/459 265/327/269 507/104/269 657/319/719 
f 403/572/458 404/573/459 657/319/719 656/318/718 
s off
f 405/574/116 269/331/116 511/109/116 658/334/116 
f 402/570/272 405/575/272 658/337/272 655/316/272 
f 406/576/883 267/329/883 509/106/883 659/342/883 
s 1
f 407/577/461 406/578/462 659/346/724 660/345/723 
f 401/568/456 407/577/461 660/345/723 654/314/716 
s 2
f 400/567/454 397/564/451 646/298/708 661/347/725 
f 320/421/346 399/566/453 648/303/710 647/301/709 
s 1
f 240/602/247 283/605/283 663/604/727 429/592/495 
s off
f 250/310/884 408/310/884 644/579/884 419/309/884 
s 2
f 408/580/464 296/581/466 672/366/885 644/297/706 
s 1
f 294/612/294 409/617/467 682/614/753 441/600/507 
s off
f 251/583/886 410/583/886 692/420/886 450/584/886 
f 410/583/887 321/421/887 692/420/887 
s 3
f 398/565/452 396/563/438 643/295/705 642/294/704 
s off
f 426/585/888 435/399/888 695/428/888 
s 4
f 409/586/471 247/587/474 651/396/889 682/393/890 
s off
f 665/355/891 668/356/891 679/386/891 
# 722 polygons - 82 triangles

